{
    "address": "423570, Республика Татарстан (Татарстан), Нижнекамск, Промзона ОАО \"Нижнекамскшина\", корпус №84",
    "business": {
        "age": "более 10 лет",
        "languages": [
            "Английский"
        ],
        "size": "16-100",
        "type": "Дистрибутор"
    },
    "contact": {
        "email": "info@td-kama.com",
        "name": "Менеджер ООО_\"ТОРГОВЫЙ_ДОМ_\"КАМА\"",
        "phones": [
            "8(8555) 24-10-00",
            "24-10-40",
            "24-10-10"
        ],
        "position": "Менеджер"
    },
    "description": "ООО \"Торговый Дом \"Кама\" - генеральный дистрибьютор шин и технического углерода производства Нефтехимического комплекса ОАО \"Татнефть\". Основная цель компании - оптовая реализация шин и технического углерода, годовой объем производства, которой составляет более 13 миллионов шин и более 32 тысяч тонн технического углерода. В настоящее время ТД \"Кама\" предлагает потребителю легковые, легкогрузовые, грузовые  комбинированные и грузовые ЦМК  шины трех брендов:KAMA, KAMA EURO, Viatti.",
    "email": "info@td-kama.com",
    "keywords": [
        "Нефтехимический комплекс ОАО \"Татнефть\"",
        "ООО \"Торговый Дом \"Кама\"",
        "дистрибьютор ",
        "оптовая реализация шин и технического углерода",
        "шины KAMA, KAMA EURO, Viatti"
    ],
    "name": "ООО \"ТОРГОВЫЙ ДОМ \"КАМА\"",
    "phones": [
        "8(8555) 24-10-00",
        "24-10-40",
        "24-10-10"
    ],
    "presence": {},
    "website": "http://www.td-kama.com",
    "wishlist": {
        "СНГ": [
            "Абхазия",
            "Азербайджан",
            "Армения",
            "Беларусь",
            "Казахстан",
            "Киргизия",
            "Молдавия",
            "Таджикистан",
            "Туркменистан",
            "Узбекистан",
            "Украина"
        ]
    }
}
