{
    "address": "428000, Чувашская Республика, Чебоксары, Московский проспект, 52А",
    "business": {
        "age": "3-5 лет",
        "languages": [
            "Английский",
            "Русский"
        ],
        "size": "1-15",
        "turnover": "менее 2",
        "type": "Дистрибутор"
    },
    "contact": {
        "email": "pricep-rf@mail.ru",
        "name": "Игнатьев Иван Евгеньевич",
        "phones": [
            "7-927-6689772"
        ],
        "position": "Директор"
    },
    "description": "Производство и продажа прицепов для перевозки техники, негабаритных грузов и монтажа оборудования",
    "email": "pricep-rf@mail.ru",
    "keywords": [
        "низкорамный прицеп, прицеп для погрузчика, прицеп для перевозки спецтехники"
    ],
    "name": "ООО \"ПромАгроПрицеп\"",
    "phones": [
        "7-927-6689772"
    ],
    "presence": {
        "СНГ": [
            "Азербайджан",
            "Армения",
            "Беларусь",
            "Казахстан",
            "Узбекистан",
            "Украина"
        ]
    },
    "website": "http://pricep-rf.ru/",
    "wishlist": {
        "СНГ": [
            "Абхазия",
            "Азербайджан",
            "Армения",
            "Беларусь",
            "Казахстан",
            "Киргизия",
            "Молдавия",
            "Таджикистан",
            "Туркменистан",
            "Узбекистан",
            "Украина"
        ]
    }
}
