{
    "address": "190068, Санкт-Петербург, набережная канала Грибоедова ,126",
    "business": {
        "age": "1-2 года",
        "languages": [
            "Английский",
            "Китайский"
        ],
        "size": "1-15",
        "turnover": "менее 2",
        "type": "Оптовая компания"
    },
    "contact": {
        "email": "anatoliy.kiss@gmail.com",
        "name": "Кисс Анатолий Русланович",
        "phones": [
            "+7-921-780-60-65"
        ],
        "position": "Руководитель проекта"
    },
    "description": "Осуществление поставок мяса и мясных субпродуктов ( цыпленок бройлер, ноги ЦБ, головы ЦБ, шеи ЦБ и т.д.), подсолнечного масла (рафинированного и нерафинированного), овощей и фруктов с собственной плантации в Марокко, поставки рыбы( сардины, сардинеллы и т.д.) из Марокко, поставки ягод (клюквы, брусники,) и грибов (сушенных или свежих).",
    "email": "anatoliy.kiss@gmail.com",
    "keywords": [
        "куриные ноги, ноги ЦБ, подсолнечное масло, ягоды, грибы, курица, еда, продукты питания"
    ],
    "name": "ООО \"Оптима-Люкс\"",
    "phones": [
        "+7-812-702-60-65 (доб.804)"
    ],
    "presence": {
        "Азия": [
            "Китай"
        ]
    },
    "website": "http://optima-lux.com",
    "wishlist": {
        "Азия": [
            "Афганистан",
            "Бангладеш",
            "Бахрейн",
            "Бруней-Даруссалам",
            "Бутан",
            "Вьетнам",
            "Грузия",
            "Израиль",
            "Индия",
            "Индонезия",
            "Иордания",
            "Ирак",
            "Иран",
            "Исламская Республика",
            "Йемен",
            "Камбоджа",
            "Катар",
            "Китай",
            "Кувейт",
            "Лаос",
            "Ливан",
            "Малайзия",
            "Мальдивы",
            "Монголия",
            "Мьянма",
            "Непал",
            "Объединенные Арабские Эмираты",
            "Оман",
            "Пакистан",
            "Саудовская Аравия",
            "Северная Корея",
            "Сингапур",
            "Таиланд",
            "Филиппины",
            "Шри-Ланка",
            "Южная Корея",
            "Япония"
        ],
        "Африка": [
            "Алжир",
            "Ботсвана",
            "Египет",
            "Ливийская Арабская Джамахирия",
            "Маврикий",
            "Марокко",
            "Сирийская Арабская Республика",
            "Чад",
            "Южный Судан"
        ],
        "Европа": [
            "Австрия",
            "Албания",
            "Андорра",
            "Бельгия",
            "Болгария",
            "Босния и Герцеговина",
            "Великобритания",
            "Венгрия",
            "Германия",
            "Греция",
            "Дания",
            "Европейские сообщества",
            "Ирландия",
            "Исландия",
            "Испания",
            "Италия",
            "Кипр",
            "Латвия",
            "Литва",
            "Лихтенштейн",
            "Люксембург",
            "Македония (Республика Македония)",
            "Мальта",
            "Монако",
            "Нидерланды",
            "Норвегия",
            "Польша",
            "Португалия",
            "Румыния",
            "Сан-Марино",
            "Сербия",
            "Словакия",
            "Словения",
            "Турция",
            "Финляндия",
            "Франция",
            "Хорватия",
            "Черногория",
            "Чехия (Чешская Республика)",
            "Швейцария",
            "Швеция",
            "Эстония"
        ]
    }
}
