{
    "address": "308011, Белгородская область, Белгород, Россия, Белгород, ул. Садовая, д. 118",
    "business": {
        "age": "более 10 лет",
        "languages": [
            "Английский",
            "Немецкий"
        ],
        "size": "251-1000",
        "turnover": "16-30",
        "type": "Производитель, Оптовая компания"
    },
    "contact": {
        "email": "inttrade@vladmiva.ru",
        "name": "Кривошапов Сергей Александрович",
        "phones": [
            "(4722) 200-555"
        ],
        "position": "Заведующий отделом ВЭД"
    },
    "description": "Стоматологические алмазные инструменты: для турбинного наконечника, для углового наконечника, для прямого наконечника. Стоматологические материалы: Пломбировочные материалы, Эндодонтические материалы, Лечебные материалы, Вспомогательные материалы, Профилактические материалы, Ортопедические материалы, Зуботехнические материалы, Материалы для дезинфекции.",
    "email": "inttrade@tdvladmiva.ru",
    "keywords": [
        "стоматологические материалы",
        "стоматологическое оборудование",
        "стоматологические инструменты",
        "алмазные боры",
        "боры для прямого наконечника",
        "боры для турбинного наконечника",
        "боры для углового наконечника",
        "пломбировочные материалы",
        "эндодонтические материалы",
        "лечебные материалы",
        "вспомогательные материалы",
        "профилактические материалы",
        "ортопедические материалы",
        "зуботехнические материалы",
        "материалы для дезинфекции"
    ],
    "name": "ООО \"Торговый Дом \"ВладМиВа\"",
    "phones": [
        "+7 /4722/ 200555"
    ],
    "presence": {
        "Азия": [
            "Бангладеш",
            "Вьетнам",
            "Грузия",
            "Иордания",
            "Ирак",
            "Йемен",
            "Ливан",
            "Монголия",
            "Пакистан",
            "Саудовская Аравия"
        ],
        "Африка": [
            "Египет"
        ],
        "Европа": [
            "Латвия",
            "Литва"
        ],
        "СНГ": [
            "Азербайджан",
            "Армения",
            "Беларусь",
            "Казахстан",
            "Киргизия",
            "Молдавия",
            "Таджикистан",
            "Туркменистан",
            "Узбекистан",
            "Украина"
        ]
    },
    "website": "http://www.vladmiva.ru",
    "wishlist": {
        "Австралия и Океания": [
            "Австралия",
            "Новая Зеландия",
            "Папуа-Новая Гвинея"
        ],
        "Азия": [
            "Афганистан",
            "Бангладеш",
            "Бахрейн",
            "Бруней-Даруссалам",
            "Бутан",
            "Вьетнам",
            "Грузия",
            "Израиль",
            "Индия",
            "Индонезия",
            "Иордания",
            "Ирак",
            "Иран",
            "Исламская Республика",
            "Йемен",
            "Камбоджа",
            "Катар",
            "Китай",
            "Кувейт",
            "Лаос",
            "Ливан",
            "Малайзия",
            "Мальдивы",
            "Монголия",
            "Мьянма",
            "Непал",
            "Объединенные Арабские Эмираты",
            "Оман",
            "Пакистан",
            "Саудовская Аравия",
            "Северная Корея",
            "Сингапур",
            "Таиланд",
            "Филиппины",
            "Шри-Ланка",
            "Южная Корея",
            "Япония"
        ],
        "Африка": [
            "Алжир",
            "Ботсвана",
            "Египет",
            "Ливийская Арабская Джамахирия",
            "Маврикий",
            "Марокко",
            "Сирийская Арабская Республика",
            "Чад",
            "Южный Судан"
        ],
        "Европа": [
            "Австрия",
            "Албания",
            "Андорра",
            "Бельгия",
            "Болгария",
            "Босния и Герцеговина",
            "Великобритания",
            "Венгрия",
            "Германия",
            "Греция",
            "Дания",
            "Европейские сообщества",
            "Ирландия",
            "Исландия",
            "Испания",
            "Италия",
            "Кипр",
            "Латвия",
            "Литва",
            "Лихтенштейн",
            "Люксембург",
            "Македония (Республика Македония)",
            "Мальта",
            "Монако",
            "Нидерланды",
            "Норвегия",
            "Польша",
            "Португалия",
            "Румыния",
            "Сан-Марино",
            "Сербия",
            "Словакия",
            "Словения",
            "Турция",
            "Финляндия",
            "Франция",
            "Хорватия",
            "Черногория",
            "Чехия (Чешская Республика)",
            "Швейцария",
            "Швеция",
            "Эстония"
        ],
        "Центральная и Северная Америка": [
            "Антигуа и Барбуда",
            "Аруба",
            "Виргинские острова",
            "Британские",
            "Виргинские острова",
            "США",
            "Гватемала",
            "Гондурас",
            "Канада",
            "Коста-Рика",
            "Куба",
            "Мексика",
            "Никарагуа",
            "Панама",
            "Соединенные Штаты Америки"
        ],
        "Южная Америка": [
            "Аргентина",
            "Боливия",
            "Бразилия",
            "Перу",
            "Фолклендские острова (Мальвинские)"
        ]
    }
}
