{
    "address": "248009, Калужская область, г.Калуга, Грабцевское шоссе, 43",
    "business": {
        "age": "более 10 лет",
        "languages": [
            "Английский"
        ],
        "size": "101-250",
        "turnover": "2-15",
        "type": "Консультант, Производитель"
    },
    "contact": {
        "email": "algont@postklg.ru",
        "name": "Кондрашев Александр Сергеевич",
        "phones": [
            "+7 (4842) 58 07 07"
        ],
        "position": "Генеральный директор"
    },
    "description": "Предприятие успешно работает в области разработки, производства и внедрения интеллектуальных систем и средств безопасности. Основные направления деятельности: разработка программного обеспечения автоматизированных комплексов, в том числе интегрированных комплексов систем физической  зашиты; разработка оборудования технических средств охраны; проектирование интегрированных комплексов систем физической защиты; изготовление оборудования на собственной производственной базе.",
    "email": "algont@postklg.ru",
    "keywords": [
        "производство, ",
        "безопасность и охрана,",
        "приборостроение, промышленная электроника"
    ],
    "name": "Алгонт, ЗАО",
    "phones": [
        "+7(4842)58 07 07"
    ],
    "presence": {
        "СНГ": [
            "Украина"
        ]
    },
    "website": "http://www.algont.ru",
    "wishlist": {
        "Азия": [
            "Китай"
        ],
        "Европа": [
            "Польша",
            "Румыния",
            "Словакия"
        ],
        "СНГ": [
            "Беларусь",
            "Казахстан",
            "Украина"
        ]
    }
}
