{
    "address": "249030, Калужская область, г. Обнинск, Киевское шоссе, дом 3",
    "business": {
        "age": "более 10 лет",
        "languages": [
            "Английский",
            "Русский"
        ],
        "size": "16-100",
        "type": "Производитель"
    },
    "contact": {
        "email": "am.commerce@pam-alliance.ru",
        "name": "Мироевская Алина",
        "phones": [
            "(910)608-29-27"
        ],
        "position": "руководитель Службы информационного продвижения"
    },
    "description": "«Медбиофарм» – научно-производственная компания, разработчик и производитель оригинальных функциональных субстанций для фармацевтической, пищевой, косметической промышленности, а также ветеринарии. Миссия: «забота о здоровье». Год основания 1998. Сегодня «Медбиофарм» является частью Альянса компетенций \"Парк активных молекул\" - партнерства, объединяющего организации, работающие в сфере инновационной биофармацевтики.",
    "email": "office@pam-alliance.ru",
    "keywords": [
        "производство",
        "пищевая промышленность",
        "биофармацевтика"
    ],
    "name": "Медбиофарм, ООО НПК",
    "phones": [
        "+7(484)39-972-58",
        "+7(484)39-973-38"
    ],
    "presence": {
        "СНГ": [
            "Абхазия",
            "Азербайджан",
            "Армения",
            "Беларусь",
            "Казахстан",
            "Киргизия",
            "Молдавия",
            "Таджикистан",
            "Туркменистан",
            "Узбекистан",
            "Украина"
        ]
    },
    "website": "http://www.medbiopharm.ru",
    "wishlist": {
        "Азия": [
            "Афганистан",
            "Бангладеш",
            "Бахрейн",
            "Бруней-Даруссалам",
            "Бутан",
            "Вьетнам",
            "Грузия",
            "Израиль",
            "Индия",
            "Индонезия",
            "Иордания",
            "Ирак",
            "Иран",
            "Исламская Республика",
            "Йемен",
            "Камбоджа",
            "Катар",
            "Китай",
            "Кувейт",
            "Лаос",
            "Ливан",
            "Малайзия",
            "Мальдивы",
            "Монголия",
            "Мьянма",
            "Непал",
            "Объединенные Арабские Эмираты",
            "Оман",
            "Пакистан",
            "Саудовская Аравия",
            "Северная Корея",
            "Сингапур",
            "Таиланд",
            "Филиппины",
            "Шри-Ланка",
            "Южная Корея",
            "Япония"
        ],
        "Европа": [
            "Австрия",
            "Албания",
            "Андорра",
            "Бельгия",
            "Болгария",
            "Босния и Герцеговина",
            "Великобритания",
            "Венгрия",
            "Германия",
            "Греция",
            "Дания",
            "Европейские сообщества",
            "Ирландия",
            "Исландия",
            "Испания",
            "Италия",
            "Кипр",
            "Латвия",
            "Литва",
            "Лихтенштейн",
            "Люксембург",
            "Македония (Республика Македония)",
            "Мальта",
            "Монако",
            "Нидерланды",
            "Норвегия",
            "Польша",
            "Португалия",
            "Румыния",
            "Сан-Марино",
            "Сербия",
            "Словакия",
            "Словения",
            "Турция",
            "Финляндия",
            "Франция",
            "Хорватия",
            "Черногория",
            "Чехия (Чешская Республика)",
            "Швейцария",
            "Швеция",
            "Эстония"
        ],
        "СНГ": [
            "Абхазия",
            "Азербайджан",
            "Армения",
            "Беларусь",
            "Казахстан",
            "Киргизия",
            "Молдавия",
            "Таджикистан",
            "Туркменистан",
            "Узбекистан",
            "Украина"
        ]
    }
}
