{
    "address": "249038, Калужская область, г. Обнинск, пр. Ленина, 82",
    "business": {
        "age": "более 10 лет",
        "languages": [
            "Английский"
        ],
        "size": "1-15",
        "turnover": "менее 2",
        "type": "Производитель"
    },
    "contact": {
        "email": "rino@rinotel.com",
        "name": "Редькин Вадим Васильевич",
        "phones": [
            "+7(48439) 4-07-82",
            "7-11-05"
        ],
        "position": "Генеральный директор"
    },
    "description": "Исследовательские и опытно-конструкторские работы в областях: телекоммуникационного оборудования, программного обеспечения в сфере телекоммуникационных и сетевых технологий, биллинга, организации и управления обслуживанием. Производство, поставка и внедрение телекоммуникационного оборудования, программного обеспечения и решений на их основе.",
    "email": "rino@rinotel.com",
    "keywords": [
        "разработка",
        "производство ",
        "телекоммуникационное оборудование"
    ],
    "name": "РИНО, НПП ЗАО",
    "phones": [
        "+7(48439) 4-07-82",
        "7-11-01"
    ],
    "presence": {
        "СНГ": [
            "Казахстан",
            "Киргизия",
            "Таджикистан"
        ]
    },
    "website": "http://www.rinotel.com",
    "wishlist": {
        "СНГ": [
            "Армения",
            "Казахстан",
            "Киргизия",
            "Таджикистан",
            "Туркменистан"
        ]
    }
}
