{
    "address": "111123, Москва, Плеханова, 4A",
    "business": {
        "age": "более 10 лет",
        "languages": [
            "Английский"
        ],
        "size": "16-100",
        "type": "Производитель, Поставщик услуг"
    },
    "contact": {
        "email": "vs01@bk.ru",
        "name": "менеджер по работе с клиентами",
        "phones": [
            "7-909-1558833"
        ],
        "position": "менеджер"
    },
    "description": "Инжиниринговая компания основана в 1992г.rnОсновные направления деятельности:rn- производство и реализация коммунальной и дорожной техникиrn- поставки специальной техникиrn- поставки  водного транспортаrn- поставки  вездеходной техникиrn- поставки  строительной техники и оборудованияrn- комплексные поставки техники и оборудования",
    "email": "vs01@bk.ru",
    "keywords": [
        "техника"
    ],
    "name": "Закрытое акционерное общество \"Коминвест-АКМТ\"",
    "phones": [
        "7-909-1558833"
    ],
    "presence": {
        "СНГ": [
            "Беларусь",
            "Казахстан",
            "Молдавия",
            "Украина"
        ]
    },
    "website": "http://www.cominvest-akmt.ru",
    "wishlist": {
        "Европа": [
            "Австрия",
            "Албания",
            "Андорра",
            "Бельгия",
            "Болгария",
            "Босния и Герцеговина",
            "Великобритания",
            "Венгрия",
            "Германия",
            "Греция",
            "Дания",
            "Европейские сообщества",
            "Ирландия",
            "Исландия",
            "Испания",
            "Италия",
            "Кипр",
            "Латвия",
            "Литва",
            "Лихтенштейн",
            "Люксембург",
            "Македония (Республика Македония)",
            "Мальта",
            "Монако",
            "Нидерланды",
            "Норвегия",
            "Польша",
            "Португалия",
            "Румыния",
            "Сан-Марино",
            "Сербия",
            "Словакия",
            "Словения",
            "Турция",
            "Финляндия",
            "Франция",
            "Хорватия",
            "Черногория",
            "Чехия (Чешская Республика)",
            "Швейцария",
            "Швеция",
            "Эстония"
        ],
        "СНГ": [
            "Абхазия",
            "Азербайджан",
            "Армения",
            "Беларусь",
            "Казахстан",
            "Киргизия",
            "Молдавия",
            "Таджикистан",
            "Туркменистан",
            "Узбекистан",
            "Украина"
        ]
    }
}
