{
    "address": "160000, Вологодская область, Вологда, Проспект Победы 67А",
    "business": {
        "age": "более 10 лет",
        "languages": [
            "Английский",
            "Французский"
        ],
        "size": "251-1000",
        "type": "Производитель, Поставщик услуг, Оптовая компания"
    },
    "contact": {
        "email": "sokolov_iv@npoakonit.ru",
        "name": "Соколов Илья Владимирович",
        "phones": [
            "89115461951"
        ],
        "position": "Руководитель группы ВЭД"
    },
    "description": "ЗАО «НПО «Аконит» -  машиностроительное предприятие по производству конвейерного оборудования и запасных частей конвейеров.Основная деятельность компании — проектирование, производство подъемно-транспортного оборудования, нестандартного оборудования, транспортных систем с готовностью \"под ключ\", запасных частей, роликов и роликоопор, а также изготовление нестандартных запасных частей оборудования, в том числе, по чертежам заказчика. ЗАО «НПО «Аконит» имеет сертификат ISO 9001:2008.",
    "email": "sokolov_iv@npoakonit.ru",
    "keywords": [
        "производство конвейерных систем, производство комплектующих для конвейеров, производство роликов и роликоопор,"
    ],
    "name": "ЗАО НПО Аконит",
    "phones": [
        "89115461951"
    ],
    "presence": {
        "Азия": [
            "Иордания"
        ],
        "СНГ": [
            "Армения",
            "Беларусь",
            "Казахстан",
            "Туркменистан",
            "Узбекистан",
            "Украина"
        ]
    },
    "website": "http://www.npoakonit.ru",
    "wishlist": {
        "Африка": [
            "Алжир",
            "Ботсвана",
            "Египет",
            "Ливийская Арабская Джамахирия",
            "Маврикий",
            "Марокко",
            "Сирийская Арабская Республика",
            "Чад",
            "Южный Судан"
        ]
    }
}
