{
    "address": "440007, Пензенская область, Пенза, 440007, г.Пенза, ул. Транспортная, 1",
    "business": {
        "age": "более 10 лет",
        "size": "251-1000",
        "turnover": "2-15",
        "type": "Производитель"
    },
    "contact": {
        "email": "paz-gerasimova@yandex.ru",
        "name": "Герасимова Светлана Александровна",
        "phones": [
            "+7(412)55-21-89"
        ],
        "position": "менеджер КО"
    },
    "description": "ОАО «ПАЗ» изготавливает свыше 160 наименований трубопроводной арматуры диаметром от 2 до 80 мм, давлением до 70 МПа.",
    "email": "paz-m@mail.ru",
    "keywords": [
        "запорная тубопроводная арматура,",
        "регулирующая арматура,",
        "стальная трубопроводная арматура,",
        "латунная трубопроводная арматура,"
    ],
    "name": "ОАО \"Пензенский арматурный завод\"",
    "phones": [
        "+7(412) 56-35-03 ",
        "+7(412) 56-13-79"
    ],
    "presence": {
        "СНГ": [
            "Абхазия",
            "Азербайджан",
            "Армения",
            "Беларусь",
            "Казахстан",
            "Киргизия",
            "Молдавия",
            "Таджикистан",
            "Туркменистан",
            "Узбекистан",
            "Украина"
        ]
    },
    "website": "http://www.armatura-paz.ru",
    "wishlist": {
        "СНГ": [
            "Абхазия",
            "Азербайджан",
            "Армения",
            "Беларусь",
            "Казахстан",
            "Киргизия",
            "Молдавия",
            "Таджикистан",
            "Туркменистан",
            "Узбекистан",
            "Украина"
        ]
    }
}
