{
    "address": "440015, Пензенская область, Пенза, РФ, г.Пенза, ул.Аустрина,63",
    "business": {
        "age": "более 10 лет",
        "size": "251-1000",
        "turnover": "2-15",
        "type": "Производитель"
    },
    "contact": {
        "email": "zhuravlev@pkm.ru",
        "name": "Журавлев Владимир Юрьевич",
        "phones": [
            "+7(412)59-44-34"
        ],
        "position": "Зам.директора по маркетингу и продажам"
    },
    "description": "Производство и продажа компрессорного и насосного оборудования и зап.частей к ним",
    "email": "zhuravlev@pkm.ru",
    "keywords": [
        "компрессор",
        "насос",
        "производство"
    ],
    "name": "ОАО \"Пензкомпрессормаш\"",
    "phones": [
        "-8412-594434"
    ],
    "presence": {
        "СНГ": [
            "Абхазия",
            "Азербайджан",
            "Армения",
            "Беларусь",
            "Казахстан",
            "Киргизия",
            "Молдавия",
            "Таджикистан",
            "Туркменистан",
            "Узбекистан",
            "Украина"
        ]
    },
    "website": "http://www.pkm.ru",
    "wishlist": {
        "Азия": [
            "Афганистан",
            "Бангладеш",
            "Бахрейн",
            "Бруней-Даруссалам",
            "Бутан",
            "Вьетнам",
            "Грузия",
            "Израиль",
            "Индия",
            "Индонезия",
            "Иордания",
            "Ирак",
            "Иран",
            "Исламская Республика",
            "Йемен",
            "Камбоджа",
            "Катар",
            "Китай",
            "Кувейт",
            "Лаос",
            "Ливан",
            "Малайзия",
            "Мальдивы",
            "Монголия",
            "Мьянма",
            "Непал",
            "Объединенные Арабские Эмираты",
            "Оман",
            "Пакистан",
            "Саудовская Аравия",
            "Северная Корея",
            "Сингапур",
            "Таиланд",
            "Филиппины",
            "Шри-Ланка",
            "Южная Корея",
            "Япония"
        ],
        "СНГ": [
            "Абхазия",
            "Азербайджан",
            "Армения",
            "Беларусь",
            "Казахстан",
            "Киргизия",
            "Молдавия",
            "Таджикистан",
            "Туркменистан",
            "Узбекистан",
            "Украина"
        ]
    }
}
