{
    "address": "610035, Кировская область, Киров, Некрасова,22",
    "business": {
        "age": "1-2 года",
        "languages": [
            "Английский"
        ],
        "size": "1-15",
        "type": "Производитель"
    },
    "contact": {
        "email": "2211-10@mail.ru",
        "name": "Груздев Александр",
        "phones": [
            "+7(919) 5260274"
        ],
        "position": "директор"
    },
    "description": "Сборные деревянные дома из профилированного бруса.rn612020, Кировская область, Шабалинский р-н, пгт. Ленинское, переулок Первомайский, 4rnТелефон: +7(919) 5260274;rne-mail: 2211-10@mail.ru",
    "email": "2211-10@mail.ru",
    "keywords": [
        "Например:",
        "производство",
        "консалтинг",
        "производство напитков"
    ],
    "name": "ООО фирма \"Имидж\"",
    "phones": [
        "+7(919) 5260274"
    ],
    "presence": {},
    "website": "http://2211-10@mail.ru",
    "wishlist": {
        "СНГ": [
            "Абхазия",
            "Азербайджан",
            "Армения",
            "Беларусь",
            "Казахстан",
            "Киргизия",
            "Молдавия",
            "Таджикистан",
            "Туркменистан",
            "Узбекистан",
            "Украина"
        ]
    }
}
