{
    "address": "610014, Кировская область, Киров, ул. Потребкооперации, 17",
    "business": {
        "age": "6-10 лет",
        "languages": [
            "Английский"
        ],
        "size": "16-100",
        "turnover": "2-15",
        "type": "Производитель"
    },
    "contact": {
        "email": "info@ermak-termo.ru",
        "name": "Пересторонин Константин",
        "phones": [
            "(8332) 56-26-00"
        ],
        "position": "директор"
    },
    "description": "Производство печей.",
    "email": "info@ermak-termo.ru",
    "keywords": [
        "Производство печей"
    ],
    "name": "Ермак ООО",
    "phones": [
        "+7(8332) 56-74-24"
    ],
    "presence": {
        "Европа": [
            "Австрия",
            "Албания",
            "Андорра",
            "Бельгия",
            "Болгария",
            "Босния и Герцеговина",
            "Великобритания",
            "Венгрия",
            "Германия",
            "Греция",
            "Дания",
            "Европейские сообщества",
            "Ирландия",
            "Исландия",
            "Испания",
            "Италия",
            "Кипр",
            "Латвия",
            "Литва",
            "Лихтенштейн",
            "Люксембург",
            "Македония (Республика Македония)",
            "Мальта",
            "Монако",
            "Нидерланды",
            "Норвегия",
            "Польша",
            "Португалия",
            "Румыния",
            "Сан-Марино",
            "Сербия",
            "Словакия",
            "Словения",
            "Турция",
            "Финляндия",
            "Франция",
            "Хорватия",
            "Черногория",
            "Чехия (Чешская Республика)",
            "Швейцария",
            "Швеция",
            "Эстония"
        ],
        "СНГ": [
            "Абхазия",
            "Азербайджан",
            "Армения",
            "Беларусь",
            "Казахстан",
            "Киргизия",
            "Молдавия",
            "Таджикистан",
            "Туркменистан",
            "Узбекистан",
            "Украина"
        ]
    },
    "website": "http://www. Ermak-termo.ru",
    "wishlist": {
        "Европа": [
            "Австрия",
            "Албания",
            "Андорра",
            "Бельгия",
            "Болгария",
            "Босния и Герцеговина",
            "Великобритания",
            "Венгрия",
            "Германия",
            "Греция",
            "Дания",
            "Европейские сообщества",
            "Ирландия",
            "Исландия",
            "Испания",
            "Италия",
            "Кипр",
            "Латвия",
            "Литва",
            "Лихтенштейн",
            "Люксембург",
            "Македония (Республика Македония)",
            "Мальта",
            "Монако",
            "Нидерланды",
            "Норвегия",
            "Польша",
            "Португалия",
            "Румыния",
            "Сан-Марино",
            "Сербия",
            "Словакия",
            "Словения",
            "Турция",
            "Финляндия",
            "Франция",
            "Хорватия",
            "Черногория",
            "Чехия (Чешская Республика)",
            "Швейцария",
            "Швеция",
            "Эстония"
        ],
        "СНГ": [
            "Абхазия",
            "Азербайджан",
            "Армения",
            "Беларусь",
            "Казахстан",
            "Киргизия",
            "Молдавия",
            "Таджикистан",
            "Туркменистан",
            "Узбекистан",
            "Украина"
        ]
    }
}
