{
    "address": "640000, Курганская область, Курган, ул.Ленина, 50",
    "business": {
        "age": "более 10 лет",
        "languages": [
            "Английский"
        ],
        "size": "251-1000",
        "type": "Производитель"
    },
    "contact": {
        "email": "kemzotk@mail.ru",
        "name": "Горлова Наталья Владимировна",
        "phones": [
            "79292255503. +7(3522)46-10-52",
            "+7(3522)50-64-01"
        ],
        "position": "Коммерческий директор"
    },
    "description": "Производство электрооборудования",
    "email": "kemzotk@mail.ru",
    "keywords": [
        "производство",
        "трансформаторы",
        "комплектные трансформаторные подстанции"
    ],
    "name": "ОАО \"КЭМЗ\" ( ОАО \"Курганский электромеханический завод\")",
    "phones": [
        "8-3522-418718"
    ],
    "presence": {
        "СНГ": [
            "Абхазия",
            "Азербайджан",
            "Армения",
            "Беларусь",
            "Казахстан",
            "Киргизия",
            "Молдавия",
            "Таджикистан",
            "Туркменистан",
            "Узбекистан",
            "Украина"
        ]
    },
    "website": "http://www.kurgan-elmz.ru/",
    "wishlist": {
        "СНГ": [
            "Абхазия",
            "Азербайджан",
            "Армения",
            "Беларусь",
            "Казахстан",
            "Киргизия",
            "Молдавия",
            "Таджикистан",
            "Туркменистан",
            "Узбекистан",
            "Украина"
        ]
    }
}
