{
    "address": "625029, Тюменская область, Тюмень, ул. Игримская, дом 36, оф. 14",
    "business": {
        "age": "1-2 года",
        "languages": [
            "Английский",
            "Русский"
        ],
        "size": "1-15",
        "turnover": "менее 2",
        "type": "Консультант, Поставщик услуг, Посредник"
    },
    "contact": {
        "email": "BConsent@Gmail.com",
        "name": "Машнин Владимир Александрович",
        "phones": [
            "+7 932 32 11 371"
        ],
        "position": "Генеральный директор"
    },
    "description": "Бюро «КОНСЕНТ» – это дружная команда единомышленников-профессионалов, имеющих большой опыт в области юриспруденции и психологического консультирования, что позволяет оказывать услуги на высоком профессиональном уровне.\nОсновные принципы деятельности нашей компании – это профессионализм, клиентоориентированность, порядочность,  конфиденциальность. \nДля иностранных компаний наша компания оказывает юридические услуги, бизнес-консалтинг, Due diligence.",
    "email": "BConsent@Gmail.com",
    "keywords": [
        "юридические услуги",
        "консалтинг",
        "Due diligence",
        "медиация"
    ],
    "name": "ООО \"Консалтинговое бюро \"КОНСЕНТ\"",
    "phones": [
        "+7 932 32 11 371,"
    ],
    "presence": {
        "Азия": [
            "Китай"
        ],
        "Европа": [
            "Великобритания",
            "Германия"
        ],
        "СНГ": [
            "Беларусь",
            "Казахстан"
        ],
        "Центральная и Северная Америка": [
            "Соединенные Штаты Америки"
        ]
    },
    "website": "http://www.bconsent.gmail.com",
    "wishlist": {
        "Азия": [
            "Вьетнам",
            "Израиль",
            "Индия",
            "Китай",
            "Монголия",
            "Объединенные Арабские Эмираты",
            "Северная Корея",
            "Южная Корея",
            "Япония"
        ],
        "Европа": [
            "Австрия",
            "Бельгия",
            "Болгария",
            "Великобритания",
            "Венгрия",
            "Германия",
            "Греция",
            "Дания",
            "Европейские сообщества",
            "Ирландия",
            "Исландия",
            "Испания",
            "Италия",
            "Кипр",
            "Македония (Республика Македония)",
            "Монако",
            "Нидерланды",
            "Норвегия",
            "Польша",
            "Португалия",
            "Румыния",
            "Сан-Марино",
            "Сербия",
            "Словакия",
            "Словения",
            "Турция",
            "Финляндия",
            "Франция",
            "Хорватия",
            "Черногория",
            "Чехия (Чешская Республика)",
            "Швейцария",
            "Швеция",
            "Эстония"
        ],
        "СНГ": [
            "Абхазия",
            "Азербайджан",
            "Армения",
            "Беларусь",
            "Казахстан",
            "Киргизия",
            "Молдавия",
            "Таджикистан",
            "Туркменистан",
            "Узбекистан",
            "Украина"
        ],
        "Центральная и Северная Америка": [
            "Канада",
            "Куба",
            "Мексика",
            "Никарагуа",
            "Соединенные Штаты Америки"
        ],
        "Южная Америка": [
            "Аргентина",
            "Боливия",
            "Бразилия",
            "Перу"
        ]
    }
}
