{
    "address": "117042, Москва, пр. Чечерский, д. 24",
    "business": {
        "age": "3-5 лет",
        "languages": [
            "Английский"
        ],
        "size": "16-100",
        "turnover": "2-15",
        "type": "Поставщик услуг"
    },
    "contact": {
        "email": "ovchinnickova@mail.ru",
        "name": "Овчинникова Нина Геннадьевна",
        "phones": [
            "7-987-3624352"
        ],
        "position": "Менеджер ВЭД"
    },
    "description": "Наша компания является поставщиком промышленного оборудования как в России, так и за рубежом.",
    "email": "ovchinnickova@mail.ru",
    "keywords": [
        "промышленное оборудование",
        "промышленные материалы"
    ],
    "name": "ЗАО \"ТД \"Оборудование и материалы\"",
    "phones": [
        "7-499-6382392"
    ],
    "presence": {
        "СНГ": [
            "Абхазия",
            "Азербайджан",
            "Армения",
            "Беларусь",
            "Казахстан",
            "Киргизия",
            "Молдавия",
            "Таджикистан",
            "Туркменистан",
            "Узбекистан",
            "Украина"
        ]
    },
    "website": "http://www.zao-oim.ru",
    "wishlist": {
        "Европа": [
            "Австрия",
            "Албания",
            "Андорра",
            "Бельгия",
            "Болгария",
            "Босния и Герцеговина",
            "Великобритания",
            "Венгрия",
            "Германия",
            "Греция",
            "Дания",
            "Европейские сообщества",
            "Ирландия",
            "Исландия",
            "Испания",
            "Италия",
            "Кипр",
            "Латвия",
            "Литва",
            "Лихтенштейн",
            "Люксембург",
            "Македония (Республика Македония)",
            "Мальта",
            "Монако",
            "Нидерланды",
            "Норвегия",
            "Польша",
            "Португалия",
            "Румыния",
            "Сан-Марино",
            "Сербия",
            "Словакия",
            "Словения",
            "Турция",
            "Финляндия",
            "Франция",
            "Хорватия",
            "Черногория",
            "Чехия (Чешская Республика)",
            "Швейцария",
            "Швеция",
            "Эстония"
        ]
    }
}
