{
    "address": "125124, Москва, 3-я улица Ямского поля, вл.2, корп.12А",
    "business": {
        "age": "более 10 лет",
        "languages": [
            "Английский",
            "Испанский",
            "Китайский",
            "Немецкий",
            "Французский"
        ],
        "size": "251-1000",
        "type": "Производитель, Поставщик услуг"
    },
    "contact": {
        "email": "int-sales@drweb.com",
        "name": "Окотруб Екатерина",
        "phones": [
            "7-495-7894587"
        ],
        "position": "Специалист отдела по работе с зарубежными партнерами"
    },
    "description": "«Доктор Веб» — российский производитель антивирусных средств защиты информации под маркой Dr.Web. Продукты Dr.Web разрабатываются с 1992 года. Компания — ключевой игрок на российском рынке программных средств обеспечения базовой потребности бизнеса — безопасности информации. «Доктор Веб» — один из немногих антивирусных вендоров в мире, владеющих собственными уникальными технологиями детектирования и лечения вредоносных программ. Антивирусная защита Dr.Web позволяет информационным системам клиентов эффективно противостоять любым, даже неизвестным угрозам.rnrn«Доктор Веб» стал первой компанией, предложившей на российском рынке инновационную модель использования антивируса в качестве услуги, и по сей день продолжает оставаться безусловным лидером российского рынка интернет-сервисов безопасности для поставщиков ИT-услуг. Государственные сертификаты и награды, а также география пользователей Dr.Web свидетельствуют о высоком качестве продуктов, созданных талантливыми российскими программистами.",
    "email": "int-sales@drweb.com",
    "keywords": [
        "Антивирус",
        "Антивирусное программное обеспечение",
        "Информационная безопасность",
        "Безопасность",
        "Программное обеспечение",
        "Информационные технологии"
    ],
    "name": "Доктор Веб",
    "phones": [
        "7-495-7894587"
    ],
    "presence": {
        "Азия": [
            "Индия",
            "Китай",
            "Монголия",
            "Южная Корея",
            "Япония"
        ],
        "Европа": [
            "Германия",
            "Испания",
            "Италия",
            "Латвия",
            "Польша",
            "Турция",
            "Франция",
            "Эстония"
        ],
        "СНГ": [
            "Беларусь",
            "Казахстан",
            "Украина"
        ]
    },
    "website": "http://drweb.com/",
    "wishlist": {
        "Австралия и Океания": [
            "Австралия",
            "Новая Зеландия",
            "Папуа-Новая Гвинея"
        ],
        "Азия": [
            "Бангладеш",
            "Бахрейн",
            "Бруней-Даруссалам",
            "Бутан",
            "Вьетнам",
            "Израиль",
            "Индия",
            "Индонезия",
            "Иордания",
            "Ирак",
            "Иран",
            "Исламская Республика",
            "Йемен",
            "Камбоджа",
            "Катар",
            "Китай",
            "Кувейт",
            "Лаос",
            "Ливан",
            "Малайзия",
            "Мальдивы",
            "Монголия",
            "Мьянма",
            "Непал",
            "Объединенные Арабские Эмираты",
            "Оман",
            "Саудовская Аравия",
            "Северная Корея",
            "Сингапур",
            "Таиланд",
            "Филиппины",
            "Шри-Ланка",
            "Южная Корея",
            "Япония"
        ],
        "Европа": [
            "Австрия",
            "Албания",
            "Андорра",
            "Бельгия",
            "Болгария",
            "Босния и Герцеговина",
            "Великобритания",
            "Венгрия",
            "Германия",
            "Греция",
            "Дания",
            "Европейские сообщества",
            "Ирландия",
            "Исландия",
            "Испания",
            "Италия",
            "Кипр",
            "Латвия",
            "Литва",
            "Лихтенштейн",
            "Люксембург",
            "Македония (Республика Македония)",
            "Мальта",
            "Монако",
            "Нидерланды",
            "Норвегия",
            "Польша",
            "Португалия",
            "Румыния",
            "Сан-Марино",
            "Сербия",
            "Словакия",
            "Словения",
            "Турция",
            "Финляндия",
            "Франция",
            "Хорватия",
            "Черногория",
            "Чехия (Чешская Республика)",
            "Швейцария",
            "Швеция",
            "Эстония"
        ],
        "СНГ": [
            "Беларусь",
            "Казахстан",
            "Молдавия",
            "Украина"
        ],
        "Центральная и Северная Америка": [
            "Антигуа и Барбуда",
            "Аруба",
            "Виргинские острова",
            "Британские",
            "Виргинские острова",
            "США",
            "Гватемала",
            "Гондурас",
            "Канада",
            "Коста-Рика",
            "Куба",
            "Мексика",
            "Никарагуа",
            "Панама"
        ],
        "Южная Америка": [
            "Аргентина",
            "Боливия",
            "Бразилия",
            "Перу",
            "Фолклендские острова (Мальвинские)"
        ]
    }
}
