{
    "address": "440600, Пензенская область, Пенза, ул.Рабочая, 7",
    "business": {
        "age": "более 10 лет",
        "languages": [
            "Английский"
        ],
        "size": "101-250",
        "turnover": "2-15",
        "type": "Производитель"
    },
    "contact": {
        "email": "bezzubtsev@istok-penza.ru",
        "name": "Беззубцев Илья",
        "phones": [
            "(8412) 491732"
        ],
        "position": "исполнительный директор"
    },
    "description": "ЗАО Исток г.Пенза – предприятие основано в 1927г и является ведущим производителем безалкогольных напитков в Поволжье. Компания выпускает минеральную и питьевую воду, сладкие газированные напитки и квас.\nПроизводство первым из безалкогольных заводов в РФ заводов в РФ сертифицировано по ведущей Международной системе качества – ХАССП.\nЗа последние 10 лет продукция компании собрала коллекцию из более чем 50 медалей платиновых и золотых медалей.\nИсток – наполни жизнь здоровьем!",
    "email": "office@istok-penza.ru",
    "keywords": [
        "производство",
        "безалкогольные напитки",
        "пенза",
        "квас",
        "минеральная вода",
        "питьевая вода",
        "лимонад",
        "тара",
        "пэт",
        "доставка воды",
        "стм"
    ],
    "name": "ЗАО \"Исток\"",
    "phones": [
        "+7 (8412) 491732",
        "+7(8412) 491937"
    ],
    "presence": {
        "СНГ": [
            "Абхазия",
            "Азербайджан",
            "Армения",
            "Беларусь",
            "Казахстан",
            "Киргизия",
            "Молдавия",
            "Таджикистан",
            "Туркменистан",
            "Узбекистан",
            "Украина"
        ]
    },
    "website": "http://www.istok-penza.ru",
    "wishlist": {
        "Азия": [
            "Афганистан",
            "Бангладеш",
            "Бахрейн",
            "Бруней-Даруссалам",
            "Бутан",
            "Вьетнам",
            "Грузия",
            "Израиль",
            "Индия",
            "Индонезия",
            "Иордания",
            "Ирак",
            "Иран",
            "Исламская Республика",
            "Йемен",
            "Камбоджа",
            "Катар",
            "Китай",
            "Кувейт",
            "Лаос",
            "Ливан",
            "Малайзия",
            "Мальдивы",
            "Монголия",
            "Мьянма",
            "Непал",
            "Объединенные Арабские Эмираты",
            "Оман",
            "Пакистан",
            "Саудовская Аравия",
            "Северная Корея",
            "Сингапур",
            "Таиланд",
            "Филиппины",
            "Шри-Ланка",
            "Южная Корея",
            "Япония"
        ],
        "Европа": [
            "Австрия",
            "Албания",
            "Андорра",
            "Бельгия",
            "Болгария",
            "Босния и Герцеговина",
            "Великобритания",
            "Венгрия",
            "Германия",
            "Греция",
            "Дания",
            "Европейские сообщества",
            "Ирландия",
            "Исландия",
            "Испания",
            "Италия",
            "Кипр",
            "Латвия",
            "Литва",
            "Лихтенштейн",
            "Люксембург",
            "Македония (Республика Македония)",
            "Мальта",
            "Монако",
            "Нидерланды",
            "Норвегия",
            "Польша",
            "Португалия",
            "Румыния",
            "Сан-Марино",
            "Сербия",
            "Словакия",
            "Словения",
            "Турция",
            "Финляндия",
            "Франция",
            "Хорватия",
            "Черногория",
            "Чехия (Чешская Республика)",
            "Швейцария",
            "Швеция",
            "Эстония"
        ],
        "СНГ": [
            "Абхазия",
            "Азербайджан",
            "Армения",
            "Беларусь",
            "Казахстан",
            "Киргизия",
            "Молдавия",
            "Таджикистан",
            "Туркменистан",
            "Узбекистан",
            "Украина"
        ]
    }
}
