{
    "address": "659316, Алтайский край, Бийск, 659316 Алтайский край, г. Бийск ул. Матросова 30",
    "business": {
        "age": "более 10 лет",
        "languages": [
            "Английский",
            "Русский"
        ],
        "size": "251-1000",
        "type": "Производитель"
    },
    "contact": {
        "email": "igor.k@radomebel.ru",
        "name": "Краснослободцев Игорь Александрович",
        "phones": [
            "8(3854) 44-92-83"
        ],
        "position": "Менеджер"
    },
    "description": "Заготовка для лопат из гнуто-клееной березовой фанеры – ( Совок для снеговой лопаты . Оригинальный дизайн,  имеет  форму позволяющую, при уборке снега, снизить нагрузку на позвоночник. Изготавливается различных размеров по ширине :rnrn\t250 мм,400 мм,500 мм, 800 мм.rnrn\tКомплектуется наконечником из оцинкованной стали. Склейка смолами соответствующими требованиям по содержанию формальдегида согласно Е-1)rnrn\tЭлементы эластичные для кроватей из гнуто-клееной березовой фанеры - (Предназначены для производства ортопедических оснований , минимальная ширина от 25 мм , радиус 4.5 м и 9 м. Поверхность грунтованная и облицованная различными пленками. Склейка смолами соответствующими требованиям по содержанию формальдегида согласно Е-1)",
    "email": "igor.k@radomebel.ru",
    "keywords": [
        "Заготовка для лопат из гнуто-клееной березовой фанеры; Элементы эластичные для кроватей из гнуто-клееной березовой фанеры."
    ],
    "name": "ЗАО \"Бийская мебельная фабрика\"",
    "phones": [
        "(3854) 44-92-83 / 45-09-85"
    ],
    "presence": {
        "Европа": [
            "Австрия"
        ],
        "СНГ": [
            "Казахстан"
        ]
    },
    "website": "http://www.Radomebel.ru",
    "wishlist": {
        "Европа": [
            "Австрия",
            "Албания",
            "Андорра",
            "Бельгия",
            "Болгария",
            "Босния и Герцеговина",
            "Великобритания",
            "Венгрия",
            "Германия",
            "Греция",
            "Дания",
            "Европейские сообщества",
            "Ирландия",
            "Исландия",
            "Испания",
            "Италия",
            "Кипр",
            "Латвия",
            "Литва",
            "Лихтенштейн",
            "Люксембург",
            "Македония (Республика Македония)",
            "Мальта",
            "Монако",
            "Нидерланды",
            "Норвегия",
            "Польша",
            "Португалия",
            "Румыния",
            "Сан-Марино",
            "Сербия",
            "Словакия",
            "Словения",
            "Турция",
            "Финляндия",
            "Франция",
            "Хорватия",
            "Черногория",
            "Чехия (Чешская Республика)",
            "Швейцария",
            "Швеция",
            "Эстония"
        ],
        "СНГ": [
            "Абхазия",
            "Азербайджан",
            "Армения",
            "Беларусь",
            "Казахстан",
            "Киргизия",
            "Молдавия",
            "Таджикистан",
            "Туркменистан",
            "Узбекистан",
            "Украина"
        ]
    }
}
