{
    "address": "236016, Калининградская область, Калининград, ул. Пражская, д 3 , оф. № 1",
    "business": {
        "age": "более 10 лет",
        "languages": [
            "Английский"
        ],
        "size": "16-100",
        "turnover": "2-15",
        "type": "Производитель"
    },
    "contact": {
        "email": "office@id-mebel.ru",
        "name": "Мастерских Александр Николаевич",
        "phones": [
            "8 (4012) 34-77-34,"
        ],
        "position": "директор"
    },
    "description": "Производство и реализация корпусной мебели для спален, прихожих, гостиных, шкафов-купе, офисной мебели.",
    "email": "ufo@id-mebel.ru",
    "keywords": [
        "корпусная мебель для спален, ",
        "мебель для прихожих, ",
        "мебель для гостиных, ",
        "шкафы-купе, ",
        "офисная мебель."
    ],
    "name": "ООО «Балтийская мебель»",
    "phones": [
        "8 (4012) 34-77-34",
        " 34-77-70"
    ],
    "presence": {
        "СНГ": [
            "Абхазия",
            "Азербайджан",
            "Армения",
            "Беларусь",
            "Казахстан",
            "Киргизия",
            "Молдавия",
            "Таджикистан",
            "Туркменистан",
            "Узбекистан",
            "Украина"
        ]
    },
    "website": "http://www.id-mebel.ru/",
    "wishlist": {
        "Европа": [
            "Австрия",
            "Албания",
            "Андорра",
            "Бельгия",
            "Болгария",
            "Босния и Герцеговина",
            "Великобритания",
            "Венгрия",
            "Германия",
            "Греция",
            "Дания",
            "Европейские сообщества",
            "Ирландия",
            "Исландия",
            "Испания",
            "Италия",
            "Кипр",
            "Латвия",
            "Литва",
            "Лихтенштейн",
            "Люксембург",
            "Македония (Республика Македония)",
            "Мальта",
            "Монако",
            "Нидерланды",
            "Норвегия",
            "Польша",
            "Португалия",
            "Румыния",
            "Сан-Марино",
            "Сербия",
            "Словакия",
            "Словения",
            "Турция",
            "Финляндия",
            "Франция",
            "Хорватия",
            "Черногория",
            "Чехия (Чешская Республика)",
            "Швейцария",
            "Швеция",
            "Эстония"
        ]
    }
}
