{
    "address": "238750, Калининградская область, Советск, ул. Набережная 14",
    "business": {
        "age": "6-10 лет",
        "languages": [
            "Английский"
        ],
        "size": "16-100",
        "turnover": "менее 2",
        "type": "Производитель"
    },
    "contact": {
        "email": "BIOCOM-KLG@Yandex.ru",
        "name": "Матвеев Ларион Владимирович",
        "phones": [
            "8-40161-3-23-23"
        ],
        "position": "директор"
    },
    "description": "Основной вид деятельности- переработка отходов деревообработки в древесную топливную гранулу- биотопливо.",
    "email": "BIOCOM-KLG@Yandex.ru",
    "keywords": [
        "биотопливо"
    ],
    "name": "ООО «БИОКОМ»",
    "phones": [
        "телефон/факс : 8-40161-3-23-23",
        " мобильные :8-921-264-07-94/8-9"
    ],
    "presence": {
        "Европа": [
            "Германия",
            "Италия",
            "Литва"
        ]
    },
    "website": "http://BIOCOM.TIU.RU",
    "wishlist": {
        "Европа": [
            "Германия",
            "Дания",
            "Италия",
            "Литва",
            "Польша"
        ]
    }
}
