{
    "address": "236010, Калининградская область, Калининград, ул. Тенистая аллея, 34",
    "business": {
        "age": "более 10 лет",
        "languages": [
            "Английский"
        ],
        "size": "16-100",
        "turnover": "менее 2",
        "type": "Поставщик услуг"
    },
    "contact": {
        "email": "skb_kld@bk.ru",
        "name": "Чернеев Михаил Васильевич",
        "phones": [
            "+8-4012-993-282"
        ],
        "position": "специалист"
    },
    "description": "Проектирование, монтаж, ремонт и обслуживание автоматических систем безопасности, инженерных сетей всех типов и электрических сетей до 1000 В.  Управление строительством зданий и сооружений в соответствии с государственным стандартом",
    "email": "skb_kld@bk.ru",
    "keywords": [
        "автоматические системы безопасности"
    ],
    "name": "ООО «ИЦ Систем Безопасности»",
    "phones": [
        "+8-4012-993-282"
    ],
    "presence": {},
    "website": "http://www.icsb39.ru",
    "wishlist": {
        "СНГ": [
            "Абхазия",
            "Азербайджан",
            "Армения",
            "Беларусь",
            "Казахстан",
            "Киргизия",
            "Молдавия",
            "Таджикистан",
            "Туркменистан",
            "Узбекистан",
            "Украина"
        ]
    }
}
