{
    "address": "428018, Чувашская Республика, Чебоксары, ул. Афанасьева, 8",
    "business": {
        "age": "более 10 лет",
        "languages": [
            "Английский",
            "русский"
        ],
        "size": "101-250",
        "turnover": "2-15",
        "type": "Консультант, Производитель, Поставщик услуг"
    },
    "contact": {
        "email": "admin@skbspa.ru",
        "name": "Зеленев Александр Сергеевич",
        "phones": [
            "+7 (8352) 45-77-14"
        ],
        "position": "генеральный директор"
    },
    "description": "Направления деятельности:\n- электрические исполнительные механизмы (ЭИМ);\n- УРТ (электроприводная арматура);\n- пускатели для управления электродвигателями ЭИМ;\n- механизмы сигнализации положения;\n- приборы контроля и регулирования технологических процессов;\n- автоматика котлов и других тепловых установок;\n- системы управления и автоматизации;\n- щиты КИПиА и коммутационной электроаппаратуры.Виды деятельности:\n- разработка;\n- технологическое программирование;\n- изготовление;\n- поставка и т.д.",
    "email": "admin@skbspa.ru",
    "keywords": [
        "электрические механизмы, приборы, пусатели"
    ],
    "name": "ОАО \"СКБ СПА\"",
    "phones": [
        "+7(8352)45-77-14"
    ],
    "presence": {
        "Азия": [
            "Индия",
            "Иран",
            "Исламская Республика",
            "Пакистан"
        ],
        "Европа": [
            "Литва",
            "Турция",
            "Чехия (Чешская Республика)"
        ],
        "СНГ": [
            "Узбекистан"
        ]
    },
    "website": "http://www.skbspa.ru",
    "wishlist": {
        "Европа": [
            "Австрия",
            "Дания",
            "Латвия",
            "Норвегия",
            "Финляндия",
            "Эстония"
        ]
    }
}
