{
    "address": "390010, Рязанская область, Рязань, пр. Шабулина, 18",
    "business": {
        "age": "более 10 лет",
        "languages": [
            "Английский"
        ],
        "size": "16-100",
        "turnover": "2-15",
        "type": "Производитель"
    },
    "contact": {
        "email": "bronin@kontakt-1.ru",
        "name": "Перегудов Аркадий Феликсович",
        "phones": [
            "7-910-5081616"
        ],
        "position": "Заместитель генерального директора"
    },
    "description": "Разработка и производство датчиков уровня, радарных уровнемеров, приборов и систем термометрии для зернохранилищ, систем автоматизации, выполнение пуско-наладочных и сервисных работ.",
    "email": "bronin@kontakt-1.ru",
    "keywords": [
        "Датчики уровня",
        "Радарные уровнемеры",
        "Термопдвески",
        "Системы термометрии для зернохранилищ",
        "Системы автоматизации"
    ],
    "name": "ООО предприятие \"КОНТАКТ-1\"",
    "phones": [
        "(4912)214218"
    ],
    "presence": {
        "Азия": [
            "Афганистан",
            "Бангладеш",
            "Бахрейн",
            "Бруней-Даруссалам",
            "Бутан",
            "Вьетнам",
            "Грузия",
            "Израиль",
            "Индия",
            "Индонезия",
            "Иордания",
            "Ирак",
            "Иран",
            "Исламская Республика",
            "Йемен",
            "Камбоджа",
            "Катар",
            "Китай",
            "Кувейт",
            "Лаос",
            "Ливан",
            "Малайзия",
            "Мальдивы",
            "Монголия",
            "Мьянма",
            "Непал",
            "Объединенные Арабские Эмираты",
            "Оман",
            "Пакистан",
            "Саудовская Аравия",
            "Северная Корея",
            "Сингапур",
            "Таиланд",
            "Филиппины",
            "Шри-Ланка",
            "Южная Корея",
            "Япония"
        ],
        "СНГ": [
            "Абхазия",
            "Азербайджан",
            "Армения",
            "Беларусь",
            "Казахстан",
            "Киргизия",
            "Молдавия",
            "Таджикистан",
            "Туркменистан",
            "Узбекистан",
            "Украина"
        ],
        "Южная Америка": [
            "Аргентина",
            "Боливия",
            "Бразилия",
            "Перу",
            "Фолклендские острова (Мальвинские)"
        ]
    },
    "website": "http://www.kontakt-1.ru",
    "wishlist": {
        "Азия": [
            "Афганистан",
            "Бангладеш",
            "Бахрейн",
            "Бруней-Даруссалам",
            "Бутан",
            "Вьетнам",
            "Грузия",
            "Израиль",
            "Индия",
            "Индонезия",
            "Иордания",
            "Ирак",
            "Иран",
            "Исламская Республика",
            "Йемен",
            "Камбоджа",
            "Катар",
            "Китай",
            "Кувейт",
            "Лаос",
            "Ливан",
            "Малайзия",
            "Мальдивы",
            "Монголия",
            "Мьянма",
            "Непал",
            "Объединенные Арабские Эмираты",
            "Оман",
            "Пакистан",
            "Саудовская Аравия",
            "Северная Корея",
            "Сингапур",
            "Таиланд",
            "Филиппины",
            "Шри-Ланка",
            "Южная Корея",
            "Япония"
        ],
        "Африка": [
            "Алжир",
            "Ботсвана",
            "Египет",
            "Ливийская Арабская Джамахирия",
            "Маврикий",
            "Марокко",
            "Сирийская Арабская Республика",
            "Чад",
            "Южный Судан"
        ],
        "Европа": [
            "Австрия",
            "Албания",
            "Андорра",
            "Бельгия",
            "Болгария",
            "Босния и Герцеговина",
            "Великобритания",
            "Венгрия",
            "Германия",
            "Греция",
            "Дания",
            "Европейские сообщества",
            "Ирландия",
            "Исландия",
            "Испания",
            "Италия",
            "Кипр",
            "Латвия",
            "Литва",
            "Лихтенштейн",
            "Люксембург",
            "Македония (Республика Македония)",
            "Мальта",
            "Монако",
            "Нидерланды",
            "Норвегия",
            "Польша",
            "Португалия",
            "Румыния",
            "Сан-Марино",
            "Сербия",
            "Словакия",
            "Словения",
            "Турция",
            "Финляндия",
            "Франция",
            "Хорватия",
            "Черногория",
            "Чехия (Чешская Республика)",
            "Швейцария",
            "Швеция",
            "Эстония"
        ],
        "Южная Америка": [
            "Аргентина",
            "Боливия",
            "Бразилия",
            "Перу",
            "Фолклендские острова (Мальвинские)"
        ]
    }
}
