{
    "address": "426011, Удмуртская Республика, Ижевск, ул. Удмуртская, 275-13",
    "business": {
        "age": "более 10 лет",
        "languages": [
            "Английский"
        ],
        "size": "1-15",
        "turnover": "менее 2",
        "type": "Производитель"
    },
    "contact": {
        "email": "liktar@yandex.ru",
        "name": "Тарасов Алексей Викторович",
        "phones": [
            "+7(3412) 619608"
        ],
        "position": "Коммерческий директор"
    },
    "description": "В 1998 году наше предприятие восстановило производство уникальной электропилы ЭПЧ-3.0-2, не имеющей аналогов в России и странах ближнего зарубежья. За счет высокой рабочей частоты 400Гц достигается повышенная мощность 3,0 кВт при минимальных габаритах и массе двигателя. При этом скорость вращения ротора достигает 12000 об/мин.\nМы рады предложить вам сотрудничество по продаже нашей техники: электропил ЭПЧ-3 и электродвигателей серии ЭПЧ-3.\nГотовы рассмотреть Ваши предложения.",
    "email": "vitar@udm.net",
    "keywords": [
        "производство",
        "электрические пилы,",
        "электрические моторы"
    ],
    "name": "ИП Тарасов В.С.",
    "phones": [
        "+7(3412)619608"
    ],
    "presence": {},
    "website": "http://www.epch-3.ru",
    "wishlist": {
        "Европа": [
            "Австрия",
            "Албания",
            "Андорра",
            "Бельгия",
            "Болгария",
            "Босния и Герцеговина",
            "Великобритания",
            "Венгрия",
            "Германия",
            "Греция",
            "Дания",
            "Европейские сообщества",
            "Ирландия",
            "Исландия",
            "Испания",
            "Италия",
            "Кипр",
            "Латвия",
            "Литва",
            "Лихтенштейн",
            "Люксембург",
            "Македония (Республика Македония)",
            "Мальта",
            "Монако",
            "Нидерланды",
            "Норвегия",
            "Польша",
            "Португалия",
            "Румыния",
            "Сан-Марино",
            "Сербия",
            "Словакия",
            "Словения",
            "Турция",
            "Финляндия",
            "Франция",
            "Хорватия",
            "Черногория",
            "Чехия (Чешская Республика)",
            "Швейцария",
            "Швеция",
            "Эстония"
        ],
        "СНГ": [
            "Абхазия",
            "Азербайджан",
            "Армения",
            "Беларусь",
            "Казахстан",
            "Киргизия",
            "Молдавия",
            "Таджикистан",
            "Туркменистан",
            "Узбекистан",
            "Украина"
        ]
    }
}
