{
    "address": "127273, Москва, ул. Отрадная, 2Б, стр. 2",
    "business": {
        "age": "более 10 лет",
        "languages": [
            "Английский",
            "русский"
        ],
        "size": "более 1000",
        "turnover": "101-200",
        "type": "Производитель, Оптовая компания"
    },
    "contact": {
        "email": "s.vinogradova@ltcompany.com",
        "name": "Виноградова Светлана",
        "phones": [
            "+7 (925) 786 02 74; +7 (495) 995 55 95 (#2587)"
        ],
        "position": "Директор по экспорту"
    },
    "description": "Крупнейший производитель и поставщик современных энергоэффективных светотехнических решений с 15-летним опытом работы в этой области.\nОсновная сфера деятельности – разработка и производство световых приборов общего и специального назначения. Ассортимент выпускаемой продукции насчитывает более 2500 модификаций светильников для внутреннего и наружного освещения общественно-административных зданий, спортивных сооружений, торговых комплексов, производственных объектов.",
    "email": "info@msk.ltcompany.com",
    "keywords": [
        "производство светильников",
        "световые решения",
        "проектирование",
        "производители осветительного оборудования",
        "световые приборы",
        "светодиодные светильники"
    ],
    "name": "ООО «ТК «Световые Технологии»",
    "phones": [
        "+7 (495) 995 55 95",
        "8 (800) 333-23-77"
    ],
    "presence": {
        "Азия": [
            "Ливан",
            "Оман"
        ],
        "Европа": [
            "Германия",
            "Испания",
            "Латвия",
            "Литва",
            "Нидерланды",
            "Португалия",
            "Сербия",
            "Словакия",
            "Финляндия",
            "Франция",
            "Эстония"
        ],
        "СНГ": [
            "Армения",
            "Беларусь",
            "Казахстан",
            "Киргизия",
            "Молдавия",
            "Украина"
        ]
    },
    "website": "http://www.ltcompany.com",
    "wishlist": {
        "Азия": [
            "Израиль",
            "Йемен",
            "Катар",
            "Кувейт",
            "Объединенные Арабские Эмираты"
        ],
        "Африка": [
            "Маврикий",
            "Марокко"
        ],
        "Европа": [
            "Австрия",
            "Албания",
            "Андорра",
            "Бельгия",
            "Болгария",
            "Босния и Герцеговина",
            "Великобритания",
            "Венгрия",
            "Греция",
            "Дания",
            "Европейские сообщества",
            "Ирландия",
            "Исландия",
            "Италия",
            "Кипр",
            "Лихтенштейн",
            "Люксембург",
            "Македония (Республика Македония)",
            "Мальта",
            "Монако",
            "Норвегия",
            "Польша",
            "Румыния",
            "Сан-Марино",
            "Словения",
            "Турция",
            "Хорватия",
            "Черногория",
            "Чехия (Чешская Республика)",
            "Швейцария",
            "Швеция"
        ],
        "СНГ": [
            "Азербайджан",
            "Таджикистан",
            "Туркменистан",
            "Узбекистан"
        ]
    }
}
