{
    "address": "119530, Москва, Очаковское ш., д.10, кор.2, стр.1",
    "business": {
        "age": "более 10 лет",
        "languages": [
            "Английский"
        ],
        "size": "более 1000",
        "turnover": "101-200",
        "type": "Производитель"
    },
    "contact": {
        "email": "semushkin.denis@veropharm.ru",
        "name": "Семушкин Денис",
        "phones": [
            "+7 965-119-88-95"
        ],
        "position": "Продакт-менеджер"
    },
    "description": "ОАО «ВЕРОФАРМ» — ведущая российская фармацевтическая компания-производитель, известная в нашей стране и за рубежом как один из крупнейших российских производителей дженериков (аналогов известных патентованных лекарств), а также онкологических препаратов и медицинских пластырей.",
    "email": "info@veropharm.ru",
    "keywords": [
        "Фармацевтика",
        "Косметика",
        "Лекарства",
        "Лекарственные средства",
        "Препараты",
        "Дженерики"
    ],
    "name": "ОАО \"Верофарм\"",
    "phones": [
        "+7 495 792-53-30"
    ],
    "presence": {
        "СНГ": [
            "Абхазия",
            "Азербайджан",
            "Армения",
            "Беларусь",
            "Казахстан",
            "Киргизия",
            "Молдавия",
            "Таджикистан",
            "Туркменистан",
            "Узбекистан",
            "Украина"
        ]
    },
    "website": "http://veropharm.ru/",
    "wishlist": {
        "Азия": [
            "Афганистан",
            "Бангладеш",
            "Бахрейн",
            "Бруней-Даруссалам",
            "Бутан",
            "Вьетнам",
            "Грузия",
            "Израиль",
            "Индия",
            "Индонезия",
            "Иордания",
            "Ирак",
            "Иран",
            "Исламская Республика",
            "Йемен",
            "Камбоджа",
            "Катар",
            "Китай",
            "Кувейт",
            "Лаос",
            "Ливан",
            "Малайзия",
            "Мальдивы",
            "Монголия",
            "Мьянма",
            "Непал",
            "Объединенные Арабские Эмираты",
            "Оман",
            "Пакистан",
            "Саудовская Аравия",
            "Северная Корея",
            "Сингапур",
            "Таиланд",
            "Филиппины",
            "Шри-Ланка",
            "Южная Корея",
            "Япония"
        ],
        "Европа": [
            "Австрия",
            "Албания",
            "Андорра",
            "Бельгия",
            "Болгария",
            "Босния и Герцеговина",
            "Великобритания",
            "Венгрия",
            "Германия",
            "Греция",
            "Дания",
            "Европейские сообщества",
            "Ирландия",
            "Исландия",
            "Испания",
            "Италия",
            "Кипр",
            "Латвия",
            "Литва",
            "Лихтенштейн",
            "Люксембург",
            "Македония (Республика Македония)",
            "Мальта",
            "Монако",
            "Нидерланды",
            "Норвегия",
            "Польша",
            "Португалия",
            "Румыния",
            "Сан-Марино",
            "Сербия",
            "Словакия",
            "Словения",
            "Турция",
            "Финляндия",
            "Франция",
            "Хорватия",
            "Черногория",
            "Чехия (Чешская Республика)",
            "Швейцария",
            "Швеция",
            "Эстония"
        ],
        "СНГ": [
            "Абхазия",
            "Азербайджан",
            "Армения",
            "Беларусь",
            "Казахстан",
            "Киргизия",
            "Молдавия",
            "Таджикистан",
            "Туркменистан",
            "Узбекистан",
            "Украина"
        ]
    }
}
