{
    "address": "156025, Костромская область, Кострома, улица Профсоюзная дом 28",
    "business": {
        "age": "более 10 лет",
        "languages": [
            "Английский"
        ],
        "size": "1-15",
        "type": "Производитель"
    },
    "contact": {
        "email": "vek-k1@kmtn.ru",
        "name": "Неганов Олег Александрович",
        "phones": [
            "7-910-9222062"
        ],
        "position": "Директор"
    },
    "description": "Основное направление деятельности компании \"Век\" - обработка натурального  камня ( мрамора, гранита и др.), включая изготовление изделий любой сложности (столешницы, подоконники, лестницы, камины и. т.д.) , граверные и реставрационные работы по камню, а так же изготовление надгробий и ритуальных ограждений, монтажные и облицовочные работы.",
    "email": "vek-k1@kmtn.ru",
    "keywords": [
        "гранит",
        "мрамор",
        "натуральный камень",
        "столешница",
        "камин",
        "подоконник",
        "лестница",
        "природный камень"
    ],
    "name": "ООО \"Салон природного камня ВЕК\"",
    "phones": [
        "7-910-9222062"
    ],
    "presence": {
        "СНГ": [
            "Абхазия",
            "Азербайджан",
            "Армения",
            "Беларусь",
            "Казахстан",
            "Киргизия",
            "Молдавия",
            "Таджикистан",
            "Туркменистан",
            "Узбекистан",
            "Украина"
        ]
    },
    "website": "http://www.vek-k.ru/",
    "wishlist": {
        "Европа": [
            "Австрия",
            "Албания",
            "Андорра",
            "Бельгия",
            "Болгария",
            "Босния и Герцеговина",
            "Великобритания",
            "Венгрия",
            "Германия",
            "Греция",
            "Дания",
            "Европейские сообщества",
            "Ирландия",
            "Исландия",
            "Испания",
            "Италия",
            "Кипр",
            "Латвия",
            "Литва",
            "Лихтенштейн",
            "Люксембург",
            "Македония (Республика Македония)",
            "Мальта",
            "Монако",
            "Нидерланды",
            "Норвегия",
            "Польша",
            "Португалия",
            "Румыния",
            "Сан-Марино",
            "Сербия",
            "Словакия",
            "Словения",
            "Турция",
            "Финляндия",
            "Франция",
            "Хорватия",
            "Черногория",
            "Чехия (Чешская Республика)",
            "Швейцария",
            "Швеция",
            "Эстония"
        ],
        "СНГ": [
            "Абхазия",
            "Азербайджан",
            "Армения",
            "Беларусь",
            "Казахстан",
            "Киргизия",
            "Молдавия",
            "Таджикистан",
            "Туркменистан",
            "Узбекистан",
            "Украина"
        ]
    }
}
