{
    "address": "199106, Санкт-Петербург, Кожевенная ул, д3-1, корп 10, оф7",
    "business": {
        "age": "1-2 года",
        "languages": [
            "Английский"
        ],
        "size": "1-15",
        "turnover": "менее 2",
        "type": "Производитель"
    },
    "contact": {
        "email": "office@dkag.ru",
        "name": "Ерасов Григорий Александрович",
        "phones": [
            "8 911 156-90-04"
        ],
        "position": "ген. Директор"
    },
    "description": "Единичное и мелкосерийное производство предметов прикладного искусства, в первую очередь качественного кино и театрального реквизита, масок и элементов карнавальных костюмов, из современных материалов, а также изделий для активного отдыха и настольных игр, как в единичном экземпляре так и партиями в несколько сотен штук. Также мы осуществляем производство элементов интерьера, таких как лампы в оригинальных корпусах.",
    "email": "office@dkag.ru",
    "keywords": [
        "производство, прикладное искусство, современное искусство, аксессуары, пластмассы, тюнинг, настольные игры, ролевые игры, маски"
    ],
    "name": "ООО \"ДКАГ\"",
    "phones": [
        "+7(911)156-90-04"
    ],
    "presence": {
        "Австралия и Океания": [
            "Австралия",
            "Новая Зеландия",
            "Папуа-Новая Гвинея"
        ],
        "Азия": [
            "Афганистан",
            "Бангладеш",
            "Бахрейн",
            "Бруней-Даруссалам",
            "Бутан",
            "Вьетнам",
            "Грузия",
            "Израиль",
            "Индия",
            "Индонезия",
            "Иордания",
            "Ирак",
            "Иран",
            "Исламская Республика",
            "Йемен",
            "Камбоджа",
            "Катар",
            "Китай",
            "Кувейт",
            "Лаос",
            "Ливан",
            "Малайзия",
            "Мальдивы",
            "Монголия",
            "Мьянма",
            "Непал",
            "Объединенные Арабские Эмираты",
            "Оман",
            "Пакистан",
            "Саудовская Аравия",
            "Северная Корея",
            "Сингапур",
            "Таиланд",
            "Филиппины",
            "Шри-Ланка",
            "Южная Корея",
            "Япония"
        ],
        "Европа": [
            "Австрия",
            "Албания",
            "Андорра",
            "Бельгия",
            "Болгария",
            "Босния и Герцеговина",
            "Великобритания",
            "Венгрия",
            "Германия",
            "Греция",
            "Дания",
            "Европейские сообщества",
            "Ирландия",
            "Исландия",
            "Испания",
            "Италия",
            "Кипр",
            "Латвия",
            "Литва",
            "Лихтенштейн",
            "Люксембург",
            "Македония (Республика Македония)",
            "Мальта",
            "Монако",
            "Нидерланды",
            "Норвегия",
            "Польша",
            "Португалия",
            "Румыния",
            "Сан-Марино",
            "Сербия",
            "Словакия",
            "Словения",
            "Турция",
            "Финляндия",
            "Франция",
            "Хорватия",
            "Черногория",
            "Чехия (Чешская Республика)",
            "Швейцария",
            "Швеция",
            "Эстония"
        ],
        "СНГ": [
            "Абхазия",
            "Азербайджан",
            "Армения",
            "Беларусь",
            "Казахстан",
            "Киргизия",
            "Молдавия",
            "Таджикистан",
            "Туркменистан",
            "Узбекистан",
            "Украина"
        ],
        "Центральная и Северная Америка": [
            "Антигуа и Барбуда",
            "Аруба",
            "Виргинские острова",
            "Британские",
            "Виргинские острова",
            "США",
            "Гватемала",
            "Гондурас",
            "Канада",
            "Коста-Рика",
            "Куба",
            "Мексика",
            "Никарагуа",
            "Панама",
            "Соединенные Штаты Америки"
        ]
    },
    "website": "http://dkag.net",
    "wishlist": {
        "Австралия и Океания": [
            "Австралия",
            "Новая Зеландия",
            "Папуа-Новая Гвинея"
        ],
        "Азия": [
            "Афганистан",
            "Бангладеш",
            "Бахрейн",
            "Бруней-Даруссалам",
            "Бутан",
            "Вьетнам",
            "Грузия",
            "Израиль",
            "Индия",
            "Индонезия",
            "Иордания",
            "Ирак",
            "Иран",
            "Исламская Республика",
            "Йемен",
            "Камбоджа",
            "Катар",
            "Китай",
            "Кувейт",
            "Лаос",
            "Ливан",
            "Малайзия",
            "Мальдивы",
            "Монголия",
            "Мьянма",
            "Непал",
            "Объединенные Арабские Эмираты",
            "Оман",
            "Пакистан",
            "Саудовская Аравия",
            "Северная Корея",
            "Сингапур",
            "Таиланд",
            "Филиппины",
            "Шри-Ланка",
            "Южная Корея",
            "Япония"
        ],
        "Европа": [
            "Австрия",
            "Албания",
            "Андорра",
            "Бельгия",
            "Болгария",
            "Босния и Герцеговина",
            "Великобритания",
            "Венгрия",
            "Германия",
            "Греция",
            "Дания",
            "Европейские сообщества",
            "Ирландия",
            "Исландия",
            "Испания",
            "Италия",
            "Кипр",
            "Латвия",
            "Литва",
            "Лихтенштейн",
            "Люксембург",
            "Македония (Республика Македония)",
            "Мальта",
            "Монако",
            "Нидерланды",
            "Норвегия",
            "Польша",
            "Португалия",
            "Румыния",
            "Сан-Марино",
            "Сербия",
            "Словакия",
            "Словения",
            "Турция",
            "Финляндия",
            "Франция",
            "Хорватия",
            "Черногория",
            "Чехия (Чешская Республика)",
            "Швейцария",
            "Швеция",
            "Эстония"
        ],
        "СНГ": [
            "Абхазия",
            "Азербайджан",
            "Армения",
            "Беларусь",
            "Казахстан",
            "Киргизия",
            "Молдавия",
            "Таджикистан",
            "Туркменистан",
            "Узбекистан",
            "Украина"
        ],
        "Центральная и Северная Америка": [
            "Антигуа и Барбуда",
            "Аруба",
            "Виргинские острова",
            "Британские",
            "Виргинские острова",
            "США",
            "Гватемала",
            "Гондурас",
            "Канада",
            "Коста-Рика",
            "Куба",
            "Мексика",
            "Никарагуа",
            "Панама",
            "Соединенные Штаты Америки"
        ]
    }
}
