{
    "address": "400011, Волгоградская область, Волгоград, ул. Электролесовская, 45",
    "business": {
        "age": "более 10 лет",
        "languages": [
            "Английский"
        ],
        "size": "более 1000",
        "turnover": "более 200",
        "type": "Производитель"
    },
    "contact": {
        "email": "marketing@vnm.ru",
        "name": "Даев Андрей Вениаминович",
        "phones": [
            "(8442) 407094"
        ],
        "position": "Заместитель начальника отдела маркетинга"
    },
    "description": "ОАО «Волгограднефтемаш» является одним из крупнейших российских производителей оборудования для нефтяной, газовой и нефтехимической отраслей промышленности. \nВолгограднефтемаш специализируется на изготовлении практически всех видов аппаратов, работающих под давлением: реакторов, колонн, коксовых камер, теплообменников, сепараторов.\nОтличительной особенностью производства предприятия является возможность выпуска крупногабаритного и тяжеловесного оборудования в полной заводской готовности. Это исключает необходимость дальнейшей досборки оборудования на монтаже и позволяет значительно сократить срок его ввода в эксплуатацию. \nНа предприятии также выпускаются центробежные нефтяные насосы, камеры запуска-приема средств очистки и диагностики, шаровые краны, обратные затворы.",
    "email": "office@vnm.ru",
    "keywords": [
        "производство ",
        "оборудование",
        "нефтепереработка",
        "теплообменик",
        "насосы",
        "центробежный",
        "колонны",
        "рекаторы"
    ],
    "name": "ОАО «Волгограднефтемаш»",
    "phones": [
        "(8442) 40-72-20",
        "(8442) 41-02-20"
    ],
    "presence": {
        "СНГ": [
            "Абхазия",
            "Азербайджан",
            "Армения",
            "Беларусь",
            "Казахстан",
            "Киргизия",
            "Молдавия",
            "Таджикистан",
            "Туркменистан",
            "Узбекистан",
            "Украина"
        ]
    },
    "website": "http://www.vnm.ru",
    "wishlist": {
        "Азия": [
            "Афганистан",
            "Бангладеш",
            "Бахрейн",
            "Бруней-Даруссалам",
            "Бутан",
            "Вьетнам",
            "Грузия",
            "Израиль",
            "Индия",
            "Индонезия",
            "Иордания",
            "Ирак",
            "Иран",
            "Исламская Республика",
            "Йемен",
            "Камбоджа",
            "Катар",
            "Китай",
            "Кувейт",
            "Лаос",
            "Ливан",
            "Малайзия",
            "Мальдивы",
            "Монголия",
            "Мьянма",
            "Непал",
            "Объединенные Арабские Эмираты",
            "Оман",
            "Пакистан",
            "Саудовская Аравия",
            "Северная Корея",
            "Сингапур",
            "Таиланд",
            "Филиппины",
            "Шри-Ланка",
            "Южная Корея",
            "Япония"
        ]
    }
}
