{
    "address": "427620, Удмуртская Республика, Глазов, ул. Драгунова,69",
    "business": {
        "age": "более 10 лет",
        "languages": [
            "Английский"
        ],
        "size": "101-250",
        "turnover": "2-15",
        "type": "Производитель"
    },
    "contact": {
        "email": "marketing@glazov-elektron.com",
        "name": "Емельянова Елена Александровна",
        "phones": [
            "+7 (34141) 37-906"
        ],
        "position": "Начальник отдела маркетинга"
    },
    "description": "На сегодняшний день предприятие, первое и единственное в России владеет технологией IDC.\nТехнология IDC означает создание контакта путём прорезания изоляции (Insulation Displacement Connection).\nУсовершенствованная и эффективная технология позволяет снизить затраты и обеспечить максимально надёжное соединение. Используемая в телекоммуникационных и электронных отраслях, сегодня технология используется в промышленности.\nТехнологии IDC находят применение в жгутах, применяемых в бытовой технике.",
    "email": "info@glazov-elektron.com",
    "keywords": [
        "производство,",
        "IDC,",
        "провода,",
        "электротехника"
    ],
    "name": "ООО \"Глазов.Электрон\"",
    "phones": [
        "+7 (34141) 37-906"
    ],
    "presence": {},
    "website": "http://www.glazov-elektron.com",
    "wishlist": {
        "Азия": [
            "Афганистан",
            "Бангладеш",
            "Бахрейн",
            "Бруней-Даруссалам",
            "Бутан",
            "Вьетнам",
            "Грузия",
            "Израиль",
            "Индия",
            "Индонезия",
            "Иордания",
            "Ирак",
            "Иран",
            "Исламская Республика",
            "Йемен",
            "Камбоджа",
            "Катар",
            "Китай",
            "Кувейт",
            "Лаос",
            "Ливан",
            "Малайзия",
            "Мальдивы",
            "Монголия",
            "Мьянма",
            "Непал",
            "Объединенные Арабские Эмираты",
            "Оман",
            "Пакистан",
            "Саудовская Аравия",
            "Северная Корея",
            "Сингапур",
            "Таиланд",
            "Филиппины",
            "Шри-Ланка",
            "Южная Корея",
            "Япония"
        ],
        "Европа": [
            "Австрия",
            "Албания",
            "Андорра",
            "Бельгия",
            "Болгария",
            "Босния и Герцеговина",
            "Великобритания",
            "Венгрия",
            "Германия",
            "Греция",
            "Дания",
            "Европейские сообщества",
            "Ирландия",
            "Исландия",
            "Испания",
            "Италия",
            "Кипр",
            "Латвия",
            "Литва",
            "Лихтенштейн",
            "Люксембург",
            "Македония (Республика Македония)",
            "Мальта",
            "Монако",
            "Нидерланды",
            "Норвегия",
            "Польша",
            "Португалия",
            "Румыния",
            "Сан-Марино",
            "Сербия",
            "Словакия",
            "Словения",
            "Турция",
            "Финляндия",
            "Франция",
            "Хорватия",
            "Черногория",
            "Чехия (Чешская Республика)",
            "Швейцария",
            "Швеция",
            "Эстония"
        ],
        "СНГ": [
            "Абхазия",
            "Азербайджан",
            "Армения",
            "Беларусь",
            "Казахстан",
            "Киргизия",
            "Молдавия",
            "Таджикистан",
            "Туркменистан",
            "Узбекистан",
            "Украина"
        ]
    }
}
