{
    "address": "129223, Москва, проспект Мира, 119, ВВЦ, деловой центр \"Технопарк\", стр.537/1, оф.13",
    "business": {
        "age": "более 10 лет",
        "languages": [
            "Английский"
        ],
        "size": "1-15",
        "turnover": "менее 2",
        "type": "Консультант, Производитель, Поставщик услуг"
    },
    "contact": {
        "email": "info@rayconsulting.ru",
        "name": "Шилкин Николай Николаевич",
        "phones": [
            "7-495-2345621"
        ],
        "position": "Генеральный директор"
    },
    "description": "Финансовый, правовой и ИТ-консалтинг для повышения эффективности и прозрачности бизнеса.\nРазработка программного обеспечения для экспортеров и импортеров на программах \"1С:Предприятие 8\": валютный контроль согласно Инструкции Банка России №138-И от 04.06.2013, международные платежи по стандартам SWIFT.\nРазработка и экспертиза внешнеэкономических контрактов.\nПостановка бухгалтерского учета по международным стандартам (US GAAP, МСФО).",
    "email": "info@rayconsulting.ru",
    "keywords": [
        "138-И",
        "1c",
        "1с",
        "enterprise",
        "export",
        "exporter",
        "foreign trade",
        "gaap",
        "ifrs",
        "import",
        "importer",
        "ps",
        "rap",
        "ras",
        "raycon",
        "swift",
        "vo",
        "автоматизация",
        "бухгалтерский",
        "бухучет",
        "валютный контроль",
        "внедрение",
        "гаап",
        "импорт",
        "импортер",
        "международный",
        "мсфо",
        "мэппинг",
        "паспорт сделки",
        "пс",
        "сво",
        "спд",
        "справка о валютных операциях",
        "справка о подтверждающих документах",
        "стандарт",
        "учет",
        "экспорт",
        "экспортер"
    ],
    "name": "ООО \"Рэй Консалтинг\"",
    "phones": [
        "7-495-2345621"
    ],
    "presence": {
        "Азия": [
            "Афганистан",
            "Израиль",
            "Южная Корея",
            "Япония"
        ],
        "Европа": [
            "Великобритания",
            "Германия",
            "Греция",
            "Кипр",
            "Нидерланды",
            "Франция",
            "Швейцария"
        ],
        "СНГ": [
            "Армения",
            "Казахстан"
        ],
        "Центральная и Северная Америка": [
            "Канада",
            "Соединенные Штаты Америки"
        ]
    },
    "website": "http://www.rayconsulting.ru",
    "wishlist": {
        "Европа": [
            "Австрия",
            "Бельгия",
            "Лихтенштейн",
            "Люксембург",
            "Финляндия"
        ]
    }
}
