{
    "address": "125252, Москва, ул. Куусинена, 21а",
    "business": {
        "age": "более 10 лет",
        "languages": [
            "Английский",
            "Русский"
        ],
        "size": "101-250",
        "type": "Производитель, Оптовая компания"
    },
    "contact": {
        "email": "vasilieva@dominantsugar.ru",
        "name": "Васильева Марина Михайловна",
        "phones": [
            "+7-495-745-50-73"
        ],
        "position": "Руководитель отдела ВЭД"
    },
    "description": "Группа компаний Доминант предлагает на экспорт оптом сахар, жом и мелассу с семи заводов в Южном федеральном округе, Центральном федеральном округе, а также в Алтайском крае.",
    "email": "company@dominantsugar.ru",
    "keywords": [
        "производство, оптовая торговля, сахар, жом, меласса, экспорт"
    ],
    "name": "ООО \"ГК ДОМИНАНТ\"",
    "phones": [
        "+7-495-745-50-73"
    ],
    "presence": {
        "Азия": [
            "Афганистан",
            "Бангладеш",
            "Бахрейн",
            "Бруней-Даруссалам",
            "Бутан",
            "Вьетнам",
            "Грузия",
            "Израиль",
            "Индия",
            "Индонезия",
            "Иордания",
            "Ирак",
            "Иран",
            "Исламская Республика",
            "Йемен",
            "Камбоджа",
            "Катар",
            "Китай",
            "Кувейт",
            "Лаос",
            "Ливан",
            "Малайзия",
            "Мальдивы",
            "Монголия",
            "Мьянма",
            "Непал",
            "Объединенные Арабские Эмираты",
            "Оман",
            "Пакистан",
            "Саудовская Аравия",
            "Северная Корея",
            "Сингапур",
            "Таиланд",
            "Филиппины",
            "Шри-Ланка",
            "Южная Корея",
            "Япония"
        ],
        "Европа": [
            "Австрия",
            "Албания",
            "Андорра",
            "Бельгия",
            "Болгария",
            "Босния и Герцеговина",
            "Великобритания",
            "Венгрия",
            "Германия",
            "Греция",
            "Дания",
            "Европейские сообщества",
            "Ирландия",
            "Исландия",
            "Испания",
            "Италия",
            "Кипр",
            "Латвия",
            "Литва",
            "Лихтенштейн",
            "Люксембург",
            "Македония (Республика Македония)",
            "Мальта",
            "Монако",
            "Нидерланды",
            "Норвегия",
            "Польша",
            "Португалия",
            "Румыния",
            "Сан-Марино",
            "Сербия",
            "Словакия",
            "Словения",
            "Турция",
            "Финляндия",
            "Франция",
            "Хорватия",
            "Черногория",
            "Чехия (Чешская Республика)",
            "Швейцария",
            "Швеция",
            "Эстония"
        ],
        "СНГ": [
            "Абхазия",
            "Азербайджан",
            "Армения",
            "Беларусь",
            "Казахстан",
            "Киргизия",
            "Молдавия",
            "Таджикистан",
            "Туркменистан",
            "Узбекистан",
            "Украина"
        ]
    },
    "website": "http://-",
    "wishlist": {
        "Азия": [
            "Афганистан",
            "Бангладеш",
            "Бахрейн",
            "Бруней-Даруссалам",
            "Бутан",
            "Вьетнам",
            "Грузия",
            "Израиль",
            "Индия",
            "Индонезия",
            "Иордания",
            "Ирак",
            "Иран",
            "Исламская Республика",
            "Йемен",
            "Камбоджа",
            "Катар",
            "Китай",
            "Кувейт",
            "Лаос",
            "Ливан",
            "Малайзия",
            "Мальдивы",
            "Монголия",
            "Мьянма",
            "Непал",
            "Объединенные Арабские Эмираты",
            "Оман",
            "Пакистан",
            "Саудовская Аравия",
            "Северная Корея",
            "Сингапур",
            "Таиланд",
            "Филиппины",
            "Шри-Ланка",
            "Южная Корея",
            "Япония"
        ],
        "Европа": [
            "Австрия",
            "Албания",
            "Андорра",
            "Бельгия",
            "Болгария",
            "Босния и Герцеговина",
            "Великобритания",
            "Венгрия",
            "Германия",
            "Греция",
            "Дания",
            "Европейские сообщества",
            "Ирландия",
            "Исландия",
            "Испания",
            "Италия",
            "Кипр",
            "Латвия",
            "Литва",
            "Лихтенштейн",
            "Люксембург",
            "Македония (Республика Македония)",
            "Мальта",
            "Монако",
            "Нидерланды",
            "Норвегия",
            "Польша",
            "Португалия",
            "Румыния",
            "Сан-Марино",
            "Сербия",
            "Словакия",
            "Словения",
            "Турция",
            "Финляндия",
            "Франция",
            "Хорватия",
            "Черногория",
            "Чехия (Чешская Республика)",
            "Швейцария",
            "Швеция",
            "Эстония"
        ],
        "СНГ": [
            "Абхазия",
            "Азербайджан",
            "Армения",
            "Беларусь",
            "Казахстан",
            "Киргизия",
            "Молдавия",
            "Таджикистан",
            "Туркменистан",
            "Узбекистан",
            "Украина"
        ]
    }
}
