{
    "address": "426033, Удмуртская Республика, Ижевск, ул. 50 лет Пионерии, 18",
    "business": {
        "age": "1-2 года",
        "languages": [
            "Английский"
        ],
        "size": "1-15",
        "turnover": "менее 2",
        "type": "Поставщик услуг"
    },
    "contact": {
        "email": "dirigibl@bk.ru",
        "name": "Обухов Юрий Викторович",
        "phones": [
            "+7-919-916-96-00"
        ],
        "position": "Директор"
    },
    "description": "Транспортно-экспедиционное обслуживание в области железнодорожных грузовых перевозок по РФ, СНГ, странам дальнего зарубежья, включая смежные виды транспорта.",
    "email": "dirigibl@bk.ru",
    "keywords": [
        "грузовые перевозки",
        "жд перевозки",
        "железнодорожные перевозки",
        "прием и отправка грузов",
        "погрузка грузов",
        "крепление грузов",
        "разработка схем крепления грузов"
    ],
    "name": "ООО \"Дирижабль\"",
    "phones": [
        "+7(3412) 56-96-00"
    ],
    "presence": {},
    "website": "http://www.dirigibl.izhev.ru/",
    "wishlist": {
        "Азия": [
            "Афганистан",
            "Бангладеш",
            "Бахрейн",
            "Бруней-Даруссалам",
            "Бутан",
            "Вьетнам",
            "Грузия",
            "Израиль",
            "Индия",
            "Индонезия",
            "Иордания",
            "Ирак",
            "Иран",
            "Исламская Республика",
            "Йемен",
            "Камбоджа",
            "Катар",
            "Китай",
            "Кувейт",
            "Лаос",
            "Ливан",
            "Малайзия",
            "Мальдивы",
            "Монголия",
            "Мьянма",
            "Непал",
            "Объединенные Арабские Эмираты",
            "Оман",
            "Пакистан",
            "Саудовская Аравия",
            "Северная Корея",
            "Сингапур",
            "Таиланд",
            "Филиппины",
            "Шри-Ланка",
            "Южная Корея",
            "Япония"
        ],
        "Европа": [
            "Австрия",
            "Албания",
            "Андорра",
            "Бельгия",
            "Болгария",
            "Босния и Герцеговина",
            "Великобритания",
            "Венгрия",
            "Германия",
            "Греция",
            "Дания",
            "Европейские сообщества",
            "Ирландия",
            "Исландия",
            "Испания",
            "Италия",
            "Кипр",
            "Латвия",
            "Литва",
            "Лихтенштейн",
            "Люксембург",
            "Македония (Республика Македония)",
            "Мальта",
            "Монако",
            "Нидерланды",
            "Норвегия",
            "Польша",
            "Португалия",
            "Румыния",
            "Сан-Марино",
            "Сербия",
            "Словакия",
            "Словения",
            "Турция",
            "Финляндия",
            "Франция",
            "Хорватия",
            "Черногория",
            "Чехия (Чешская Республика)",
            "Швейцария",
            "Швеция",
            "Эстония"
        ],
        "СНГ": [
            "Абхазия",
            "Азербайджан",
            "Армения",
            "Беларусь",
            "Казахстан",
            "Киргизия",
            "Молдавия",
            "Таджикистан",
            "Туркменистан",
            "Узбекистан",
            "Украина"
        ]
    }
}
