{
    "address": "141282, Московская область, Ивантеевка, ул.Толмачева,д.82",
    "business": {
        "age": "более 10 лет",
        "languages": [
            "Английский",
            "Арабский"
        ],
        "size": "101-250",
        "turnover": "16-30",
        "type": "Производитель"
    },
    "contact": {
        "email": "saleh@sovocrim.ru",
        "name": "Аббас Салех",
        "phones": [
            "+7 962 157 8670"
        ],
        "position": "коммерческий директор"
    },
    "description": "СФЕРА ДЕЯТЕЛЬНОСТИ ЗАО «СОВОКРИМ»\nПроектирование и производство оборудования от отдельного станка до комплекта «под ключ»:\n- элеваторов;\n- мельниц для мягкой и твердой пшеницы;\n- крупозаводов;\n- комбикормовых заводов;\n- линий транспортировки зерна и портативных разгрузочных сооружений;\n- предприятий горнодобывающей, пищевой, спиртовой, пивоваренной и фармацевтической\nпромышленности.",
    "email": "office@sovocrim.ru",
    "keywords": [
        "мельничное оборудование,оборудование для производства комбикормов,оборудование для крупозаводов,переработка кукурузы,модульные мельницы,нории,сепаратор,камнеотборник,дробилка,,пневмосортировочная машина,конвейеры для зерна и сыпучих продуктов,увлажнительная машина,бичевая машина,обоечная машина,вальцовый станок,рассев,дежерминатор,измельчитель,фильтр-циклон,фильтр локальный,вентилятор высокого давления,задвижки,затворы"
    ],
    "name": "ЗАО \"СОВОКРИМ\"",
    "phones": [
        "+7(495) 223-08-78,+7(495 ) 741- 25- 16 ",
        "+7 (496) 536-18-33"
    ],
    "presence": {
        "Азия": [
            "Афганистан",
            "Бангладеш",
            "Бахрейн",
            "Бруней-Даруссалам",
            "Бутан",
            "Вьетнам",
            "Грузия",
            "Израиль",
            "Индия",
            "Индонезия",
            "Иордания",
            "Ирак",
            "Иран",
            "Исламская Республика",
            "Йемен",
            "Камбоджа",
            "Катар",
            "Китай",
            "Кувейт",
            "Лаос",
            "Ливан",
            "Малайзия",
            "Мальдивы",
            "Монголия",
            "Мьянма",
            "Непал",
            "Объединенные Арабские Эмираты",
            "Оман",
            "Пакистан",
            "Саудовская Аравия",
            "Северная Корея",
            "Сингапур",
            "Таиланд",
            "Филиппины",
            "Шри-Ланка",
            "Южная Корея",
            "Япония"
        ],
        "СНГ": [
            "Абхазия",
            "Азербайджан",
            "Армения",
            "Беларусь",
            "Казахстан",
            "Киргизия",
            "Молдавия",
            "Таджикистан",
            "Туркменистан",
            "Узбекистан",
            "Украина"
        ]
    },
    "website": "http://www.sovocrim.ru",
    "wishlist": {
        "Азия": [
            "Афганистан",
            "Бангладеш",
            "Бахрейн",
            "Бруней-Даруссалам",
            "Бутан",
            "Вьетнам",
            "Грузия",
            "Израиль",
            "Индия",
            "Индонезия",
            "Иордания",
            "Ирак",
            "Иран",
            "Исламская Республика",
            "Йемен",
            "Камбоджа",
            "Катар",
            "Китай",
            "Кувейт",
            "Лаос",
            "Ливан",
            "Малайзия",
            "Мальдивы",
            "Монголия",
            "Мьянма",
            "Непал",
            "Объединенные Арабские Эмираты",
            "Оман",
            "Пакистан",
            "Саудовская Аравия",
            "Северная Корея",
            "Сингапур",
            "Таиланд",
            "Филиппины",
            "Шри-Ланка",
            "Южная Корея",
            "Япония"
        ],
        "Африка": [
            "Алжир",
            "Ботсвана",
            "Египет",
            "Ливийская Арабская Джамахирия",
            "Маврикий",
            "Марокко",
            "Сирийская Арабская Республика",
            "Чад",
            "Южный Судан"
        ],
        "Европа": [
            "Австрия",
            "Албания",
            "Андорра",
            "Бельгия",
            "Болгария",
            "Босния и Герцеговина",
            "Великобритания",
            "Венгрия",
            "Германия",
            "Греция",
            "Дания",
            "Европейские сообщества",
            "Ирландия",
            "Исландия",
            "Испания",
            "Италия",
            "Кипр",
            "Латвия",
            "Литва",
            "Лихтенштейн",
            "Люксембург",
            "Македония (Республика Македония)",
            "Мальта",
            "Монако",
            "Нидерланды",
            "Норвегия",
            "Польша",
            "Португалия",
            "Румыния",
            "Сан-Марино",
            "Сербия",
            "Словакия",
            "Словения",
            "Турция",
            "Финляндия",
            "Франция",
            "Хорватия",
            "Черногория",
            "Чехия (Чешская Республика)",
            "Швейцария",
            "Швеция",
            "Эстония"
        ],
        "СНГ": [
            "Абхазия",
            "Азербайджан",
            "Армения",
            "Беларусь",
            "Казахстан",
            "Киргизия",
            "Молдавия",
            "Таджикистан",
            "Туркменистан",
            "Узбекистан",
            "Украина"
        ],
        "Южная Америка": [
            "Аргентина",
            "Боливия",
            "Бразилия",
            "Перу",
            "Фолклендские острова (Мальвинские)"
        ]
    }
}
