{
    "address": "150020, Ярославская область, Ярославль, ул. 4-я Пролетарская, д.3",
    "business": {
        "age": "более 10 лет",
        "languages": [
            "Английский"
        ],
        "size": "251-1000",
        "type": "Производитель, Поставщик услуг"
    },
    "contact": {
        "email": "tankus2010@mail.ru",
        "name": "Кузнецова Татьяна Валерьевна",
        "phones": [
            "8(4852)67-35-36"
        ],
        "position": "Инженер"
    },
    "description": "Машиностроительное предприятие России по ремонту вагонов и выпуску тяжёлых путевых машин для нужд железнодорожного транспорта. Изготовление запасных частей к грузовым вагонам и путевой технике.",
    "email": "secretar@yvrz.rempm.ru",
    "keywords": [
        "Машиностроение",
        "Путевые машины",
        "запасные части",
        "грузовые вагоны"
    ],
    "name": "ОАО \"Ярославский ВРЗ \"Ремпутьмаш\"",
    "phones": [
        "+7 (4852) 24-25-45"
    ],
    "presence": {
        "СНГ": [
            "Абхазия",
            "Азербайджан",
            "Армения",
            "Беларусь",
            "Казахстан",
            "Киргизия",
            "Молдавия",
            "Таджикистан",
            "Туркменистан",
            "Узбекистан",
            "Украина"
        ]
    },
    "website": "http://www.rempm.ru",
    "wishlist": {
        "Азия": [
            "Афганистан",
            "Бангладеш",
            "Бахрейн",
            "Бруней-Даруссалам",
            "Бутан",
            "Вьетнам",
            "Грузия",
            "Израиль",
            "Индия",
            "Индонезия",
            "Иордания",
            "Ирак",
            "Иран",
            "Исламская Республика",
            "Йемен",
            "Камбоджа",
            "Катар",
            "Китай",
            "Кувейт",
            "Лаос",
            "Ливан",
            "Малайзия",
            "Мальдивы",
            "Монголия",
            "Мьянма",
            "Непал",
            "Объединенные Арабские Эмираты",
            "Оман",
            "Пакистан",
            "Саудовская Аравия",
            "Северная Корея",
            "Сингапур",
            "Таиланд",
            "Филиппины",
            "Шри-Ланка",
            "Южная Корея",
            "Япония"
        ],
        "Европа": [
            "Австрия",
            "Албания",
            "Андорра",
            "Бельгия",
            "Болгария",
            "Босния и Герцеговина",
            "Великобритания",
            "Венгрия",
            "Германия",
            "Греция",
            "Дания",
            "Европейские сообщества",
            "Ирландия",
            "Исландия",
            "Испания",
            "Италия",
            "Кипр",
            "Латвия",
            "Литва",
            "Лихтенштейн",
            "Люксембург",
            "Македония (Республика Македония)",
            "Мальта",
            "Монако",
            "Нидерланды",
            "Норвегия",
            "Польша",
            "Португалия",
            "Румыния",
            "Сан-Марино",
            "Сербия",
            "Словакия",
            "Словения",
            "Турция",
            "Финляндия",
            "Франция",
            "Хорватия",
            "Черногория",
            "Чехия (Чешская Республика)",
            "Швейцария",
            "Швеция",
            "Эстония"
        ]
    }
}
