{
    "address": "399050, Липецкая область, Липецк, Липецкая область, Грязинский р-он, ст.Казинка, ОЭЗ ППТ «Липецк», ООО «Бекарт Липецк»",
    "business": {
        "age": "3-5 лет",
        "languages": [
            "Английский"
        ],
        "size": "251-1000",
        "type": "Производитель"
    },
    "contact": {
        "email": "Marina.Terehova@bekaert.com",
        "name": "Терехова Марина Владимировна",
        "phones": [
            "+74742519363"
        ],
        "position": "Ассистент генерального директора"
    },
    "description": "Компания Бекарт Липецк производит металлический корд, используемый для армирования шин, и стальную фибру Dramix®, применяемую в строительстве. Завод в г. Липецк обслуживает российский рынок, а также потребительский рынок стран СНГ. С 1998 года, офис продаж компании, располагающийся в г. Москва, предлагает своим клиентам широкий спектр услуг и большой ассортимент продукции для армирования шин, армирования бетона и другие специализированные изделия из проволоки.",
    "email": "Steelcord.Lipetsk@bekaert.com",
    "keywords": [
        "Металлокорд, металлический корд, армирование шин, стальная фибра Dramix, армирование бетона"
    ],
    "name": "ООО \"Бекарт Липецк\"",
    "phones": [
        "+74742519363"
    ],
    "presence": {
        "Европа": [
            "Австрия",
            "Албания",
            "Андорра",
            "Бельгия",
            "Болгария",
            "Босния и Герцеговина",
            "Великобритания",
            "Венгрия",
            "Германия",
            "Греция",
            "Дания",
            "Европейские сообщества",
            "Ирландия",
            "Исландия",
            "Испания",
            "Италия",
            "Кипр",
            "Латвия",
            "Литва",
            "Лихтенштейн",
            "Люксембург",
            "Македония (Республика Македония)",
            "Мальта",
            "Монако",
            "Нидерланды",
            "Норвегия",
            "Польша",
            "Португалия",
            "Румыния",
            "Сан-Марино",
            "Сербия",
            "Словакия",
            "Словения",
            "Турция",
            "Финляндия",
            "Франция",
            "Хорватия",
            "Черногория",
            "Чехия (Чешская Республика)",
            "Швейцария",
            "Швеция",
            "Эстония"
        ],
        "СНГ": [
            "Абхазия",
            "Азербайджан",
            "Армения",
            "Беларусь",
            "Казахстан",
            "Киргизия",
            "Молдавия",
            "Таджикистан",
            "Туркменистан",
            "Узбекистан",
            "Украина"
        ]
    },
    "website": "http://bekaert.com",
    "wishlist": {
        "Европа": [
            "Австрия",
            "Албания",
            "Андорра",
            "Бельгия",
            "Болгария",
            "Босния и Герцеговина",
            "Великобритания",
            "Венгрия",
            "Германия",
            "Греция",
            "Дания",
            "Европейские сообщества",
            "Ирландия",
            "Исландия",
            "Испания",
            "Италия",
            "Кипр",
            "Латвия",
            "Литва",
            "Лихтенштейн",
            "Люксембург",
            "Македония (Республика Македония)",
            "Мальта",
            "Монако",
            "Нидерланды",
            "Норвегия",
            "Польша",
            "Португалия",
            "Румыния",
            "Сан-Марино",
            "Сербия",
            "Словакия",
            "Словения",
            "Турция",
            "Финляндия",
            "Франция",
            "Хорватия",
            "Черногория",
            "Чехия (Чешская Республика)",
            "Швейцария",
            "Швеция",
            "Эстония"
        ],
        "СНГ": [
            "Абхазия",
            "Азербайджан",
            "Армения",
            "Беларусь",
            "Казахстан",
            "Киргизия",
            "Молдавия",
            "Таджикистан",
            "Туркменистан",
            "Узбекистан",
            "Украина"
        ]
    }
}
