{
    "address": "410040, Саратовская область, Саратов, пр. 50 лет Октября, пл. Ленина",
    "business": {
        "age": "более 10 лет",
        "languages": [
            "Английский"
        ],
        "size": "более 1000",
        "type": "Производитель"
    },
    "contact": {
        "email": "reklama@sepo.ru",
        "name": "Павлова Лариса Анатольевна",
        "phones": [
            "30-81-90"
        ],
        "position": "начальник бюро"
    },
    "description": "САРАТОВСКОЕ ЭЛЕКТРОАГРЕГАТНОЕ ПРОИЗВОДСТВЕННОЕ ОБЪЕДИНЕНИЕ, основанное 14 мая 1939 года, является лидером российского агрегатостроения, одним из крупнейших предприятий России по производству электронных и сложных электротехнических изделий, применяемых в различных отраслях народного хозяйства.",
    "email": "holod-1@sepo.ru",
    "keywords": [
        "производство холодильников и морозильников"
    ],
    "name": "ООО СЭПО-ЗЭМ",
    "phones": [
        "(8452)"
    ],
    "presence": {
        "Азия": [
            "Вьетнам",
            "Индия"
        ],
        "СНГ": [
            "Абхазия",
            "Азербайджан",
            "Армения",
            "Беларусь",
            "Казахстан",
            "Киргизия",
            "Молдавия",
            "Таджикистан",
            "Туркменистан",
            "Узбекистан",
            "Украина"
        ]
    },
    "website": "http://www.sepo.ru",
    "wishlist": {
        "Азия": [
            "Афганистан",
            "Бангладеш",
            "Бахрейн",
            "Бруней-Даруссалам",
            "Бутан",
            "Вьетнам",
            "Грузия",
            "Израиль",
            "Индия",
            "Индонезия",
            "Иордания",
            "Ирак",
            "Иран",
            "Исламская Республика",
            "Йемен",
            "Камбоджа",
            "Катар",
            "Китай",
            "Кувейт",
            "Лаос",
            "Ливан",
            "Малайзия",
            "Мальдивы",
            "Монголия",
            "Мьянма",
            "Непал",
            "Объединенные Арабские Эмираты",
            "Оман",
            "Пакистан",
            "Саудовская Аравия",
            "Северная Корея",
            "Сингапур",
            "Таиланд",
            "Филиппины",
            "Шри-Ланка",
            "Южная Корея",
            "Япония"
        ],
        "Европа": [
            "Австрия",
            "Албания",
            "Андорра",
            "Бельгия",
            "Болгария",
            "Босния и Герцеговина",
            "Великобритания",
            "Венгрия",
            "Германия",
            "Греция",
            "Дания",
            "Европейские сообщества",
            "Ирландия",
            "Исландия",
            "Испания",
            "Италия",
            "Кипр",
            "Латвия",
            "Литва",
            "Лихтенштейн",
            "Люксембург",
            "Македония (Республика Македония)",
            "Мальта",
            "Монако",
            "Нидерланды",
            "Норвегия",
            "Польша",
            "Португалия",
            "Румыния",
            "Сан-Марино",
            "Сербия",
            "Словакия",
            "Словения",
            "Турция",
            "Финляндия",
            "Франция",
            "Хорватия",
            "Черногория",
            "Чехия (Чешская Республика)",
            "Швейцария",
            "Швеция",
            "Эстония"
        ]
    }
}
