{
    "address": "625034, Тюменская область, Тюмень, ул. Камчатская, 196",
    "business": {
        "age": "более 10 лет",
        "languages": [
            "Английский",
            "Арабский",
            "Немецкий",
            "Французский",
            "турецкий"
        ],
        "size": "251-1000",
        "turnover": "16-30",
        "type": "Производитель, Оптовая компания"
    },
    "contact": {
        "email": "tvv@tumfk.ru",
        "name": "Тушенцов Виктор Валерьевич",
        "phones": [
            "+73452637768 *117"
        ],
        "position": "Специалист по маркетингу"
    },
    "description": "Тюменский фанерный завод - является крупнейшим производителем фанерной продукции в Тюменской области. За долгие годы работы предприятие заслужило репутацию надежного и качественного поставщика не только в России, но и в странах Ближнего и дальнего зарубежья.\nПродукция завода отвечает самым высоким международным требованиям качества. Основным показателем признания качества продукции завода на европейском рынке является присвоение сертификата формы CE, BFU 100, CARB.",
    "email": "office@tumfk.ru",
    "keywords": [
        "производство",
        "березовая фанера",
        "фанера",
        "ламинированная фанера",
        "ФК",
        "ФСФ",
        "ФОФ"
    ],
    "name": "ООО «Тюменский фанерный завод»",
    "phones": [
        "+7345263-77-65"
    ],
    "presence": {
        "Австралия и Океания": [
            "Австралия"
        ],
        "Азия": [
            "Вьетнам",
            "Ирак",
            "Китай",
            "Южная Корея",
            "Япония"
        ],
        "Европа": [
            "Болгария",
            "Великобритания",
            "Германия",
            "Греция",
            "Дания",
            "Италия",
            "Кипр",
            "Латвия",
            "Литва",
            "Нидерланды",
            "Польша",
            "Турция",
            "Финляндия",
            "Франция",
            "Чехия (Чешская Республика)",
            "Швеция",
            "Эстония"
        ],
        "СНГ": [
            "Азербайджан",
            "Беларусь",
            "Казахстан",
            "Киргизия",
            "Молдавия",
            "Туркменистан"
        ]
    },
    "website": "http://www.tumfk.ru",
    "wishlist": {
        "Австралия и Океания": [
            "Австралия",
            "Новая Зеландия",
            "Папуа-Новая Гвинея"
        ],
        "Азия": [
            "Афганистан",
            "Бангладеш",
            "Бахрейн",
            "Бруней-Даруссалам",
            "Бутан",
            "Вьетнам",
            "Грузия",
            "Израиль",
            "Индия",
            "Индонезия",
            "Иордания",
            "Ирак",
            "Иран",
            "Исламская Республика",
            "Йемен",
            "Камбоджа",
            "Катар",
            "Китай",
            "Кувейт",
            "Лаос",
            "Ливан",
            "Малайзия",
            "Мальдивы",
            "Монголия",
            "Мьянма",
            "Непал",
            "Объединенные Арабские Эмираты",
            "Оман",
            "Пакистан",
            "Саудовская Аравия",
            "Северная Корея",
            "Сингапур",
            "Таиланд",
            "Филиппины",
            "Шри-Ланка",
            "Южная Корея",
            "Япония"
        ],
        "Африка": [
            "Алжир",
            "Ботсвана",
            "Египет",
            "Ливийская Арабская Джамахирия",
            "Маврикий",
            "Марокко",
            "Сирийская Арабская Республика",
            "Чад",
            "Южный Судан"
        ],
        "Европа": [
            "Австрия",
            "Албания",
            "Андорра",
            "Бельгия",
            "Болгария",
            "Босния и Герцеговина",
            "Великобритания",
            "Венгрия",
            "Германия",
            "Греция",
            "Дания",
            "Европейские сообщества",
            "Ирландия",
            "Исландия",
            "Испания",
            "Италия",
            "Кипр",
            "Латвия",
            "Литва",
            "Лихтенштейн",
            "Люксембург",
            "Македония (Республика Македония)",
            "Мальта",
            "Монако",
            "Нидерланды",
            "Норвегия",
            "Польша",
            "Португалия",
            "Румыния",
            "Сан-Марино",
            "Сербия",
            "Словакия",
            "Словения",
            "Турция",
            "Финляндия",
            "Франция",
            "Хорватия",
            "Черногория",
            "Чехия (Чешская Республика)",
            "Швейцария",
            "Швеция",
            "Эстония"
        ],
        "СНГ": [
            "Абхазия",
            "Азербайджан",
            "Армения",
            "Беларусь",
            "Казахстан",
            "Киргизия",
            "Молдавия",
            "Таджикистан",
            "Туркменистан",
            "Узбекистан",
            "Украина"
        ],
        "Центральная и Северная Америка": [
            "Антигуа и Барбуда",
            "Аруба",
            "Виргинские острова",
            "Британские",
            "Виргинские острова",
            "США",
            "Гватемала",
            "Гондурас",
            "Канада",
            "Коста-Рика",
            "Куба",
            "Мексика",
            "Никарагуа",
            "Панама",
            "Соединенные Штаты Америки"
        ],
        "Южная Америка": [
            "Аргентина",
            "Боливия",
            "Бразилия",
            "Перу",
            "Фолклендские острова (Мальвинские)"
        ]
    }
}
