{
    "address": "115172, Москва, Россия, 115172, Москва 3-й Котельнический переулок, 6",
    "business": {
        "age": "более 10 лет",
        "languages": [
            "Английский"
        ],
        "size": "101-250",
        "type": "Консультант"
    },
    "contact": {
        "email": "akhusainova@intertest.ru",
        "name": "Серебренников Артем Валерьевич",
        "phones": [
            "7-495-7752002"
        ],
        "position": "Генеральный директор"
    },
    "description": "Многопрофильный холдинг ИНТЕРТЕСТ – один из лидеров промышленного инжиниринга среди частных российских компаний. Более 10 лет экспертного опыта и партнерство с мировыми лидерами позволяют предлагать комплексные решения «под ключ» в области энергетики, химической и добывающей промышленности, инфраструктурных проектов. В составе холдинга – строительная компания, консалтинговое и инжиниринговое подразделения, совместные предприятия с мировыми лидерами в области междисциплинарного инжиниринга – Desmet Ballestra (Италия) и Gauff Consultants (Германия).",
    "email": "info@intertest.ru",
    "keywords": [
        "консалтинг",
        "инжиниринг",
        "технический консалтинг",
        "промышленное строительство",
        "управление инвестиционно-строительными проектами",
        "управление строительством",
        "EPCM"
    ],
    "name": "ЗАО \"ИНТЕРТЕСТ\"",
    "phones": [
        "7-495-7752002"
    ],
    "presence": {
        "СНГ": [
            "Абхазия",
            "Азербайджан",
            "Армения",
            "Беларусь",
            "Казахстан",
            "Киргизия",
            "Молдавия",
            "Таджикистан",
            "Туркменистан",
            "Узбекистан",
            "Украина"
        ]
    },
    "website": "http://www.intertest.ru",
    "wishlist": {
        "Азия": [
            "Афганистан",
            "Бангладеш",
            "Бахрейн",
            "Бруней-Даруссалам",
            "Бутан",
            "Вьетнам",
            "Грузия",
            "Израиль",
            "Индия",
            "Индонезия",
            "Иордания",
            "Ирак",
            "Иран",
            "Исламская Республика",
            "Йемен",
            "Камбоджа",
            "Катар",
            "Китай",
            "Кувейт",
            "Лаос",
            "Ливан",
            "Малайзия",
            "Мальдивы",
            "Монголия",
            "Мьянма",
            "Непал",
            "Объединенные Арабские Эмираты",
            "Оман",
            "Пакистан",
            "Саудовская Аравия",
            "Северная Корея",
            "Сингапур",
            "Таиланд",
            "Филиппины",
            "Шри-Ланка",
            "Южная Корея",
            "Япония"
        ],
        "Африка": [
            "Алжир",
            "Ботсвана",
            "Египет",
            "Ливийская Арабская Джамахирия",
            "Маврикий",
            "Марокко",
            "Сирийская Арабская Республика",
            "Чад",
            "Южный Судан"
        ],
        "Европа": [
            "Австрия",
            "Албания",
            "Андорра",
            "Бельгия",
            "Болгария",
            "Босния и Герцеговина",
            "Великобритания",
            "Венгрия",
            "Германия",
            "Греция",
            "Дания",
            "Европейские сообщества",
            "Ирландия",
            "Исландия",
            "Испания",
            "Италия",
            "Кипр",
            "Латвия",
            "Литва",
            "Лихтенштейн",
            "Люксембург",
            "Македония (Республика Македония)",
            "Мальта",
            "Монако",
            "Нидерланды",
            "Норвегия",
            "Польша",
            "Португалия",
            "Румыния",
            "Сан-Марино",
            "Сербия",
            "Словакия",
            "Словения",
            "Турция",
            "Финляндия",
            "Франция",
            "Хорватия",
            "Черногория",
            "Чехия (Чешская Республика)",
            "Швейцария",
            "Швеция",
            "Эстония"
        ]
    }
}
