{
    "address": "115093, Москва, ул.Люсиновская, д.12, к.117",
    "business": {
        "age": "1-2 года",
        "languages": [
            "Английский"
        ],
        "size": "1-15",
        "type": "Поставщик услуг"
    },
    "contact": {
        "email": "ctcintl@mail.ru",
        "name": "Нефедов Дмитрий Юльевич",
        "phones": [
            "7-499-7645550"
        ],
        "position": "генеральный директор"
    },
    "description": "Проектирование объектов электроэнергетики",
    "email": "ctcintl@mail.ru",
    "keywords": [
        "Вьетнам, ГЭС Хуана, корпорация Лилама, проектирование ГЭС"
    ],
    "name": "ООО  \"СиТиСи Трейд Инвест\"",
    "phones": [
        "7-916-6709536"
    ],
    "presence": {},
    "website": "http://нет",
    "wishlist": {
        "Европа": [
            "Австрия",
            "Албания",
            "Андорра",
            "Бельгия",
            "Болгария",
            "Босния и Герцеговина",
            "Великобритания",
            "Венгрия",
            "Германия",
            "Греция",
            "Дания",
            "Европейские сообщества",
            "Ирландия",
            "Исландия",
            "Испания",
            "Италия",
            "Кипр",
            "Латвия",
            "Литва",
            "Лихтенштейн",
            "Люксембург",
            "Македония (Республика Македония)",
            "Мальта",
            "Монако",
            "Нидерланды",
            "Норвегия",
            "Польша",
            "Португалия",
            "Румыния",
            "Сан-Марино",
            "Сербия",
            "Словакия",
            "Словения",
            "Турция",
            "Финляндия",
            "Франция",
            "Хорватия",
            "Черногория",
            "Чехия (Чешская Республика)",
            "Швейцария",
            "Швеция",
            "Эстония"
        ],
        "СНГ": [
            "Абхазия",
            "Азербайджан",
            "Армения",
            "Беларусь",
            "Казахстан",
            "Киргизия",
            "Молдавия",
            "Таджикистан",
            "Туркменистан",
            "Узбекистан",
            "Украина"
        ]
    }
}
