{
    "address": "644023, Омская область, Омск, ул. 4-я Транспортная, 60",
    "business": {
        "age": "3-5 лет",
        "languages": [
            "Английский",
            "Немецкий"
        ],
        "size": "16-100",
        "turnover": "2-15",
        "type": "Производитель, Поставщик услуг"
    },
    "contact": {
        "email": "Ntc_nh_transport@mail.ru",
        "name": "Полеваев Владимир Викторович",
        "phones": [
            "+7 (3812) 36-02-65"
        ],
        "position": "Начальник отдела маркетинга"
    },
    "description": "ООО \"НПП Центра \"Транспорт\" разрабатывает, изготавливает и внедряет технологическое оборудование для ремонта и обслуживания подвижного состава: локомотивное хозяйство, вагонное и путевое хозяйство. Номенклатура продукции предприятия включает более 200 единиц различного оборудования.\nПредприятие работает на основе индивидуального подхода, максимально адаптируя свою продукцию к потребностям и нуждам каждого заказчика, осуществляя при этом пусконаладочные работы, а также гарантийное сервисное обслуживание.",
    "email": "Ntc_nh_transport@mail.ru",
    "keywords": [
        "приборостроение и электроника",
        "технологическое оборудование",
        "путевое хозяйство",
        "вагонное хозяйство",
        "локомотивное хозяйство",
        "техническое обслуживание железнодорожных локомотивов"
    ],
    "name": "ООО \"НПП Центра \"Транспорт\"",
    "phones": [
        "+7 (3812) 36-02-65"
    ],
    "presence": {
        "Азия": [
            "Грузия",
            "Монголия"
        ],
        "Европа": [
            "Латвия"
        ],
        "СНГ": [
            "Армения",
            "Беларусь",
            "Казахстан",
            "Узбекистан",
            "Украина"
        ]
    },
    "website": "http://www.ntc-transport.ru",
    "wishlist": {
        "Азия": [
            "Афганистан",
            "Бангладеш",
            "Бахрейн",
            "Бруней-Даруссалам",
            "Бутан",
            "Вьетнам",
            "Грузия",
            "Израиль",
            "Индия",
            "Индонезия",
            "Иордания",
            "Ирак",
            "Иран",
            "Исламская Республика",
            "Йемен",
            "Камбоджа",
            "Катар",
            "Китай",
            "Кувейт",
            "Лаос",
            "Ливан",
            "Малайзия",
            "Мальдивы",
            "Монголия",
            "Мьянма",
            "Непал",
            "Объединенные Арабские Эмираты",
            "Оман",
            "Пакистан",
            "Саудовская Аравия",
            "Северная Корея",
            "Сингапур",
            "Таиланд",
            "Филиппины",
            "Шри-Ланка",
            "Южная Корея",
            "Япония"
        ],
        "Африка": [
            "Алжир",
            "Ботсвана",
            "Египет",
            "Ливийская Арабская Джамахирия",
            "Маврикий",
            "Марокко",
            "Сирийская Арабская Республика",
            "Чад",
            "Южный Судан"
        ],
        "Европа": [
            "Австрия",
            "Албания",
            "Андорра",
            "Бельгия",
            "Болгария",
            "Босния и Герцеговина",
            "Великобритания",
            "Венгрия",
            "Германия",
            "Греция",
            "Дания",
            "Европейские сообщества",
            "Ирландия",
            "Исландия",
            "Испания",
            "Италия",
            "Кипр",
            "Латвия",
            "Литва",
            "Лихтенштейн",
            "Люксембург",
            "Македония (Республика Македония)",
            "Мальта",
            "Монако",
            "Нидерланды",
            "Норвегия",
            "Польша",
            "Португалия",
            "Румыния",
            "Сан-Марино",
            "Сербия",
            "Словакия",
            "Словения",
            "Турция",
            "Финляндия",
            "Франция",
            "Хорватия",
            "Черногория",
            "Чехия (Чешская Республика)",
            "Швейцария",
            "Швеция",
            "Эстония"
        ]
    }
}
