{
    "address": "644065, Омская область, Омск, Нефтезаводская, 38Е",
    "business": {
        "age": "1-2 года",
        "languages": [
            "Английский"
        ],
        "size": "16-100",
        "turnover": "16-30",
        "type": "Дистрибутор, Оптовая компания, Поставщик услуг, Производитель, Розничная сеть"
    },
    "contact": {
        "email": "info@smazprom.ru",
        "name": "Чурин Алексей Юрьевич",
        "phones": [
            "+7 (3812) 64-97-25",
            "64-73-63"
        ],
        "position": "Коммерческий директор"
    },
    "description": "Российская компания на протяжении 20 лет успешно занимается разработкой и производством современных высококачественных смазок и смазочно-охлаждающих жидкостей для металлообработки, машиностроения, индустриальных и специальных масел для кабельной и резинотехнической промышленности, смазок и защитных составов для предприятий по изготовлению ЖБИ.",
    "email": "info@smazprom.ru",
    "keywords": [
        "смазки",
        "масла",
        "смазочно-охлаждающие жидкости",
        "химическая промышленность",
        "полимеры"
    ],
    "name": "ЗАО «НПО «Промэкология»",
    "phones": [
        "+7 (3812) 64-97-25",
        "64-73-63"
    ],
    "presence": {
        "СНГ": [
            "Беларусь",
            "Казахстан",
            "Киргизия",
            "Узбекистан"
        ]
    },
    "website": "http://www.smazprom.ru/",
    "wishlist": {
        "Азия": [
            "Афганистан",
            "Бангладеш",
            "Бахрейн",
            "Бруней-Даруссалам",
            "Бутан",
            "Вьетнам",
            "Грузия",
            "Израиль",
            "Индия",
            "Индонезия",
            "Иордания",
            "Ирак",
            "Иран",
            "Исламская Республика",
            "Йемен",
            "Камбоджа",
            "Катар",
            "Китай",
            "Кувейт",
            "Лаос",
            "Ливан",
            "Малайзия",
            "Мальдивы",
            "Монголия",
            "Мьянма",
            "Непал",
            "Объединенные Арабские Эмираты",
            "Оман",
            "Пакистан",
            "Саудовская Аравия",
            "Северная Корея",
            "Сингапур",
            "Таиланд",
            "Филиппины",
            "Шри-Ланка",
            "Южная Корея",
            "Япония"
        ],
        "СНГ": [
            "Абхазия",
            "Азербайджан",
            "Армения",
            "Беларусь",
            "Казахстан",
            "Киргизия",
            "Молдавия",
            "Таджикистан",
            "Туркменистан",
            "Узбекистан",
            "Украина"
        ]
    }
}
