{
    "address": "644046, Омская область, Омск, Проспект К. Маркса, д. 41",
    "business": {
        "age": "более 10 лет",
        "languages": [
            "Английский"
        ],
        "size": "16-100",
        "turnover": "16-30",
        "type": "Производитель, Поставщик услуг"
    },
    "contact": {
        "email": "polygraph@omsknet.ru",
        "name": "Барышева Марина Викторовна",
        "phones": [
            "+7 (3812) 51-00-39"
        ],
        "position": "Зав. производством"
    },
    "description": "Российская компания, специализирующаяся на производстве полиграфической продукции и упаковки в роле, ищет рынки сбыта для своих услуг.",
    "email": "polygraph@omsknet.ru",
    "keywords": [
        "полиграфия",
        "упаковка",
        "рекламная продукция",
        "тара",
        "книги"
    ],
    "name": "ЗАО «Полиграф»",
    "phones": [
        "+7 (3812) 51-00-39"
    ],
    "presence": {
        "СНГ": [
            "Казахстан",
            "Узбекистан"
        ]
    },
    "website": "http://www.polygraph-omsk.ru",
    "wishlist": {
        "СНГ": [
            "Абхазия",
            "Азербайджан",
            "Армения",
            "Беларусь",
            "Казахстан",
            "Киргизия",
            "Молдавия",
            "Таджикистан",
            "Туркменистан",
            "Узбекистан",
            "Украина"
        ]
    }
}
