{
    "address": "105082, Москва, 105082 , Москва, Спартаковская площадь 14, стр. 3",
    "business": {
        "age": "1-2 года",
        "languages": [
            "Английский",
            "Французский",
            "Русский"
        ],
        "size": "1-15",
        "turnover": "менее 2",
        "type": "Дистрибутор, Поставщик услуг, Посредник"
    },
    "contact": {
        "email": "info@logari-express.ru",
        "name": "Логари Юрий",
        "phones": [
            "+7(495)255-07-52"
        ],
        "position": "генеральный директор"
    },
    "description": "Широкий спектр таможенных инструментов, которые упрощают функционирование логистической цепочки.  Электронное декларирование товаров любых категорий. Сервис по международной доставке грузов практически в любую точку мира. \nПолный спектр решений по международным и внутренним воздушным перевозкам. Глобальная агентская сеть по всему миру.  Перевозка грузов чувствительных к температуре таких как: цветы овощи, йогурты, рыба, мясо, а также клинические образцы. Доставка выставочных образцов посредством карнет АТА. Импорт декора, витрин, светового и спортивного оборудования.",
    "email": "info@logari-express.ru",
    "keywords": [
        "Логистика",
        "Грузоперевозки",
        "Авиа перевозки",
        "Автомобильные перевозки",
        "Морские перевозки",
        "Таможенные услуги",
        "Дистрибуция",
        "Электронное декларирование"
    ],
    "name": "ООО \"Логари Экспресс\"",
    "phones": [
        "+ 7(495)255-07-52",
        "+8(800)775-70-14"
    ],
    "presence": {},
    "website": "http://www.logari-express.ru",
    "wishlist": {
        "Австралия и Океания": [
            "Австралия",
            "Новая Зеландия",
            "Папуа-Новая Гвинея"
        ],
        "Азия": [
            "Афганистан",
            "Бангладеш",
            "Бахрейн",
            "Бруней-Даруссалам",
            "Бутан",
            "Вьетнам",
            "Грузия",
            "Израиль",
            "Индия",
            "Индонезия",
            "Иордания",
            "Ирак",
            "Иран",
            "Исламская Республика",
            "Йемен",
            "Камбоджа",
            "Катар",
            "Китай",
            "Кувейт",
            "Лаос",
            "Ливан",
            "Малайзия",
            "Мальдивы",
            "Монголия",
            "Мьянма",
            "Непал",
            "Объединенные Арабские Эмираты",
            "Оман",
            "Пакистан",
            "Саудовская Аравия",
            "Северная Корея",
            "Сингапур",
            "Таиланд",
            "Филиппины",
            "Шри-Ланка",
            "Южная Корея",
            "Япония"
        ],
        "Африка": [
            "Алжир",
            "Ботсвана",
            "Египет",
            "Ливийская Арабская Джамахирия",
            "Маврикий",
            "Марокко",
            "Сирийская Арабская Республика",
            "Чад",
            "Южный Судан"
        ],
        "Европа": [
            "Австрия",
            "Албания",
            "Андорра",
            "Бельгия",
            "Болгария",
            "Босния и Герцеговина",
            "Великобритания",
            "Венгрия",
            "Германия",
            "Греция",
            "Дания",
            "Европейские сообщества",
            "Ирландия",
            "Исландия",
            "Испания",
            "Италия",
            "Кипр",
            "Латвия",
            "Литва",
            "Лихтенштейн",
            "Люксембург",
            "Македония (Республика Македония)",
            "Мальта",
            "Монако",
            "Нидерланды",
            "Норвегия",
            "Польша",
            "Португалия",
            "Румыния",
            "Сан-Марино",
            "Сербия",
            "Словакия",
            "Словения",
            "Турция",
            "Финляндия",
            "Франция",
            "Хорватия",
            "Черногория",
            "Чехия (Чешская Республика)",
            "Швейцария",
            "Швеция",
            "Эстония"
        ],
        "Центральная и Северная Америка": [
            "Антигуа и Барбуда",
            "Аруба",
            "Виргинские острова",
            "Британские",
            "Виргинские острова",
            "США",
            "Гватемала",
            "Гондурас",
            "Канада",
            "Коста-Рика",
            "Куба",
            "Мексика",
            "Никарагуа",
            "Панама",
            "Соединенные Штаты Америки"
        ],
        "Южная Америка": [
            "Аргентина",
            "Боливия",
            "Бразилия",
            "Перу",
            "Фолклендские острова (Мальвинские)"
        ]
    }
}
