{
    "address": "603043, Нижегородская область, Нижний Новгород, 603043 Россия, г.Нижний Новгород, пр-кт Ленина д.114А, офис 412",
    "business": {
        "age": "6-10 лет",
        "languages": [
            "Английский",
            "русский"
        ],
        "size": "1-15",
        "turnover": "2-15",
        "type": "Дистрибутор, Поставщик услуг, Посредник"
    },
    "contact": {
        "email": "avtozavod2005@gmail.com",
        "name": "Агеев Олег Сергеевич",
        "phones": [
            "+79107918362"
        ],
        "position": "Директор"
    },
    "description": "Компания Бизнес партнер - динамично развивающаяся компания, профилем которой является экспорт в страны СНГ и Дальнего зарубежья автомобилей, автобусов, спецтехники и запасных частей к ним, производства российских заводов ГАЗ, КАМАЗ, ВАЗ, УАЗ, УРАЛ, ЛИАЗ, ПАЗ, КАВЗ, ЗИЛ, ТВЭКС, ЗМЗ, ЯМЗ, УМЗ, а так же заводов бывших советских республик КРАЗ, МАЗ, БЕЛАЗ, ММЗ.\nПрямые контракты с  производителями дают возможность обеспечить наших клиентов по всему миру продукцией высокого качества.",
    "email": "avtozavod2005@gmail.com",
    "keywords": [
        "Экспорт",
        "Импорт",
        "Запасные части",
        "Двигатели",
        "Автомобили",
        "Спец.техника",
        "Экспорт запасных частей и автомобилей Российского производства"
    ],
    "name": "ООО Бизнес партнер",
    "phones": [
        "+7(831)2990551,+79107918362"
    ],
    "presence": {
        "Европа": [
            "Болгария",
            "Босния и Герцеговина",
            "Венгрия",
            "Латвия",
            "Литва",
            "Польша",
            "Сербия",
            "Хорватия",
            "Черногория",
            "Чехия (Чешская Республика)",
            "Швейцария"
        ],
        "СНГ": [
            "Абхазия",
            "Азербайджан",
            "Армения",
            "Беларусь",
            "Казахстан",
            "Киргизия",
            "Молдавия",
            "Таджикистан",
            "Туркменистан",
            "Узбекистан",
            "Украина"
        ],
        "Южная Америка": [
            "Аргентина",
            "Боливия",
            "Бразилия",
            "Перу",
            "Фолклендские острова (Мальвинские)"
        ]
    },
    "website": "http://businesspartnerauto.ru/",
    "wishlist": {
        "Африка": [
            "Алжир",
            "Ботсвана",
            "Египет",
            "Ливийская Арабская Джамахирия",
            "Маврикий",
            "Марокко",
            "Сирийская Арабская Республика",
            "Чад",
            "Южный Судан"
        ],
        "Европа": [
            "Австрия",
            "Албания",
            "Бельгия",
            "Великобритания",
            "Германия",
            "Греция",
            "Дания",
            "Ирландия",
            "Исландия",
            "Испания",
            "Италия",
            "Македония (Республика Македония)",
            "Нидерланды",
            "Норвегия",
            "Португалия",
            "Румыния",
            "Турция",
            "Финляндия",
            "Франция",
            "Швеция"
        ],
        "Центральная и Северная Америка": [
            "Антигуа и Барбуда",
            "Аруба",
            "Виргинские острова",
            "Британские",
            "Виргинские острова",
            "США",
            "Гватемала",
            "Гондурас",
            "Канада",
            "Коста-Рика",
            "Куба",
            "Мексика",
            "Никарагуа",
            "Панама",
            "Соединенные Штаты Америки"
        ],
        "Южная Америка": [
            "Аргентина",
            "Боливия",
            "Бразилия",
            "Перу",
            "Фолклендские острова (Мальвинские)"
        ]
    }
}
