{
    "address": "238321, Калининградская область, пос. Константиновка, ул. Центральная,42",
    "business": {
        "age": "более 10 лет",
        "languages": [
            "Английский"
        ],
        "size": "16-100",
        "turnover": "менее 2",
        "type": "Производитель"
    },
    "contact": {
        "email": "info@manngroup.ru",
        "name": "Михайлов Александр Юрьевич",
        "phones": [
            "+7 (4012) 63-23-54"
        ],
        "position": "Директор"
    },
    "description": "Профильной деятельностью компании «Манн-Групп» является выпуск мебели для общих и жилых комнат. Производство современных и функциональных элементов интерьера было начато в 1995 году в Калининграде. За истекший период времени фирма добилась признания на отечественном рынке и начала поставлять свою продукцию в страны СНГ.\nВысококачественная продукция изготавливается с учетом передовых дизайнерских разработок при использовании современных экологически безопасных материалов и надежных комплектующих.",
    "email": "info@manngroup.ru",
    "keywords": [
        "мебель",
        "производство мебели"
    ],
    "name": "ООО «Галеон»",
    "phones": [
        "+7 (4012) 63-23-54"
    ],
    "presence": {
        "СНГ": [
            "Казахстан"
        ]
    },
    "website": "http://www.manngroup.ru",
    "wishlist": {
        "СНГ": [
            "Абхазия",
            "Азербайджан",
            "Армения",
            "Беларусь",
            "Казахстан",
            "Киргизия",
            "Молдавия",
            "Таджикистан",
            "Туркменистан",
            "Узбекистан",
            "Украина"
        ]
    }
}
