{
    "address": "115477, Москва, Москва, Кантемировская 58, офис 1005",
    "business": {
        "age": "6-10 лет",
        "languages": [
            "Английский"
        ],
        "size": "16-100",
        "turnover": "2-15",
        "type": "Производитель, Поставщик услуг"
    },
    "contact": {
        "email": "es@steelar.com",
        "name": "Щепина Екатерина",
        "phones": [
            "-905-5662647"
        ],
        "position": "менеджер по рекламе"
    },
    "description": "ПРОЕКТИРОВАНИЕ объектов строительства на основе металлических конструкций;\nИЗГОТОВЛЕНИЕ продукции на собственном заводе стальных конструкций по собственным проектам и по проектам Заказчика;\nМОНТАЖ изготовленных конструкций.",
    "email": "es@steelar.com",
    "keywords": [
        "проектирование, монтаж, производство, стальные конструкции, балки"
    ],
    "name": "ООО \"Стилар Билдинг Системз\"",
    "phones": [
        "-905-5662647"
    ],
    "presence": {},
    "website": "http://steelar.com",
    "wishlist": {
        "Азия": [
            "Афганистан",
            "Бангладеш",
            "Бахрейн",
            "Бруней-Даруссалам",
            "Бутан",
            "Вьетнам",
            "Грузия",
            "Израиль",
            "Индия",
            "Индонезия",
            "Иордания",
            "Ирак",
            "Иран",
            "Исламская Республика",
            "Йемен",
            "Камбоджа",
            "Катар",
            "Китай",
            "Кувейт",
            "Лаос",
            "Ливан",
            "Малайзия",
            "Мальдивы",
            "Монголия",
            "Мьянма",
            "Непал",
            "Объединенные Арабские Эмираты",
            "Оман",
            "Пакистан",
            "Саудовская Аравия",
            "Северная Корея",
            "Сингапур",
            "Таиланд",
            "Филиппины",
            "Шри-Ланка",
            "Южная Корея",
            "Япония"
        ],
        "Европа": [
            "Австрия",
            "Албания",
            "Андорра",
            "Бельгия",
            "Болгария",
            "Босния и Герцеговина",
            "Великобритания",
            "Венгрия",
            "Германия",
            "Греция",
            "Дания",
            "Европейские сообщества",
            "Ирландия",
            "Исландия",
            "Испания",
            "Италия",
            "Кипр",
            "Латвия",
            "Литва",
            "Лихтенштейн",
            "Люксембург",
            "Македония (Республика Македония)",
            "Мальта",
            "Монако",
            "Нидерланды",
            "Норвегия",
            "Польша",
            "Португалия",
            "Румыния",
            "Сан-Марино",
            "Сербия",
            "Словакия",
            "Словения",
            "Турция",
            "Финляндия",
            "Франция",
            "Хорватия",
            "Черногория",
            "Чехия (Чешская Республика)",
            "Швейцария",
            "Швеция",
            "Эстония"
        ],
        "СНГ": [
            "Абхазия",
            "Азербайджан",
            "Армения",
            "Беларусь",
            "Казахстан",
            "Киргизия",
            "Молдавия",
            "Таджикистан",
            "Туркменистан",
            "Узбекистан",
            "Украина"
        ]
    }
}
