{
    "address": "628128, Ханты-Мансийский АО, п.Унъюган, 4 Промышленный проезд, 2",
    "business": {
        "age": "1-2 года",
        "languages": [
            "Английский"
        ],
        "size": "1-15",
        "type": "Производитель"
    },
    "contact": {
        "email": "cmkles@mail.ru",
        "name": "Катаев Сергей Михайлович",
        "phones": [
            "+7 (34672) 4-84-95"
        ],
        "position": "Генеральный директор"
    },
    "description": "Предприятие производит заготовку леса, раскряжевку хлыстов на сортименты, изготовление пиломатериала, в т.ч. экспортного. Произведённые экспортные пиломатериалы поставляются в Венгрию, Данию, Латвию, Грецию и др. В общей сложности на экспорт отправлено более 15 000 кубометров пиломатериалов. Пиломатериал производится транспортной и естественной влажности (по согласованию с потребителем) по ГОСТ 26002-83.",
    "email": "cmkles@mail.ru",
    "keywords": [
        "Лес",
        "Пиломатериалы",
        "Югра",
        "ХМАО"
    ],
    "name": "ООО \"Ун-Юган Лес\"",
    "phones": [
        "+7 (34672) 4-84-95"
    ],
    "presence": {},
    "website": "http://www.export-ugra.ru/export_in_ugra/search/",
    "wishlist": {
        "Европа": [
            "Австрия",
            "Албания",
            "Андорра",
            "Бельгия",
            "Болгария",
            "Босния и Герцеговина",
            "Великобритания",
            "Венгрия",
            "Германия",
            "Греция",
            "Дания",
            "Европейские сообщества",
            "Ирландия",
            "Исландия",
            "Испания",
            "Италия",
            "Кипр",
            "Латвия",
            "Литва",
            "Лихтенштейн",
            "Люксембург",
            "Македония (Республика Македония)",
            "Мальта",
            "Монако",
            "Нидерланды",
            "Норвегия",
            "Польша",
            "Португалия",
            "Румыния",
            "Сан-Марино",
            "Сербия",
            "Словакия",
            "Словения",
            "Турция",
            "Финляндия",
            "Франция",
            "Хорватия",
            "Черногория",
            "Чехия (Чешская Республика)",
            "Швейцария",
            "Швеция",
            "Эстония"
        ],
        "СНГ": [
            "Абхазия",
            "Азербайджан",
            "Армения",
            "Беларусь",
            "Казахстан",
            "Киргизия",
            "Молдавия",
            "Таджикистан",
            "Туркменистан",
            "Узбекистан",
            "Украина"
        ]
    }
}
