{
    "address": "644012, Омская область, Омск, пр. Королёва, 32, оф. 204",
    "business": {
        "age": "более 10 лет",
        "languages": [
            "Английский",
            "Немецкий"
        ],
        "size": "16-100",
        "turnover": "2-15",
        "type": "Дистрибутор, Производитель"
    },
    "contact": {
        "email": "kolos.omsk@mail.ru",
        "name": "Белавин Виталий Николавич",
        "phones": [
            "+7 (3812) 775-404"
        ],
        "position": "Директор"
    },
    "description": "Компания производит и поставляет хлебопекарное и кондитерское оборудование, как для больших хлебозаводов, так и для небольших пекарен, ресторанов, кафе, кондитерских, позволяющее выпекать до 500 кг хлебобулочных и кондитерских изделий за смену. Современная конструкция и дизайн выводят данные изделия в ряд лучших европейских образцов хлебопекарного и кондитерского оборудования.",
    "email": "kolos.omsk@mail.ru",
    "keywords": [
        "хлебопекарное оборудование ",
        "кондитерское оборудование",
        "тестоделитель",
        "хлебопекарные печи",
        "ротационные печи",
        "конвективные печи",
        "расстоечные шкафы",
        "комплексы для ошпарки ",
        "тестомесильные машины",
        "машины для раскатки теста",
        "машины для деления теста",
        "просеиватели муки"
    ],
    "name": "ООО \"Колос\"",
    "phones": [
        "+7 (3812) 775-404"
    ],
    "presence": {
        "СНГ": [
            "Казахстан"
        ]
    },
    "website": "http://www.kolos-omsk.com/",
    "wishlist": {
        "СНГ": [
            "Азербайджан",
            "Армения",
            "Беларусь",
            "Казахстан",
            "Киргизия",
            "Таджикистан",
            "Туркменистан"
        ]
    }
}
