{
    "address": "644119, Омская область, Омск, Улица Перелета, 18",
    "business": {
        "age": "3-5 лет",
        "languages": [
            "Английский",
            "Немецкий"
        ],
        "size": "16-100",
        "turnover": "2-15",
        "type": "Дистрибутор, Оптовая компания, Поставщик услуг, Производитель"
    },
    "contact": {
        "email": "amtrussia@gmail.com",
        "name": "Маричев Ян Сергеевич",
        "phones": [
            "+7(913)9711859"
        ],
        "position": "Директор"
    },
    "description": "AMT Electronics – российская компания, производящая оборудование для гитаристов и бас гитаристов по всему миру. Ищет дистрибьюторов музыкального оборудования, имеющих опыт деятельности и широкую сеть дилеров в своей стране, для увеличения присутствия на рынке.",
    "email": "info@amtelectronics.com",
    "keywords": [
        "оборудование для музыкантов",
        "оборудование для гитаристов",
        "музыкальное оборудование",
        "усилители ",
        "усилители для гитары",
        "гитарные усилители"
    ],
    "name": "ООО «АМТ Корпорация»",
    "phones": [
        "+7(913)9711859",
        "+7(3812)288832"
    ],
    "presence": {
        "Австралия и Океания": [
            "Австралия",
            "Новая Зеландия"
        ],
        "Азия": [
            "Вьетнам",
            "Израиль",
            "Индия",
            "Индонезия",
            "Камбоджа",
            "Китай",
            "Ливан",
            "Малайзия",
            "Сингапур",
            "Таиланд",
            "Филиппины",
            "Южная Корея",
            "Япония"
        ],
        "Африка": [
            "Египет"
        ],
        "Европа": [
            "Австрия",
            "Бельгия",
            "Великобритания",
            "Германия",
            "Дания",
            "Исландия",
            "Италия",
            "Люксембург",
            "Нидерланды",
            "Норвегия",
            "Польша",
            "Португалия",
            "Словакия",
            "Финляндия",
            "Франция",
            "Черногория",
            "Чехия (Чешская Республика)",
            "Швейцария",
            "Швеция"
        ],
        "СНГ": [
            "Беларусь",
            "Казахстан"
        ],
        "Центральная и Северная Америка": [
            "Виргинские острова",
            "США",
            "Канада"
        ],
        "Южная Америка": [
            "Аргентина",
            "Бразилия"
        ]
    },
    "website": "http://www.amtelectronics.com/",
    "wishlist": {
        "Австралия и Океания": [
            "Австралия",
            "Новая Зеландия",
            "Папуа-Новая Гвинея"
        ],
        "Азия": [
            "Афганистан",
            "Бангладеш",
            "Бахрейн",
            "Бруней-Даруссалам",
            "Бутан",
            "Вьетнам",
            "Грузия",
            "Израиль",
            "Индия",
            "Индонезия",
            "Иордания",
            "Ирак",
            "Иран",
            "Исламская Республика",
            "Йемен",
            "Камбоджа",
            "Катар",
            "Китай",
            "Кувейт",
            "Лаос",
            "Ливан",
            "Малайзия",
            "Мальдивы",
            "Монголия",
            "Мьянма",
            "Непал",
            "Объединенные Арабские Эмираты",
            "Оман",
            "Пакистан",
            "Саудовская Аравия",
            "Северная Корея",
            "Сингапур",
            "Таиланд",
            "Филиппины",
            "Шри-Ланка",
            "Южная Корея",
            "Япония"
        ],
        "Африка": [
            "Алжир",
            "Ботсвана",
            "Египет",
            "Ливийская Арабская Джамахирия",
            "Маврикий",
            "Марокко",
            "Сирийская Арабская Республика",
            "Чад",
            "Южный Судан"
        ],
        "Европа": [
            "Австрия",
            "Албания",
            "Андорра",
            "Бельгия",
            "Болгария",
            "Босния и Герцеговина",
            "Великобритания",
            "Венгрия",
            "Германия",
            "Греция",
            "Дания",
            "Европейские сообщества",
            "Ирландия",
            "Исландия",
            "Испания",
            "Италия",
            "Кипр",
            "Латвия",
            "Литва",
            "Лихтенштейн",
            "Люксембург",
            "Македония (Республика Македония)",
            "Мальта",
            "Монако",
            "Нидерланды",
            "Норвегия",
            "Польша",
            "Португалия",
            "Румыния",
            "Сан-Марино",
            "Сербия",
            "Словакия",
            "Словения",
            "Турция",
            "Финляндия",
            "Франция",
            "Хорватия",
            "Черногория",
            "Чехия (Чешская Республика)",
            "Швейцария",
            "Швеция",
            "Эстония"
        ],
        "СНГ": [
            "Абхазия",
            "Азербайджан",
            "Армения",
            "Беларусь",
            "Казахстан",
            "Киргизия",
            "Молдавия",
            "Таджикистан",
            "Туркменистан",
            "Узбекистан",
            "Украина"
        ],
        "Центральная и Северная Америка": [
            "Антигуа и Барбуда",
            "Аруба",
            "Виргинские острова",
            "Британские",
            "Виргинские острова",
            "США",
            "Гватемала",
            "Гондурас",
            "Канада",
            "Коста-Рика",
            "Куба",
            "Мексика",
            "Никарагуа",
            "Панама",
            "Соединенные Штаты Америки"
        ],
        "Южная Америка": [
            "Аргентина",
            "Боливия",
            "Бразилия",
            "Перу",
            "Фолклендские острова (Мальвинские)"
        ]
    }
}
