{
    "address": "644116, Омская область, Омск, Пушкинский тракт, 7",
    "business": {
        "age": "более 10 лет",
        "languages": [
            "Английский",
            "Немецкий"
        ],
        "size": "16-100",
        "turnover": "2-15",
        "type": "Дистрибутор, Оптовая компания, Производитель, Розничная сеть"
    },
    "contact": {
        "email": "212885@mail.ru",
        "name": "Непомнящих Наталья Викторовна",
        "phones": [
            "+7 (3812)21-28-85"
        ],
        "position": "Менеджер по продажам"
    },
    "description": "Компания «Власта ПРОМ» работает с 1992 года. За 20 лет работы увеличены ассортимент и объемы выпускаемой продукции, расширены производственные площади, сформирован сплоченный коллектив квалифицированных и грамотных специалистов. Компания специализируется на производстве металлоизделий, таких как электромонтажные шкафы и щиты, шкафы автоматики, медицинские шкафы, производственная мебель (верстаки, тумбы, стеллажи, столы производственные) и многие другие изделия.",
    "email": "212885@mail.ru",
    "keywords": [
        "металлоизделия",
        "изделия из металла",
        "электромонтажные шкафы ",
        "электромонтажные щиты",
        "шкафы автоматики",
        "щиты и шкафы",
        "профиля",
        "стойки кабельные",
        "изготовление мебели",
        "офисная мебель",
        "производственная мебель"
    ],
    "name": "ООО ПКФ \"Власта Пром\"",
    "phones": [
        "+7(3812)21-28-85",
        "+7(3812)21-28-86",
        "+7(3812)21-28-89"
    ],
    "presence": {
        "СНГ": [
            "Казахстан"
        ]
    },
    "website": "http://www.vlastaprom.ru/",
    "wishlist": {
        "СНГ": [
            "Абхазия",
            "Азербайджан",
            "Армения",
            "Беларусь",
            "Казахстан",
            "Киргизия",
            "Молдавия",
            "Таджикистан",
            "Туркменистан",
            "Узбекистан",
            "Украина"
        ]
    }
}
