{
    "address": "628100, Ханты-Мансийский АО, пгт. Октябрьское, Россия, Тюменская область, Ханты-Мансийский автономный округ-Югра, Октябрьский район, пгт. Октябрьское, ул. Ленина, д.22 а",
    "business": {
        "age": "1-2 года",
        "languages": [
            "Английский"
        ],
        "size": "1-15",
        "type": "Производитель"
    },
    "contact": {
        "email": "kodarybprom@mail.ru",
        "name": "Собянин Денис Русланович",
        "phones": [
            "8(34678)2-10-41"
        ],
        "position": "Генеральный директор"
    },
    "description": "Предприятие ООО «Кодарыбпром» занимается промышленной рыбодобычей, переработкой и реализацией рыбной продукцией. Основной продукцией является: мороженая рыба: муксун, нельма, стерлядь, сырок, щука, лещ, налим, язь, окунь, плотва (сорога), елец (мегдым); рыба холодного копчения: нельма, муксун, сырок, язь, лещ, щука, елец; рыба вяленная: елец (мегдым), плотва (сорога), лещ, язь, щука; рыба соленая: муксун, сырок, язь, лещ; филе рыбное мороженное из щуки; фарш рыбный мороженный из щуки.",
    "email": "kodarybprom@mail.ru",
    "keywords": [
        "Рыбодобыча",
        "переработка и реализация"
    ],
    "name": "ООО \"Кодарыбпром\"",
    "phones": [
        "8(34678)2-10-41"
    ],
    "presence": {},
    "website": "http://www.export-ugra.ru/export_in_ugra/search/",
    "wishlist": {
        "Европа": [
            "Австрия",
            "Албания",
            "Андорра",
            "Бельгия",
            "Болгария",
            "Босния и Герцеговина",
            "Великобритания",
            "Венгрия",
            "Германия",
            "Греция",
            "Дания",
            "Европейские сообщества",
            "Ирландия",
            "Исландия",
            "Испания",
            "Италия",
            "Кипр",
            "Латвия",
            "Литва",
            "Лихтенштейн",
            "Люксембург",
            "Македония (Республика Македония)",
            "Мальта",
            "Монако",
            "Нидерланды",
            "Норвегия",
            "Польша",
            "Португалия",
            "Румыния",
            "Сан-Марино",
            "Сербия",
            "Словакия",
            "Словения",
            "Турция",
            "Финляндия",
            "Франция",
            "Хорватия",
            "Черногория",
            "Чехия (Чешская Республика)",
            "Швейцария",
            "Швеция",
            "Эстония"
        ],
        "СНГ": [
            "Абхазия",
            "Азербайджан",
            "Армения",
            "Беларусь",
            "Казахстан",
            "Киргизия",
            "Молдавия",
            "Таджикистан",
            "Туркменистан",
            "Узбекистан",
            "Украина"
        ]
    }
}
