{
    "address": "610035, Кировская область, Киров, ул.Производственная, д. 33",
    "business": {
        "age": "более 10 лет",
        "languages": [
            "Английский",
            "Русский"
        ],
        "size": "251-1000",
        "turnover": "более 200",
        "type": "Производитель, Оптовая компания"
    },
    "contact": {
        "email": "kostylev.vs@region.sladsloboda.ru",
        "name": "Костылев Владимир",
        "phones": [
            "+7 (8332) 46-16-97"
        ],
        "position": "Директор"
    },
    "description": "Предлагаем продукцию ТМ \"Сладкая Слобода\" на экспорт. Ассортимент: сахарное, затяжное, сдобное печенье. Печенье с суфле и глазированное печенье, вафли.",
    "email": "kostylev.vs@region.sladsloboda.ru",
    "keywords": [
        "Печенье сахарное, затяжное, печенье с суфле, вафли, глазированное печенье"
    ],
    "name": "СладЭкс ООО",
    "phones": [
        "+7 (8332) 46-16-97"
    ],
    "presence": {
        "Европа": [
            "Германия",
            "Кипр"
        ],
        "СНГ": [
            "Азербайджан",
            "Беларусь",
            "Казахстан",
            "Киргизия",
            "Таджикистан",
            "Туркменистан"
        ],
        "Центральная и Северная Америка": [
            "Соединенные Штаты Америки"
        ]
    },
    "website": "http://www.sladsloboda.ru",
    "wishlist": {
        "Австралия и Океания": [
            "Австралия",
            "Новая Зеландия"
        ],
        "Азия": [
            "Афганистан",
            "Израиль",
            "Ирак",
            "Иран",
            "Исламская Республика",
            "Объединенные Арабские Эмираты",
            "Саудовская Аравия",
            "Сингапур",
            "Таиланд",
            "Япония"
        ],
        "Европа": [
            "Великобритания",
            "Венгрия",
            "Германия",
            "Италия",
            "Сербия"
        ],
        "СНГ": [
            "Абхазия",
            "Армения",
            "Молдавия",
            "Узбекистан"
        ],
        "Центральная и Северная Америка": [
            "Соединенные Штаты Америки"
        ],
        "Южная Америка": [
            "Аргентина",
            "Бразилия"
        ]
    }
}
