{
    "address": "414056, Астраханская область, Астрахань, ул. Латышева, 16 А",
    "business": {
        "age": "более 10 лет",
        "languages": [
            "Английский"
        ],
        "size": "101-250",
        "turnover": "2-15",
        "type": "Производитель, Оптовая компания"
    },
    "contact": {
        "email": "info@assz.ru",
        "name": "Швец Татьяна Васильевна",
        "phones": [
            "+7 (8512) 25-24-18 ,+7 (8512) 25-05-81,"
        ],
        "position": "Начальник коммерческого отдела"
    },
    "description": "Станкостроение, а именно выпуск металлорежущего, кузнечно-прессового, абразивно-отрезного, деревообрабатывающего оборудования. Кроме того, завод производит комплектующие к станкам, оснастку, оказывает услуги промышленного характера.",
    "email": "info@assz.ru",
    "keywords": [
        "Станкостроение, производство комплектующих к станкам и др. услуги"
    ],
    "name": "\"Астраханский станкостроительный завод\"",
    "phones": [
        "+7 (8512) 25-05-81",
        "+7 (8512) 25-24-18"
    ],
    "presence": {
        "Азия": [
            "Вьетнам",
            "Индия"
        ],
        "Европа": [
            "Турция",
            "Эстония"
        ],
        "СНГ": [
            "Азербайджан",
            "Молдавия",
            "Узбекистан",
            "Украина"
        ]
    },
    "website": "http://www.assz.ru",
    "wishlist": {
        "Европа": [
            "Австрия",
            "Албания",
            "Андорра",
            "Бельгия",
            "Болгария",
            "Босния и Герцеговина",
            "Великобритания",
            "Венгрия",
            "Германия",
            "Греция",
            "Дания",
            "Европейские сообщества",
            "Ирландия",
            "Исландия",
            "Испания",
            "Италия",
            "Кипр",
            "Латвия",
            "Литва",
            "Лихтенштейн",
            "Люксембург",
            "Македония (Республика Македония)",
            "Мальта",
            "Монако",
            "Нидерланды",
            "Норвегия",
            "Польша",
            "Португалия",
            "Румыния",
            "Сан-Марино",
            "Сербия",
            "Словакия",
            "Словения",
            "Турция",
            "Финляндия",
            "Франция",
            "Хорватия",
            "Черногория",
            "Чехия (Чешская Республика)",
            "Швейцария",
            "Швеция",
            "Эстония"
        ],
        "СНГ": [
            "Абхазия",
            "Азербайджан",
            "Армения",
            "Беларусь",
            "Казахстан",
            "Киргизия",
            "Молдавия",
            "Таджикистан",
            "Туркменистан",
            "Узбекистан",
            "Украина"
        ]
    }
}
