{
    "address": "414000, Астраханская область, Астрахань, Красная Набережная, 166",
    "business": {
        "age": "3-5 лет",
        "languages": [
            "Английский"
        ],
        "size": "16-100",
        "turnover": "менее 2",
        "type": "Производитель, Оптовая компания"
    },
    "contact": {
        "email": "region2@fishkray.ru",
        "name": "Букаева Дария Батаровна",
        "phones": [
            "+ 7 (8512) 24-23-23"
        ],
        "position": "Менеджер"
    },
    "description": "Компания производит продукцию под маркой «Рыбный край» с 2000 года. Все эти годы наша продукция занимает значительную долю на «домашнем», высококонкурентном рынке, что говорит о высоком уровне качества и как следствие, востребованности продукции конечным потребителем",
    "email": "info@fishkray.ru",
    "keywords": [
        "Производство рыбной продукции"
    ],
    "name": "ООО \"Рыбный край\"",
    "phones": [
        "+ 7 (8512) 24-23-23"
    ],
    "presence": {
        "СНГ": [
            "Беларусь",
            "Казахстан",
            "Украина"
        ]
    },
    "website": "http://www.fishkray.ru",
    "wishlist": {
        "Азия": [
            "Афганистан",
            "Бангладеш",
            "Бахрейн",
            "Бруней-Даруссалам",
            "Бутан",
            "Вьетнам",
            "Грузия",
            "Израиль",
            "Индия",
            "Индонезия",
            "Иордания",
            "Ирак",
            "Иран",
            "Исламская Республика",
            "Йемен",
            "Камбоджа",
            "Катар",
            "Китай",
            "Кувейт",
            "Лаос",
            "Ливан",
            "Малайзия",
            "Мальдивы",
            "Монголия",
            "Мьянма",
            "Непал",
            "Объединенные Арабские Эмираты",
            "Оман",
            "Пакистан",
            "Саудовская Аравия",
            "Северная Корея",
            "Сингапур",
            "Таиланд",
            "Филиппины",
            "Шри-Ланка",
            "Южная Корея",
            "Япония"
        ],
        "СНГ": [
            "Абхазия",
            "Азербайджан",
            "Армения",
            "Беларусь",
            "Казахстан",
            "Киргизия",
            "Молдавия",
            "Таджикистан",
            "Туркменистан",
            "Узбекистан",
            "Украина"
        ],
        "Центральная и Северная Америка": [
            "Соединенные Штаты Америки"
        ]
    }
}
