{
    "address": "414002, Астраханская область, Астрахань, ул. Рыбинская, д.15",
    "business": {
        "age": "более 10 лет",
        "languages": [
            "Английский"
        ],
        "size": "101-250",
        "type": "Производитель, Оптовая компания"
    },
    "contact": {
        "email": "Secretar_KHP@if-capital.ru",
        "name": "Цингиев Рамзан Байсарович",
        "phones": [
            "+7 (8512) 39-81-00"
        ],
        "position": "Генеральный директор"
    },
    "description": "ОАО «Комбинат хлебопродуктов» является крупнейшим производителем муки в Южном Федеральном Округе. Наша продукция производится из качественного специально отобранного зерна, произрастающего в экологически чистых регионах России: Ставропольской, Волгоградской, Саратовской и Воронежской области, Краснодарском крае и республике Калмыкия.Зерно проходит многоступенчатую систему контроля качества, что позволяет выпускать продукцию высокого качества.Вся продукция соответствует стандартам качества ГОСТ.",
    "email": "Secretar_KHP@if-capital.ru",
    "keywords": [
        "Производство муки",
        "Производство комбикормов"
    ],
    "name": "ОАО «Комбинат хлебопродуктов»",
    "phones": [
        "+7 (8512) 39-81-00"
    ],
    "presence": {},
    "website": "http://www.astkhp.com",
    "wishlist": {
        "Европа": [
            "Австрия",
            "Албания",
            "Андорра",
            "Бельгия",
            "Болгария",
            "Босния и Герцеговина",
            "Великобритания",
            "Венгрия",
            "Германия",
            "Греция",
            "Дания",
            "Европейские сообщества",
            "Ирландия",
            "Исландия",
            "Испания",
            "Италия",
            "Кипр",
            "Латвия",
            "Литва",
            "Лихтенштейн",
            "Люксембург",
            "Македония (Республика Македония)",
            "Мальта",
            "Монако",
            "Нидерланды",
            "Норвегия",
            "Польша",
            "Португалия",
            "Румыния",
            "Сан-Марино",
            "Сербия",
            "Словакия",
            "Словения",
            "Турция",
            "Финляндия",
            "Франция",
            "Хорватия",
            "Черногория",
            "Чехия (Чешская Республика)",
            "Швейцария",
            "Швеция",
            "Эстония"
        ],
        "СНГ": [
            "Абхазия",
            "Азербайджан",
            "Армения",
            "Беларусь",
            "Казахстан",
            "Киргизия",
            "Молдавия",
            "Таджикистан",
            "Туркменистан",
            "Узбекистан",
            "Украина"
        ]
    }
}
