{
    "address": "414004, Астраханская область, Астрахань, ул. Красная Набережная, 171",
    "business": {
        "age": "более 10 лет",
        "languages": [
            "Английский"
        ],
        "size": "101-250",
        "type": "Производитель"
    },
    "contact": {
        "email": "asvf30@mail.ru",
        "name": "Бычков Анатолий Андреевич",
        "phones": [
            "+7 (8512) 51-69-77"
        ],
        "position": "Генеральный директор"
    },
    "description": "Астраханская сетевязальная фабрика работает на рынке сетеснастных материалов с 1912 года. Фабрика является самым крупным производителем на Юге России, выпускающим наплава и поплавки различной плавучести из пенополиэтилена и пенополистирола, кроме того, из этих материалов изготавливаются круги спасательные с сертификатом Морского и Речного регистров, буи, кранцы, доски плавательные, коврики садовые, лодочные сидения, утеплительные плиты, плиты пенополиуретана.",
    "email": "asvf30@mail.ru",
    "keywords": [
        "Производство рыболовных принадлежностей"
    ],
    "name": "ОАО «Астраханская сетевязальная фабрика»",
    "phones": [
        "+7 (8512)51-69-77"
    ],
    "presence": {
        "Европа": [
            "Эстония"
        ],
        "СНГ": [
            "Азербайджан",
            "Казахстан",
            "Туркменистан",
            "Узбекистан",
            "Украина"
        ]
    },
    "website": "http://www.astra-nevod.ru",
    "wishlist": {
        "Европа": [
            "Австрия",
            "Албания",
            "Андорра",
            "Бельгия",
            "Болгария",
            "Босния и Герцеговина",
            "Великобритания",
            "Венгрия",
            "Германия",
            "Греция",
            "Дания",
            "Европейские сообщества",
            "Ирландия",
            "Исландия",
            "Испания",
            "Италия",
            "Кипр",
            "Латвия",
            "Литва",
            "Лихтенштейн",
            "Люксембург",
            "Македония (Республика Македония)",
            "Мальта",
            "Монако",
            "Нидерланды",
            "Норвегия",
            "Польша",
            "Португалия",
            "Румыния",
            "Сан-Марино",
            "Сербия",
            "Словакия",
            "Словения",
            "Турция",
            "Финляндия",
            "Франция",
            "Хорватия",
            "Черногория",
            "Чехия (Чешская Республика)",
            "Швейцария",
            "Швеция",
            "Эстония"
        ],
        "СНГ": [
            "Абхазия",
            "Азербайджан",
            "Армения",
            "Беларусь",
            "Казахстан",
            "Киргизия",
            "Молдавия",
            "Таджикистан",
            "Туркменистан",
            "Узбекистан",
            "Украина"
        ]
    }
}
