{
    "address": "644005, Омская область, Омск, Карбышева 28",
    "business": {
        "age": "6-10 лет",
        "languages": [
            "Английский"
        ],
        "size": "1-15",
        "type": "Производитель"
    },
    "contact": {
        "email": "kg82@bk.ru",
        "name": "Грязнов Кирилл Евгеньевич",
        "phones": [
            "+7 (3812)471-222"
        ],
        "position": "менеджер"
    },
    "description": "Сельское хозяйство, охота и предоставление услуг в этих областях - выращивание зерновых, технических и прочих сельскохозяйственных культур, не включенных в другие группировки - выращивание зерновых и зернобобовых культур.",
    "email": "support@querycom.ru",
    "keywords": [
        "Сельское хозяйство",
        "Охота и предоставление услуг в этих областях ",
        "Выращивание зерновых, технических и прочих сельскохозяйственных культур, не включенных в другие группировки ",
        "Выращивание зерновых и зернобобовых культур"
    ],
    "name": "ООО «Русское поле»",
    "phones": [
        "+7 (3812)471-222"
    ],
    "presence": {
        "СНГ": [
            "Казахстан"
        ]
    },
    "website": "http://www.ved55.ru/ru/exporter/24",
    "wishlist": {
        "Азия": [
            "Китай"
        ],
        "Европа": [
            "Австрия",
            "Албания",
            "Андорра",
            "Бельгия",
            "Болгария",
            "Босния и Герцеговина",
            "Великобритания",
            "Венгрия",
            "Германия",
            "Греция",
            "Дания",
            "Европейские сообщества",
            "Ирландия",
            "Исландия",
            "Испания",
            "Италия",
            "Кипр",
            "Латвия",
            "Литва",
            "Лихтенштейн",
            "Люксембург",
            "Македония (Республика Македония)",
            "Мальта",
            "Монако",
            "Нидерланды",
            "Норвегия",
            "Польша",
            "Португалия",
            "Румыния",
            "Сан-Марино",
            "Сербия",
            "Словакия",
            "Словения",
            "Турция",
            "Финляндия",
            "Франция",
            "Хорватия",
            "Черногория",
            "Чехия (Чешская Республика)",
            "Швейцария",
            "Швеция",
            "Эстония"
        ],
        "СНГ": [
            "Казахстан",
            "Киргизия",
            "Узбекистан"
        ]
    }
}
