{
    "address": "628206, Ханты-Мансийский АО, п.г.т. Мортка, Промышленная, д. 29",
    "business": {
        "age": "1-2 года",
        "languages": [
            "Английский"
        ],
        "size": "1-15",
        "type": "Производитель"
    },
    "contact": {
        "email": "sbit@zmdf.ru",
        "name": "Валеева Юлия Расимовна",
        "phones": [
            "8-904-871-56-62"
        ],
        "position": "Начальник отдела сбыта и маркетинга"
    },
    "description": "«Завод МДФ» это современный лесопромышленный комплекс. Первая продукция была произведена в 2005 году. «Завод МДФ» стал одним из первых в России предприятий по производству древесноволокнистых плит средней и высокой плотности, облицованных пленками на основе термореактивных полимеров плит. Завод имеет собственное лесозаготовительное подразделение и арендует участок лесного фонда в Междуреченском лесничестве. Это позволяет управлять процессом лесообеспечения на всех этапах и осуществлять вырубку древесины на принципах устойчивого лесопользования. rnДля придания плитам требуемых физико-механических свойств породный состав формируется с преобладанием березы. Плита МДФ производится сухим способом на линии фирмы «Dieffenbacher», оборудованной трехэтажным прессом периодического действия. В качестве связующего компонента используется смола КФ-МТ-15 и КФ-МТ-10. Облицовывание плит осуществляется на короткотактном прессе фирмы «Burkle». rnДля производства погонажных изделий используется современное оборудование фирм «Barberan», «Homag», «Holzma», «Weinig», «Paul». Для окончательной отделки применяются материалы фирм «Баушлинеман», «Имавель», «Интерпринт», «Эргомелт». rnКонтроль качества и безопасности продукции осуществляется аккредитованной лабораторией на протяжении всего технологического цикла производства. Продукция компании используется для производства мебели, дверей и погонажных изделий, а также строительных работ по отделке помещений",
    "email": "sbit@zmdf.ru",
    "keywords": [
        "МДФ",
        "Древесина",
        "Дерево",
        "Югра",
        "ХМАО"
    ],
    "name": "ООО \"Завод МДФ\"",
    "phones": [
        "8-904-871-56-62"
    ],
    "presence": {},
    "website": "http://www.zmdf.ru",
    "wishlist": {
        "Европа": [
            "Австрия",
            "Албания",
            "Андорра",
            "Бельгия",
            "Болгария",
            "Босния и Герцеговина",
            "Великобритания",
            "Венгрия",
            "Германия",
            "Греция",
            "Дания",
            "Европейские сообщества",
            "Ирландия",
            "Исландия",
            "Испания",
            "Италия",
            "Кипр",
            "Латвия",
            "Литва",
            "Лихтенштейн",
            "Люксембург",
            "Македония (Республика Македония)",
            "Мальта",
            "Монако",
            "Нидерланды",
            "Норвегия",
            "Польша",
            "Португалия",
            "Румыния",
            "Сан-Марино",
            "Сербия",
            "Словакия",
            "Словения",
            "Турция",
            "Финляндия",
            "Франция",
            "Хорватия",
            "Черногория",
            "Чехия (Чешская Республика)",
            "Швейцария",
            "Швеция",
            "Эстония"
        ],
        "СНГ": [
            "Абхазия",
            "Азербайджан",
            "Армения",
            "Беларусь",
            "Казахстан",
            "Киргизия",
            "Молдавия",
            "Таджикистан",
            "Туркменистан",
            "Узбекистан",
            "Украина"
        ]
    }
}
