{
    "address": "620089, Свердловская область, Екатеринбург, ул. Луганская 4, 1 этаж",
    "business": {
        "age": "более 10 лет",
        "languages": [
            "Английский"
        ],
        "size": "251-1000",
        "type": "Поставщик услуг"
    },
    "contact": {
        "email": "alexey.shamhun@instar.ru",
        "name": "Шамхан Алексей Михайлович",
        "phones": [
            "(343) 287-11-60"
        ],
        "position": "Коммерческий директор"
    },
    "description": "Группа компаний «Инстар»\n•\tОдин из крупнейших российских операторов на рынке логистических услуг\n•\tВсероссийский таможенный брокер (лицензия ФТС)\n•\tЧлен Уральской Торгово-Промышленной Палаты\n•\tЧлен Свердловского Областного Союза Промышленников и Предпринимателей.",
    "email": "svx@instar.ru",
    "keywords": [
        "Таможенное оформление",
        "Консультационные услуги",
        "Сертификация",
        "Авиаперевозки",
        "Автомобильные перевозки",
        "Железнодорожные перевозки",
        "Морские  перевозки",
        "Сборные грузы",
        "Доставка грузов",
        "Страхование грузов",
        "Складская логистика",
        "Дистрибуция"
    ],
    "name": "ООО \"Инстар Лоджистикс\"",
    "phones": [
        "+7(343) 287-11-60 (многоканальный)"
    ],
    "presence": {
        "Азия": [
            "Ирак",
            "Объединенные Арабские Эмираты"
        ],
        "Европа": [
            "Литва"
        ],
        "СНГ": [
            "Азербайджан",
            "Беларусь",
            "Казахстан",
            "Туркменистан",
            "Узбекистан",
            "Украина"
        ]
    },
    "website": "http://instar.ru",
    "wishlist": {
        "Австралия и Океания": [
            "Австралия",
            "Новая Зеландия",
            "Папуа-Новая Гвинея"
        ],
        "Азия": [
            "Афганистан",
            "Бангладеш",
            "Бахрейн",
            "Бруней-Даруссалам",
            "Бутан",
            "Вьетнам",
            "Грузия",
            "Израиль",
            "Индия",
            "Индонезия",
            "Иордания",
            "Ирак",
            "Иран",
            "Исламская Республика",
            "Йемен",
            "Камбоджа",
            "Катар",
            "Китай",
            "Кувейт",
            "Лаос",
            "Ливан",
            "Малайзия",
            "Мальдивы",
            "Монголия",
            "Мьянма",
            "Непал",
            "Объединенные Арабские Эмираты",
            "Оман",
            "Пакистан",
            "Саудовская Аравия",
            "Северная Корея",
            "Сингапур",
            "Таиланд",
            "Филиппины",
            "Шри-Ланка",
            "Южная Корея",
            "Япония"
        ],
        "Африка": [
            "Алжир",
            "Ботсвана",
            "Египет",
            "Ливийская Арабская Джамахирия",
            "Маврикий",
            "Марокко",
            "Сирийская Арабская Республика",
            "Чад",
            "Южный Судан"
        ],
        "Европа": [
            "Австрия",
            "Албания",
            "Андорра",
            "Бельгия",
            "Болгария",
            "Босния и Герцеговина",
            "Великобритания",
            "Венгрия",
            "Германия",
            "Греция",
            "Дания",
            "Европейские сообщества",
            "Ирландия",
            "Исландия",
            "Испания",
            "Италия",
            "Кипр",
            "Латвия",
            "Литва",
            "Лихтенштейн",
            "Люксембург",
            "Македония (Республика Македония)",
            "Мальта",
            "Монако",
            "Нидерланды",
            "Норвегия",
            "Польша",
            "Португалия",
            "Румыния",
            "Сан-Марино",
            "Сербия",
            "Словакия",
            "Словения",
            "Турция",
            "Финляндия",
            "Франция",
            "Хорватия",
            "Черногория",
            "Чехия (Чешская Республика)",
            "Швейцария",
            "Швеция",
            "Эстония"
        ],
        "СНГ": [
            "Абхазия",
            "Азербайджан",
            "Армения",
            "Беларусь",
            "Казахстан",
            "Киргизия",
            "Молдавия",
            "Таджикистан",
            "Туркменистан",
            "Узбекистан",
            "Украина"
        ],
        "Центральная и Северная Америка": [
            "Антигуа и Барбуда",
            "Аруба",
            "Виргинские острова",
            "Британские",
            "Виргинские острова",
            "США",
            "Гватемала",
            "Гондурас",
            "Канада",
            "Коста-Рика",
            "Куба",
            "Мексика",
            "Никарагуа",
            "Панама",
            "Соединенные Штаты Америки"
        ],
        "Южная Америка": [
            "Аргентина",
            "Боливия",
            "Бразилия",
            "Перу",
            "Фолклендские острова (Мальвинские)"
        ]
    }
}
