{
    "address": "171505, Тверская область, Кимры, ул. 50 лет ВЛКСМ, д. 11, лит. \"Б\"",
    "business": {
        "age": "более 10 лет",
        "languages": [
            "Английский",
            "Немецкий"
        ],
        "size": "более 1000",
        "turnover": "101-200",
        "type": "Производитель, Поставщик услуг"
    },
    "contact": {
        "email": "vmtsvetkov@smz-stanki.ru",
        "name": "Цветков Владимир Михайлович",
        "phones": [
            "+7(48236) 4-11-20"
        ],
        "position": "Советник начальника управления по маркетингу и продажам"
    },
    "description": "На производственных площадях ООО \"СМЗ\", занимающих более 120000 кв.м., осуществляется полный замкнутый производственный цикл: литейное, сварочное, заготовительное, механосборочное производство.\nСегодня завод является поставщиком эффективных комплексных решений, которые включают проектирование, производство, поставку, монтаж, инжиниринг и сервис оборудования для металлургии, Росавиакосмоса, атомной энергетики, оборонной, автомобильной, нефтеперерабатывающей и других отраслей промышленности.",
    "email": "post@smz-stanki.ru",
    "keywords": [
        "металлорежущее оборудование, токарные станки, фрезерные станки, ШВП, электрошпиндели, пятикоординатные обрабатывающие центры, установки гидроабразивной резки, раскройно-фрезерные станки с ЧПУ, пятикоординатный лазерный технологический комплекс с ЧПУ,специализированное и специальное оборудование, клепальное оборудование, оборудование для изготовления композиционных материалов, заготовительное оборудование, пресс клепальный, пресс обтяжной, станки намоточные, стан вальцовочный, станки профилегибочные и листогибочные."
    ],
    "name": "ООО Савеловский машиностроительный завод",
    "phones": [
        "+7(48236) 4-41-39"
    ],
    "presence": {
        "Азия": [
            "Индия"
        ],
        "Европа": [
            "Болгария"
        ],
        "СНГ": [
            "Беларусь",
            "Казахстан"
        ]
    },
    "website": "http://www.smz-stanki.ru",
    "wishlist": {
        "Азия": [
            "Грузия"
        ],
        "Европа": [
            "Австрия",
            "Албания",
            "Андорра",
            "Бельгия",
            "Болгария",
            "Босния и Герцеговина",
            "Великобритания",
            "Венгрия",
            "Германия",
            "Греция",
            "Дания",
            "Европейские сообщества",
            "Ирландия",
            "Исландия",
            "Испания",
            "Италия",
            "Кипр",
            "Латвия",
            "Литва",
            "Лихтенштейн",
            "Люксембург",
            "Македония (Республика Македония)",
            "Мальта",
            "Монако",
            "Нидерланды",
            "Норвегия",
            "Польша",
            "Португалия",
            "Румыния",
            "Сан-Марино",
            "Сербия",
            "Словакия",
            "Словения",
            "Турция",
            "Финляндия",
            "Франция",
            "Хорватия",
            "Черногория",
            "Чехия (Чешская Республика)",
            "Швейцария",
            "Швеция",
            "Эстония"
        ],
        "СНГ": [
            "Абхазия",
            "Азербайджан",
            "Армения",
            "Беларусь",
            "Казахстан",
            "Киргизия",
            "Молдавия",
            "Таджикистан",
            "Туркменистан",
            "Узбекистан",
            "Украина"
        ]
    }
}
