{
    "address": "606150, Нижегородская область, Вача, ул. Больничная, д.18",
    "business": {
        "age": "3-5 лет",
        "languages": [
            "Английский",
            "Арабский",
            "Испанский",
            "Итальянский",
            "Китайский",
            "Немецкий",
            "Португальский",
            "Французский"
        ],
        "size": "16-100",
        "type": "Производитель"
    },
    "contact": {
        "email": "niksavin1@mail.ru",
        "name": "Савин Никита Андреевич",
        "phones": [
            "+7-950-3791619"
        ],
        "position": "Менеджер"
    },
    "description": "ТД «МТМ»- единая сбытовая структура трех российских заводов, находящихся в Нижегородской области. Предприятия имеют многолетнюю историю и собственные брэнды,известные в России и за ее пределами. Аббревиатура «МТМ» расшифровывается, как «Металлист»(слесарно-монтажный инструмент, единственный российский  изготовитель напильников),«Труд» (производство кованных топоров и кувалд, абразивного инструмента,столовых приборов),«Митра» (канатно-веревочная продукция из натуральных и искусственных волокон).",
    "email": "redteem@aotrud.ru",
    "keywords": [
        "Труд, Металлист, Митра, МТМ, Вача, Столовые приборы, металлоизделия, ножи, профессиональные ножи, товары для пикника, мангалы, шампура, разделочные доски, кухонная утварь, инструмент, ручной инструмент, кувалды, канаты, веревки, лен, пенька, полиамид, полипропилен"
    ],
    "name": "Группа компаний \"МТМ\"",
    "phones": [
        "+7(83173)6-11-58,6-13-45"
    ],
    "presence": {
        "Азия": [
            "Грузия"
        ],
        "Европа": [
            "Австрия",
            "Албания",
            "Андорра",
            "Бельгия",
            "Болгария",
            "Босния и Герцеговина",
            "Великобритания",
            "Венгрия",
            "Германия",
            "Греция",
            "Дания",
            "Европейские сообщества",
            "Ирландия",
            "Исландия",
            "Испания",
            "Италия",
            "Кипр",
            "Латвия",
            "Литва",
            "Лихтенштейн",
            "Люксембург",
            "Македония (Республика Македония)",
            "Мальта",
            "Монако",
            "Нидерланды",
            "Норвегия",
            "Польша",
            "Португалия",
            "Румыния",
            "Сан-Марино",
            "Сербия",
            "Словакия",
            "Словения",
            "Турция",
            "Финляндия",
            "Франция",
            "Хорватия",
            "Черногория",
            "Чехия (Чешская Республика)",
            "Швейцария",
            "Швеция",
            "Эстония"
        ],
        "СНГ": [
            "Абхазия",
            "Азербайджан",
            "Армения",
            "Беларусь",
            "Казахстан",
            "Киргизия",
            "Молдавия",
            "Таджикистан",
            "Туркменистан",
            "Узбекистан",
            "Украина"
        ],
        "Центральная и Северная Америка": [
            "Виргинские острова",
            "США",
            "Канада",
            "Мексика",
            "Никарагуа",
            "Панама",
            "Соединенные Штаты Америки"
        ]
    },
    "website": "http://www.gk-mtm.ru/",
    "wishlist": {
        "Австралия и Океания": [
            "Австралия",
            "Новая Зеландия",
            "Папуа-Новая Гвинея"
        ],
        "Азия": [
            "Афганистан",
            "Бангладеш",
            "Бахрейн",
            "Бруней-Даруссалам",
            "Бутан",
            "Вьетнам",
            "Грузия",
            "Израиль",
            "Индия",
            "Индонезия",
            "Иордания",
            "Ирак",
            "Иран",
            "Исламская Республика",
            "Йемен",
            "Камбоджа",
            "Катар",
            "Китай",
            "Кувейт",
            "Лаос",
            "Ливан",
            "Малайзия",
            "Мальдивы",
            "Монголия",
            "Мьянма",
            "Непал",
            "Объединенные Арабские Эмираты",
            "Оман",
            "Пакистан",
            "Саудовская Аравия",
            "Северная Корея",
            "Сингапур",
            "Таиланд",
            "Филиппины",
            "Шри-Ланка",
            "Южная Корея",
            "Япония"
        ],
        "Южная Америка": [
            "Аргентина",
            "Боливия",
            "Бразилия",
            "Перу",
            "Фолклендские острова (Мальвинские)"
        ]
    }
}
