{
    "address": "628430, Ханты-Мансийский АО, с.Ульт-Ягун, Сургутский pайон, с.п.Ульт-Ягун, ул. Школьная д.1, кв. 104",
    "business": {
        "age": "6-10 лет",
        "languages": [
            "Английский"
        ],
        "size": "1-15",
        "turnover": "менее 2",
        "type": "Производитель"
    },
    "contact": {
        "email": "kfx.garmash@mail.ru",
        "name": "Гармаш Галина Николаевна",
        "phones": [
            "89128113339"
        ],
        "position": "Бухгалтер"
    },
    "description": "Крестьянское (фермерское) хозяйство «Деревенька» образовано в 2009 году.Основное направление - разведением, содержанием, переработкой, реализацией экологически чистого натурального охлажденного мяса (свинина, говядина, баранина, птица); колбасы 3 видов; сала соленого и копченого; молочной продукции (молоко, творог, сметана); яиц куриных «Диетических» высокого качества со сроком хранения до 7 дней.",
    "email": "kfx.garmash@mail.ru",
    "keywords": [
        "Мясо,",
        "молоко,",
        "творог",
        "Деревенька",
        "ХМАО",
        "Югра"
    ],
    "name": "ИП Гармаш Ю.Н.",
    "phones": [
        "89128113339"
    ],
    "presence": {},
    "website": "http://www.export-ugra.ru",
    "wishlist": {
        "Европа": [
            "Австрия",
            "Албания",
            "Андорра",
            "Бельгия",
            "Болгария",
            "Босния и Герцеговина",
            "Великобритания",
            "Венгрия",
            "Германия",
            "Греция",
            "Дания",
            "Европейские сообщества",
            "Ирландия",
            "Исландия",
            "Испания",
            "Италия",
            "Кипр",
            "Латвия",
            "Литва",
            "Лихтенштейн",
            "Люксембург",
            "Македония (Республика Македония)",
            "Мальта",
            "Монако",
            "Нидерланды",
            "Норвегия",
            "Польша",
            "Португалия",
            "Румыния",
            "Сан-Марино",
            "Сербия",
            "Словакия",
            "Словения",
            "Турция",
            "Финляндия",
            "Франция",
            "Хорватия",
            "Черногория",
            "Чехия (Чешская Республика)",
            "Швейцария",
            "Швеция",
            "Эстония"
        ],
        "СНГ": [
            "Абхазия",
            "Азербайджан",
            "Армения",
            "Беларусь",
            "Казахстан",
            "Киргизия",
            "Молдавия",
            "Таджикистан",
            "Туркменистан",
            "Узбекистан",
            "Украина"
        ]
    }
}
