{
    "address": "656922, Алтайский край, Барнаул, ул. Попова, 238",
    "business": {
        "age": "более 10 лет",
        "languages": [
            "Английский"
        ],
        "size": "101-250",
        "type": "Производитель, Поставщик услуг"
    },
    "contact": {
        "email": "koreneva@melservis.ru",
        "name": "Коренева Валерия",
        "phones": [
            "89059867888"
        ],
        "position": "менеджер проектов"
    },
    "description": "Компания \"МельСервис\" разрабатывает и изготавливает погрузочные комплексы КМПВ(А) для погрузки мешков и тарных грузов в железнодорожные вагоны и автомобили. Производит транспортирующее, фасовочное, конвейерное оборудование, комплектующие к ним. \nВыполняет монтажные и ремонтные работы оборудования предприятий хранения и переработки зерна.\nОсуществляет строительство мельниц, элеваторов, комбикормовых заводов и других объектов зернопереработки.",
    "email": "info@melservis.ru",
    "keywords": [
        "производство фасовочного оборудования",
        "производство погрузочного оборудования",
        "производство весового оборудования",
        "производство конвейерного оборудования",
        "мешкопогрузчики",
        "строительство мельниц",
        "строительство элеваторов",
        "строительство заводов по переработке круп"
    ],
    "name": "ООО \"МельСервис\"",
    "phones": [
        "+7 (3852) 290-009",
        "+7 (3852) 452-916"
    ],
    "presence": {
        "СНГ": [
            "Беларусь",
            "Казахстан",
            "Украина"
        ]
    },
    "website": "http://melservis.ru/",
    "wishlist": {
        "СНГ": [
            "Абхазия",
            "Азербайджан",
            "Армения",
            "Беларусь",
            "Казахстан",
            "Киргизия",
            "Молдавия",
            "Таджикистан",
            "Туркменистан",
            "Узбекистан",
            "Украина"
        ]
    }
}
