{
    "address": "614013, Пермский край, Пермь, ул.Профессора Дедюкина, 27",
    "business": {
        "age": "более 10 лет",
        "languages": [
            "Английский"
        ],
        "size": "16-100",
        "turnover": "менее 2",
        "type": "Консультант, Производитель, Розничная сеть"
    },
    "contact": {
        "email": "info@ekokataliz.ru",
        "name": "Фоминых Константин Николаевич",
        "phones": [
            "-919-4682155"
        ],
        "position": "Директор по развитию"
    },
    "description": "Компания \"ЭКАТ\" предлагает услуги по анализу вредных выбросов в атмосферу промышленных предприятий, разработку комплекса мер по локализации и нейтрализации вредных выбросов, а также поставку газоочистного оборудования собственного производства. Технологии, заложенные в основу газоочистного оборудования уникальны и защищены патентами. Работаем с новыми композиционными материалами.",
    "email": "info@ekokataliz.ru",
    "keywords": [
        "катализаторы, экология, очистка газов, очистка выбросов в атмосферу, озонаторы, термокатализ,"
    ],
    "name": "ЗАО \"ЭКАТ\"",
    "phones": [
        "-919-4682155"
    ],
    "presence": {},
    "website": "http://ekokataliz.ru/",
    "wishlist": {
        "Азия": [
            "Бахрейн",
            "Вьетнам",
            "Индия",
            "Кувейт",
            "Саудовская Аравия"
        ],
        "Европа": [
            "Болгария",
            "Венгрия",
            "Латвия",
            "Литва",
            "Македония (Республика Македония)",
            "Сербия",
            "Словакия",
            "Словения",
            "Хорватия",
            "Черногория",
            "Эстония"
        ],
        "СНГ": [
            "Азербайджан",
            "Беларусь",
            "Казахстан",
            "Киргизия",
            "Молдавия",
            "Таджикистан",
            "Туркменистан",
            "Узбекистан",
            "Украина"
        ],
        "Центральная и Северная Америка": [
            "Куба",
            "Мексика"
        ],
        "Южная Америка": [
            "Аргентина",
            "Бразилия",
            "Перу"
        ]
    }
}
