{
    "address": "249034, Калужская область, Обнинск, Гагарина 20А, офис 314",
    "business": {
        "age": "3-5 лет",
        "languages": [
            "Английский"
        ],
        "size": "1-15",
        "type": "Дистрибутор, Поставщик услуг"
    },
    "contact": {
        "email": "sorochinskij.s.d@gmail.com",
        "name": "Сорочинский Сергей",
        "phones": [
            "+7(499)7059459"
        ],
        "position": "генеральный директор"
    },
    "description": "Торгово-инжиниринговая компания, специализирующаяся на создании и реализации проектов систем освещения промышленных предприятий, уличных объектов, сферы ЖКХ, а также архитектурной подсветки зданий.  ООО «ЭкоХайтек» оперативно осуществит подбор светодиодных светильников, подготовит все необходимые расчеты и осуществит поставку светодиодных светильников по ценам производителей.\n\nБрошюра о компании: http://issuu.com/766670/docs/ecohitech",
    "email": "sorochinskij.s.d@gmail.com",
    "keywords": [
        "Светодиодное освещение",
        "системы управления освещением",
        "модернизация систем освещения"
    ],
    "name": "ООО \"ЭкоХайтек\"",
    "phones": [
        "+7(499)7059459"
    ],
    "presence": {},
    "website": "http://www.ecohi-tech.ru/",
    "wishlist": {
        "СНГ": [
            "Абхазия",
            "Азербайджан",
            "Армения",
            "Беларусь",
            "Казахстан",
            "Киргизия",
            "Молдавия",
            "Таджикистан",
            "Туркменистан",
            "Узбекистан",
            "Украина"
        ]
    }
}
