{
    "address": "414056, Астраханская область, Астрахань, ул. Бабефа, дом 23",
    "business": {
        "age": "1-2 года",
        "languages": [
            "Английский"
        ],
        "size": "16-100",
        "type": "Поставщик услуг"
    },
    "contact": {
        "email": "sidorov@chudobilet.ru",
        "name": "Сидоров Сергей",
        "phones": [
            "+7(8512) 31 73 10"
        ],
        "position": "РУКОВОДИТЕЛЬ ОТДЕЛА РАЗВИТИЯ"
    },
    "description": "Компания занимается созданием единой комплексной  on-line системы по продаже билетов «Чудобилет»\nБилетная система «Чудобилет» - уникальная система продажи билетов (программно-аппаратный комплекс), позволяющая на базе единой платформы автоматизировать кассы предприятий культурно-массовой и спортивно-зрелищной сферы: кинотеатров, театров, филармоний, музеев, клубов, стадионов и многих других.",
    "email": "sidorov@chudobilet.ru",
    "keywords": [
        "Инновации, продажа билетов, автоматизация, информационные технологии"
    ],
    "name": "ООО \"Рунетсервис\"",
    "phones": [
        "+7(8512) 31 73 10"
    ],
    "presence": {},
    "website": "http://www.chudobilet.ru/",
    "wishlist": {
        "СНГ": [
            "Абхазия",
            "Азербайджан",
            "Армения",
            "Беларусь",
            "Казахстан",
            "Киргизия",
            "Молдавия",
            "Таджикистан",
            "Туркменистан",
            "Узбекистан",
            "Украина"
        ]
    }
}
