{
    "address": "173526, Новгородская область, п. Панковка, Новгородский район, ул. Индустриальная, д. 18",
    "business": {
        "age": "3-5 лет",
        "languages": [
            "Английский",
            "русский"
        ],
        "size": "101-250",
        "turnover": "менее 2",
        "type": "Производитель"
    },
    "contact": {
        "email": "info@kompenz-elastic.ru",
        "name": "Муратшин Максим Халилович",
        "phones": [
            "+7 (8162) 64 53 34"
        ],
        "position": "Генеральный директор"
    },
    "description": "Российская компания «Компенз-Эластик» специализируется на производстве тканевых компенсаторов, быстросъемной изоляции (термочехлов)  для предприятий энергетики, перерабатывающих и добывающих отраслей промышленности.  Имеет ряд представительств в России и за рубежом.  Компания «Компенз-Эластик» осуществляет  регулярные экспортные поставки тканевых компенсаторов  в Германию, Австрию, Литву, Бахрейн, Малайзию, Францию, Италию.",
    "email": "info@kompenz-elastic.ru",
    "keywords": [
        "Тканевые компенсаторы",
        "Термочехлы",
        "Сальниковые набивки",
        "шнуры ШАОН",
        "стеклоленты",
        "Графитовый прокладочный материал ГРАФИНИТ"
    ],
    "name": "ООО \"Компенз-Эластик\"",
    "phones": [
        "+7 (8162) 64-53-34"
    ],
    "presence": {
        "Азия": [
            "Бахрейн",
            "Малайзия"
        ],
        "Европа": [
            "Австрия",
            "Германия",
            "Италия",
            "Литва",
            "Франция"
        ]
    },
    "website": "http://www.kompenz-elastic.ru",
    "wishlist": {
        "Азия": [
            "Афганистан",
            "Бангладеш",
            "Бахрейн",
            "Бруней-Даруссалам",
            "Бутан",
            "Вьетнам",
            "Грузия",
            "Израиль",
            "Индия",
            "Индонезия",
            "Иордания",
            "Ирак",
            "Иран",
            "Исламская Республика",
            "Йемен",
            "Камбоджа",
            "Катар",
            "Китай",
            "Кувейт",
            "Лаос",
            "Ливан",
            "Малайзия",
            "Мальдивы",
            "Монголия",
            "Мьянма",
            "Непал",
            "Объединенные Арабские Эмираты",
            "Оман",
            "Пакистан",
            "Саудовская Аравия",
            "Северная Корея",
            "Сингапур",
            "Таиланд",
            "Филиппины",
            "Шри-Ланка",
            "Южная Корея",
            "Япония"
        ],
        "Европа": [
            "Австрия",
            "Албания",
            "Андорра",
            "Бельгия",
            "Болгария",
            "Босния и Герцеговина",
            "Великобритания",
            "Венгрия",
            "Германия",
            "Греция",
            "Дания",
            "Европейские сообщества",
            "Ирландия",
            "Исландия",
            "Испания",
            "Италия",
            "Кипр",
            "Латвия",
            "Литва",
            "Лихтенштейн",
            "Люксембург",
            "Македония (Республика Македония)",
            "Мальта",
            "Монако",
            "Нидерланды",
            "Норвегия",
            "Польша",
            "Португалия",
            "Румыния",
            "Сан-Марино",
            "Сербия",
            "Словакия",
            "Словения",
            "Турция",
            "Финляндия",
            "Франция",
            "Хорватия",
            "Черногория",
            "Чехия (Чешская Республика)",
            "Швейцария",
            "Швеция",
            "Эстония"
        ]
    }
}
