{
    "address": "173526, Новгородская область, п. Панковка, Новгородский район, Индустриальная, д. 18",
    "business": {
        "age": "6-10 лет",
        "languages": [
            "Английский"
        ],
        "size": "16-100",
        "turnover": "менее 2",
        "type": "Производитель"
    },
    "contact": {
        "email": "info@mechanicz.ru",
        "name": "Ягофаров Ильяс Дамирович",
        "phones": [
            "+ 7 (8162) 64-53-70",
            "64-32-29"
        ],
        "position": "Генеральный директор"
    },
    "description": "Российская компания «Новарминвест»  специализируется на  изготовлении металлоконструкций, резервуаров, металлообработке. Производство оснащено современным высокоточным металлообрабатывающим оборудованием.\nЗаинтересованы в заключении экспортных контрактов на  поставку металлоконструкций общепромышленного назначения.",
    "email": "info@mechanicz.ru",
    "keywords": [
        "Изготовление металлоконструкций",
        "Изготовление резервуаров",
        "металлообработка"
    ],
    "name": "ООО \"Новарминвест\"",
    "phones": [
        "+7 (8162) 64-34-33",
        "64-32-29"
    ],
    "presence": {
        "Европа": [
            "Австрия",
            "Албания",
            "Андорра",
            "Бельгия",
            "Болгария",
            "Босния и Герцеговина",
            "Великобритания",
            "Венгрия",
            "Германия",
            "Греция",
            "Дания",
            "Европейские сообщества",
            "Ирландия",
            "Исландия",
            "Испания",
            "Италия",
            "Кипр",
            "Латвия",
            "Литва",
            "Лихтенштейн",
            "Люксембург",
            "Македония (Республика Македония)",
            "Мальта",
            "Монако",
            "Нидерланды",
            "Норвегия",
            "Польша",
            "Португалия",
            "Румыния",
            "Сан-Марино",
            "Сербия",
            "Словакия",
            "Словения",
            "Турция",
            "Финляндия",
            "Франция",
            "Хорватия",
            "Черногория",
            "Чехия (Чешская Республика)",
            "Швейцария",
            "Швеция",
            "Эстония"
        ],
        "СНГ": [
            "Абхазия",
            "Азербайджан",
            "Армения",
            "Беларусь",
            "Казахстан",
            "Киргизия",
            "Молдавия",
            "Таджикистан",
            "Туркменистан",
            "Узбекистан",
            "Украина"
        ]
    },
    "website": "http://www.mechanicz.ru/",
    "wishlist": {
        "Европа": [
            "Австрия",
            "Албания",
            "Андорра",
            "Бельгия",
            "Болгария",
            "Босния и Герцеговина",
            "Великобритания",
            "Венгрия",
            "Германия",
            "Греция",
            "Дания",
            "Европейские сообщества",
            "Ирландия",
            "Исландия",
            "Испания",
            "Италия",
            "Кипр",
            "Латвия",
            "Литва",
            "Лихтенштейн",
            "Люксембург",
            "Македония (Республика Македония)",
            "Мальта",
            "Монако",
            "Нидерланды",
            "Норвегия",
            "Польша",
            "Португалия",
            "Румыния",
            "Сан-Марино",
            "Сербия",
            "Словакия",
            "Словения",
            "Турция",
            "Финляндия",
            "Франция",
            "Хорватия",
            "Черногория",
            "Чехия (Чешская Республика)",
            "Швейцария",
            "Швеция",
            "Эстония"
        ],
        "СНГ": [
            "Абхазия",
            "Азербайджан",
            "Армения",
            "Беларусь",
            "Казахстан",
            "Киргизия",
            "Молдавия",
            "Таджикистан",
            "Туркменистан",
            "Узбекистан",
            "Украина"
        ]
    }
}
