{
    "address": "414004, Астраханская область, Астрахань, ул. 3-я Зеленгинская, 13",
    "business": {
        "age": "более 10 лет",
        "languages": [
            "Английский"
        ],
        "size": "1-15",
        "type": "Производитель, Оптовая компания"
    },
    "contact": {
        "email": "angelika_mebel@mail.ru",
        "name": "Головатская Анжелика Васильевна",
        "phones": [
            "(8512) 47-78-87"
        ],
        "position": "Ведущий специалист отдела сбыта"
    },
    "description": "Компания \"Астмебель\" основана в январе 1997 года. \nФабрика оснащена высококлассным оборудованием, в основном группы компаний «Homag» – линия раскроя обрабатывающим центром, присадочные, мембрана, вакуумный пресс и другие. \nПроизводственная площадка 6000 кв. метров. \nВ выставочном зале общей площадью 2800 кв.метров представлен широкий выбор всевозможной мебели – кухни, шкафы-купе, гардеробные, спальни, детские, офисная мебель, а также предметы интерьера из текстиля и керамики. \nВся мебель может изготавливаться по индивидуальным эскизам и размерам для каждого клиента. \nОткрыты свои представительства в Волгограде и Ростове-на-Дону. Планируются к открытию новые филиалы.",
    "email": "angelika_mebel@mail.ru",
    "keywords": [
        "Производство мебели"
    ],
    "name": "ООО ПКФ «Астмебель»",
    "phones": [
        "(8512) 47-78-87"
    ],
    "presence": {},
    "website": "http://astmebel.ru/",
    "wishlist": {
        "СНГ": [
            "Абхазия",
            "Азербайджан",
            "Армения",
            "Беларусь",
            "Казахстан",
            "Киргизия",
            "Молдавия",
            "Таджикистан",
            "Туркменистан",
            "Узбекистан",
            "Украина"
        ]
    }
}
