{
    "address": "414057, Астраханская область, Астрахань, ул. Краснодарская, д. 43",
    "business": {
        "age": "3-5 лет",
        "languages": [
            "Английский"
        ],
        "size": "16-100",
        "type": "Производитель, Оптовая компания"
    },
    "contact": {
        "email": "astrabrick@mail.ru",
        "name": "Сигаев Алексей Владимирович",
        "phones": [
            "+7 (8512) 45-43-00",
            "35-20-72"
        ],
        "position": "Директор"
    },
    "description": "Производство кирпича, блоков и других изделий осуществляется на установке «Кент» известной американской компании «Бессер». Для обеспечения максимально высокого качества готовой продукции, на заводе выполняется и контролируется весь технологический цикл производства, включая пропарку изделий в пропарочных камерах.",
    "email": "astrabrick@mail.ru",
    "keywords": [
        "Кирпичи",
        "Блоки",
        "Цокольные материалы ",
        "Облицовочные материалы"
    ],
    "name": "ООО \"АСТРАБРИК\"",
    "phones": [
        "+7 (8512) 45-43-00",
        "35-20-72"
    ],
    "presence": {},
    "website": "http://астрабрик.рф",
    "wishlist": {
        "СНГ": [
            "Абхазия",
            "Азербайджан",
            "Армения",
            "Беларусь",
            "Казахстан",
            "Киргизия",
            "Молдавия",
            "Таджикистан",
            "Туркменистан",
            "Узбекистан",
            "Украина"
        ]
    }
}
