{
    "address": "414056, Астраханская область, Астрахань, ул. А. Барбюса, 9",
    "business": {
        "age": "более 10 лет",
        "languages": [
            "Английский"
        ],
        "size": "1-15",
        "type": "Производитель, Розничная сеть, Оптовая компания"
    },
    "contact": {
        "email": "info@sk-micom.ru",
        "name": "Ревенок Сергей Иванович",
        "phones": [
            "+7 (8512) 61-03-82",
            "61-03-83",
            "61-03-84"
        ],
        "position": "Директор"
    },
    "description": "Основное направление деятельности  – оптовая и розничная продажа строительных материалов, производство строительных материалов.\nКомпания «Миком» имеет собственное производство всех видов строительных красок: органорастворимые (ПФ 115, ПФ 266, грунт ГФО21), водные краски (интерьерные, акрилатные, вододисперсионные краски, фасадная акрилатная краска, текстурная краска Sand Tex, акрилатные грунтовки, латексная шпаклевка).",
    "email": "info@sk-micom.ru",
    "keywords": [
        "Строительные материалы"
    ],
    "name": "ООО СК \"МИКОМ\"",
    "phones": [
        "+7 (8512) 61-03-82",
        "61-03-83",
        "61-03-84"
    ],
    "presence": {},
    "website": "http://www.sk-micom.ru/",
    "wishlist": {
        "СНГ": [
            "Абхазия",
            "Азербайджан",
            "Армения",
            "Беларусь",
            "Казахстан",
            "Киргизия",
            "Молдавия",
            "Таджикистан",
            "Туркменистан",
            "Узбекистан",
            "Украина"
        ]
    }
}
