{
    "address": "428000, Чувашская Республика, Чебоксары, ул. Ярославская, дом 76",
    "business": {
        "age": "более 10 лет",
        "languages": [
            "Английский",
            "Испанский"
        ],
        "size": "251-1000",
        "turnover": "более 200",
        "type": "Производитель"
    },
    "contact": {
        "email": "sespelauto@yandex.ru",
        "name": "Бакшаев Владимир Александрович",
        "phones": [
            "8(8352) 62-26-38"
        ],
        "position": "Директор"
    },
    "description": "Производитель и поставщик полуприцепной техники, цистерн: цементовозы, муковозы, бензовозы, нефтевозы, битумовозы, подъемные цистерны, водовозы, комбикормовозы, цистерны для химической продукции",
    "email": "sespelauto@yandex.ru",
    "keywords": [
        "полуприцепы",
        "цементовозы",
        "муковозы",
        "водовозы и т.д."
    ],
    "name": "ЗАО «Чебоксарское предприятие « Сеспель»",
    "phones": [
        "(8352) 62-26-38",
        "62-90-69",
        "62-81-63"
    ],
    "presence": {},
    "website": "http://www.sespel.com",
    "wishlist": {
        "Австралия и Океания": [
            "Австралия",
            "Новая Зеландия",
            "Папуа-Новая Гвинея"
        ],
        "Азия": [
            "Афганистан",
            "Бангладеш",
            "Бахрейн",
            "Бруней-Даруссалам",
            "Бутан",
            "Вьетнам",
            "Грузия",
            "Израиль",
            "Индия",
            "Индонезия",
            "Иордания",
            "Ирак",
            "Иран",
            "Исламская Республика",
            "Йемен",
            "Камбоджа",
            "Катар",
            "Китай",
            "Кувейт",
            "Лаос",
            "Ливан",
            "Малайзия",
            "Мальдивы",
            "Монголия",
            "Мьянма",
            "Непал",
            "Объединенные Арабские Эмираты",
            "Оман",
            "Пакистан",
            "Саудовская Аравия",
            "Северная Корея",
            "Сингапур",
            "Таиланд",
            "Филиппины",
            "Шри-Ланка",
            "Южная Корея",
            "Япония"
        ],
        "Африка": [
            "Алжир",
            "Ботсвана",
            "Египет",
            "Ливийская Арабская Джамахирия",
            "Маврикий",
            "Марокко",
            "Сирийская Арабская Республика",
            "Чад",
            "Южный Судан"
        ],
        "Европа": [
            "Австрия",
            "Албания",
            "Андорра",
            "Бельгия",
            "Болгария",
            "Босния и Герцеговина",
            "Великобритания",
            "Венгрия",
            "Германия",
            "Греция",
            "Дания",
            "Европейские сообщества",
            "Ирландия",
            "Исландия",
            "Испания",
            "Италия",
            "Кипр",
            "Латвия",
            "Литва",
            "Лихтенштейн",
            "Люксембург",
            "Македония (Республика Македония)",
            "Мальта",
            "Монако",
            "Нидерланды",
            "Норвегия",
            "Польша",
            "Португалия",
            "Румыния",
            "Сан-Марино",
            "Сербия",
            "Словакия",
            "Словения",
            "Турция",
            "Финляндия",
            "Франция",
            "Хорватия",
            "Черногория",
            "Чехия (Чешская Республика)",
            "Швейцария",
            "Швеция",
            "Эстония"
        ],
        "СНГ": [
            "Абхазия",
            "Азербайджан",
            "Армения",
            "Беларусь",
            "Казахстан",
            "Киргизия",
            "Молдавия",
            "Таджикистан",
            "Туркменистан",
            "Узбекистан",
            "Украина"
        ],
        "Центральная и Северная Америка": [
            "Антигуа и Барбуда",
            "Аруба",
            "Виргинские острова",
            "Британские",
            "Виргинские острова",
            "США",
            "Гватемала",
            "Гондурас",
            "Канада",
            "Коста-Рика",
            "Куба",
            "Мексика",
            "Никарагуа",
            "Панама",
            "Соединенные Штаты Америки"
        ],
        "Южная Америка": [
            "Аргентина",
            "Боливия",
            "Бразилия",
            "Перу",
            "Фолклендские острова (Мальвинские)"
        ]
    }
}
