{
    "address": "644010, Омская область, Омск, ул. Учебная, д. 90, офис 25",
    "business": {
        "age": "1-2 года",
        "languages": [
            "Английский"
        ],
        "size": "1-15",
        "turnover": "менее 2",
        "type": "Дистрибутор"
    },
    "contact": {},
    "description": "ООО «Торговый Дом «ГЕРМЕС» – динамично развивающаяся российская компания, занятая в сфере производства и продажи древесного угля из лиственных пород древесины.\nСтационарные ретортные печи, промышленного типа, позволяют производить 300 тонн высококачественного древесного угля в месяц и 3000 тонн в год. Производственные площади позволяют увеличить мощность предприятия и производить высококачественный уголь в объеме до 600 тонн в месяц",
    "email": "td.germes-omsk@mail.ru",
    "keywords": [
        "древесный уголь"
    ],
    "name": "ООО «Торговый Дом «ГЕРМЕС»",
    "phones": [
        "+7-913-603-05-56"
    ],
    "presence": {
        "СНГ": [
            "Казахстан"
        ]
    },
    "website": "http://ved55.ru/ru/exporter/227",
    "wishlist": {
        "Азия": [
            "Вьетнам",
            "Китай",
            "Южная Корея"
        ],
        "СНГ": [
            "Казахстан"
        ]
    }
}
