{
    "address": "414011, Астраханская область, Астрахань, ул. Славянская, 1/12",
    "business": {
        "age": "более 10 лет",
        "size": "1-15"
    },
    "contact": {},
    "description": "ООО «Астраханский консервный завод» основано в 2004 году. Изначально деятельность заключалась в изготовлении томатной пасты и майонеза. На сегодняшний день ООО «Астраханский консервный завод» также производит овощную икру, рыбные консервы в различной фасовке, фруктовые соки и овощные консервы.\nВыпускаемая продукция:",
    "email": "astkon@mail.ru",
    "keywords": [
        "консервы, консервирование овощей"
    ],
    "name": "ООО \"АСТРАХАНСКИЙ КОНСЕРВНЫЙ ЗАВОД\"",
    "phones": [
        "89171932139"
    ],
    "presence": {},
    "website": "http://www.ackpe.ru/cat/itemspage763.page",
    "wishlist": {
        "СНГ": [
            "Абхазия",
            "Азербайджан",
            "Армения",
            "Беларусь",
            "Казахстан",
            "Киргизия",
            "Молдавия",
            "Таджикистан",
            "Туркменистан",
            "Узбекистан",
            "Украина"
        ]
    }
}
