{
    "address": "644116, Омская область, Омск, ул. 24-я Северная, д. 188",
    "business": {
        "age": "более 10 лет",
        "languages": [
            "Английский"
        ],
        "size": "101-250",
        "type": "Производитель"
    },
    "contact": {},
    "description": "Швейная фирма «Лидер» была основана в 2002 году. С каждым годом ассортимент выпускаемой продукции расширяется. На данный момент мы производим более 200 моделей классической одежды для школы, с учетом тенденций моды. Реализуется продукция во все регионы России от Москвы до Южно-Сахалинска. Одежду для школьников мы производим из безопасных материалов, вся одежда сертифицирована. У нас есть отдельная коллекция для детей с нестандартными фигурами.",
    "email": "fashionlider@list.ru",
    "keywords": [
        "школьная форма",
        "одежда",
        "верхняя одежда",
        "блузы",
        "юбки",
        "костюмы"
    ],
    "name": "ООО «Швейная фирма «Лидер»",
    "phones": [
        "+7 (3812) 68-12-47"
    ],
    "presence": {
        "СНГ": [
            "Абхазия",
            "Азербайджан",
            "Армения",
            "Беларусь",
            "Казахстан",
            "Киргизия",
            "Молдавия",
            "Таджикистан",
            "Туркменистан",
            "Узбекистан",
            "Украина"
        ]
    },
    "website": "http://www.lideromsk.ru",
    "wishlist": {
        "СНГ": [
            "Абхазия",
            "Азербайджан",
            "Армения",
            "Беларусь",
            "Казахстан",
            "Киргизия",
            "Молдавия",
            "Таджикистан",
            "Туркменистан",
            "Узбекистан",
            "Украина"
        ]
    }
}
