{
    "address": "180000, Псковская область, Псков, Советская, д.60А",
    "business": {
        "age": "более 10 лет",
        "languages": [
            "Английский",
            "русский"
        ],
        "size": "1-15",
        "turnover": "менее 2",
        "type": "Поставщик услуг, Посредник"
    },
    "contact": {
        "email": "sales@trailtrans.ru",
        "name": "Кузнецов Сергей Владимирович",
        "phones": [
            "7-951-7599878"
        ],
        "position": "Директор по маркетингу"
    },
    "description": "Международные и внутрироссийские грузоперевозки любых грузов автомобильным, морским, авиационным и железнодорожным транспортом. Таможенный сервис, международная логистика, складские услуги, аутсорсинг ВЭД.",
    "email": "sales@trailtrans.ru",
    "keywords": [
        "международные перевозки",
        "грузоперевозки",
        "морские перевозки",
        "автоперевозки",
        "автомобильные перевозки",
        "авиаперевозки",
        "таможенное оформление"
    ],
    "name": "ООО \"ТРЕЙЛТРАНС ЛОГИСТИКС\"",
    "phones": [
        "+7 8112 793 672"
    ],
    "presence": {},
    "website": "http://www.trailtrans.ru",
    "wishlist": {
        "Австралия и Океания": [
            "Австралия"
        ],
        "Азия": [
            "Афганистан",
            "Бангладеш",
            "Бахрейн",
            "Бруней-Даруссалам",
            "Бутан",
            "Вьетнам",
            "Грузия",
            "Израиль",
            "Индия",
            "Индонезия",
            "Иордания",
            "Ирак",
            "Иран",
            "Исламская Республика",
            "Йемен",
            "Камбоджа",
            "Катар",
            "Китай",
            "Кувейт",
            "Лаос",
            "Ливан",
            "Малайзия",
            "Мальдивы",
            "Монголия",
            "Мьянма",
            "Непал",
            "Объединенные Арабские Эмираты",
            "Оман",
            "Пакистан",
            "Саудовская Аравия",
            "Северная Корея",
            "Сингапур",
            "Таиланд",
            "Филиппины",
            "Шри-Ланка",
            "Южная Корея",
            "Япония"
        ],
        "Африка": [
            "Египет",
            "Марокко"
        ],
        "Европа": [
            "Австрия",
            "Албания",
            "Андорра",
            "Бельгия",
            "Болгария",
            "Босния и Герцеговина",
            "Великобритания",
            "Венгрия",
            "Германия",
            "Греция",
            "Дания",
            "Европейские сообщества",
            "Ирландия",
            "Исландия",
            "Испания",
            "Италия",
            "Кипр",
            "Латвия",
            "Литва",
            "Лихтенштейн",
            "Люксембург",
            "Македония (Республика Македония)",
            "Мальта",
            "Монако",
            "Нидерланды",
            "Норвегия",
            "Польша",
            "Португалия",
            "Румыния",
            "Сан-Марино",
            "Сербия",
            "Словакия",
            "Словения",
            "Турция",
            "Финляндия",
            "Франция",
            "Хорватия",
            "Черногория",
            "Чехия (Чешская Республика)",
            "Швейцария",
            "Швеция",
            "Эстония"
        ],
        "СНГ": [
            "Абхазия",
            "Азербайджан",
            "Армения",
            "Беларусь",
            "Казахстан",
            "Киргизия",
            "Молдавия",
            "Таджикистан",
            "Туркменистан",
            "Узбекистан",
            "Украина"
        ],
        "Центральная и Северная Америка": [
            "Антигуа и Барбуда",
            "Аруба",
            "Виргинские острова",
            "Британские",
            "Виргинские острова",
            "США",
            "Гватемала",
            "Гондурас",
            "Канада",
            "Коста-Рика",
            "Куба",
            "Мексика",
            "Никарагуа",
            "Панама",
            "Соединенные Штаты Америки"
        ],
        "Южная Америка": [
            "Аргентина",
            "Боливия",
            "Бразилия",
            "Перу",
            "Фолклендские острова (Мальвинские)"
        ]
    }
}
