{
    "address": "660132, Красноярский край, Красноярск, ул. Урванцева, 21",
    "business": {
        "age": "3-5 лет",
        "languages": [
            "Английский"
        ],
        "size": "1-15",
        "type": "Производитель"
    },
    "contact": {
        "email": "business-textile@mail.ru",
        "name": "Кайль Валентина Федоровна",
        "phones": [
            "+7(391)277-27-64"
        ],
        "position": "директор"
    },
    "description": "Производство постельного и столового белья. Оформление заведений общественного питания, гостиничных номеров, банкетных залов и пр.",
    "email": "business-textile@mail.ru",
    "keywords": [
        "производство белья, постельное белье, оформление заведений"
    ],
    "name": "ООО «Бизнес текстиль»",
    "phones": [
        "+7(391)277-27-64"
    ],
    "presence": {},
    "website": "http://www.business-textile.blogspot.ru",
    "wishlist": {
        "Азия": [
            "Афганистан",
            "Бангладеш",
            "Бахрейн",
            "Бруней-Даруссалам",
            "Бутан",
            "Вьетнам",
            "Грузия",
            "Израиль",
            "Индия",
            "Индонезия",
            "Иордания",
            "Ирак",
            "Иран",
            "Исламская Республика",
            "Йемен",
            "Камбоджа",
            "Катар",
            "Китай",
            "Кувейт",
            "Лаос",
            "Ливан",
            "Малайзия",
            "Мальдивы",
            "Монголия",
            "Мьянма",
            "Непал",
            "Объединенные Арабские Эмираты",
            "Оман",
            "Пакистан",
            "Саудовская Аравия",
            "Северная Корея",
            "Сингапур",
            "Таиланд",
            "Филиппины",
            "Шри-Ланка",
            "Южная Корея",
            "Япония"
        ],
        "Европа": [
            "Австрия",
            "Албания",
            "Андорра",
            "Бельгия",
            "Болгария",
            "Босния и Герцеговина",
            "Великобритания",
            "Венгрия",
            "Германия",
            "Греция",
            "Дания",
            "Европейские сообщества",
            "Ирландия",
            "Исландия",
            "Испания",
            "Италия",
            "Кипр",
            "Латвия",
            "Литва",
            "Лихтенштейн",
            "Люксембург",
            "Македония (Республика Македония)",
            "Мальта",
            "Монако",
            "Нидерланды",
            "Норвегия",
            "Польша",
            "Португалия",
            "Румыния",
            "Сан-Марино",
            "Сербия",
            "Словакия",
            "Словения",
            "Турция",
            "Финляндия",
            "Франция",
            "Хорватия",
            "Черногория",
            "Чехия (Чешская Республика)",
            "Швейцария",
            "Швеция",
            "Эстония"
        ],
        "СНГ": [
            "Абхазия",
            "Азербайджан",
            "Армения",
            "Беларусь",
            "Казахстан",
            "Киргизия",
            "Молдавия",
            "Таджикистан",
            "Туркменистан",
            "Узбекистан",
            "Украина"
        ]
    }
}
