{
    "address": "350059, Краснодарский край, Краснодар, ул. Тихорецкая, 5",
    "business": {
        "age": "1-2 года",
        "size": "1-15"
    },
    "contact": {},
    "description": "Наш завод специализируется на выпуске технологического оборудования и запасных частей для предприятий перерабатывающей промышленности ( маслозаводы,масложиркомбинаты), а также изготавливает различное нестандартное оборудование и металлоконструкции, запасные части к общепромышленному оборудованию по заказам потребителей.rnСегодня ООО \"Завод Машиностроитель\" является основным производителем специального технологического оборудования и запасных частей к оборудованию маслозаводов юга России, Поволжья и Центрально-Чернозёмной полосы России, Южного Урала. Завод поставляет запчасти к оборудованию по переработке хлопковых семян и для предприятий Средней Азии.",
    "email": "k-man@yandex.ru",
    "keywords": [
        "Например:",
        "производство",
        "консалтинг",
        "производство напитков"
    ],
    "name": "OOO \"Завод \"Машиностроитель\"",
    "phones": [
        "7-961-5016491"
    ],
    "presence": {},
    "website": "http://www.ooomashinostroitel.biz",
    "wishlist": {}
}
