{
    "address": "111399, Москва, Нижний Сусальный переулок, д. 5, стр. 23, офис 2",
    "business": {
        "age": "3-5 лет",
        "languages": [
            "Английский"
        ],
        "size": "1-15",
        "turnover": "менее 2",
        "type": "Дистрибутор, Производитель, Поставщик услуг"
    },
    "contact": {
        "email": "aao@tekvel.com",
        "name": "Аношин Алексей Олегович",
        "phones": [
            "+7 495 133 02 74"
        ],
        "position": "Исполнительный директор"
    },
    "description": "Компания ООО «ТЕКВЕЛ» занимается разработкой и дистрибьюцией программного обеспечения и оборудования, которое может быть использовано в системах в соответствии со стандартом МЭК 61850. \nОбучающие семинары «ТЕКВЕЛ» по стандарту МЭК 61850 проводятся с 2010 года. Это единственные в России и в мире обучающие курсы, где участники, помимо теоретических знаний, получают практические навыки по настройке микропроцессорных устройств, а не просто становятся свидетелями демонстрации работы оборудования.",
    "email": "61850@tekvel.ru",
    "keywords": [
        "МЭК 61850",
        "61850",
        "Теквел",
        "Семинары МЭК 61850",
        "Семинары ЛВС"
    ],
    "name": "ООО \"Теквел\"",
    "phones": [
        "+7 495 133-02-74"
    ],
    "presence": {
        "Европа": [
            "Латвия"
        ],
        "СНГ": [
            "Беларусь",
            "Казахстан",
            "Молдавия",
            "Украина"
        ]
    },
    "website": "http://www.tekvel.ru/",
    "wishlist": {
        "Азия": [
            "Вьетнам",
            "Индия",
            "Пакистан",
            "Таиланд"
        ],
        "Европа": [
            "Бельгия",
            "Болгария",
            "Венгрия",
            "Испания",
            "Италия",
            "Польша",
            "Португалия",
            "Румыния",
            "Словакия",
            "Франция",
            "Чехия (Чешская Республика)"
        ],
        "Центральная и Северная Америка": [
            "Коста-Рика",
            "Мексика"
        ],
        "Южная Америка": [
            "Аргентина",
            "Бразилия"
        ]
    }
}
