{
    "address": "404103, Волгоградская область, Волжский, Автодорога №7, 25а",
    "business": {
        "age": "1-2 года",
        "size": "1-15"
    },
    "contact": {},
    "description": "Волжский шинный завод  (с 2004 года ОАО «Волтайр-Пром») со дня своего основания (1964 г.) и до настоящего времени остается одним из крупнейших российских предприятий, которое специализируется на выпуске сельскохозяйственных и индустриальных шин. rnВ настоящее время на предприятии производится более 100 типоразмеров шин, но основная специализация завода – сельскохозяйственные и индустриальные шины. Наш завод является единственным в России производителем широкопрофильных шин. Так же мы являемся уникальным в стране , кто использует технологию навивки протектора. rnОАО «Волтайр-Пром»  является одним из лидеров по экспорту продукции в страны дальнего и ближнего зарубежья, среди наших партнеров – мировые лидеры по производству сельскохозяйственной техники.rnС октября 2013 ОАО «Волтайр-Пром» входит в состав международной корпорации «TITAN TIRE Corporation»  , одно из направлений деятельности которой – производство сельскохозяйственных и индустриальных шин, где она занимает одно из лидирующих мест в мире. Консорциум, в состав которого входят Российский Фонд Прямых Инвестиций (РФПИ), Titan International, Inc. и фонд One Equity Partners, анонсировали закрытие сделки по привлечению инвестиций в акционерный капитал ОАО «Волтайр-Пром». rnИспользуя опыт и технологии компании «TITAN TIRE Corporation», ОАО «Волтайр-Пром» планирует наращивание темпов модернизации производства и расширение «линейки»  востребованных на внутреннем и внешнем рынках сельскохозяйственных и индустриальных шин.",
    "email": "shatalov_av@titancis.ru",
    "keywords": [
        "Например:",
        "производство",
        "консалтинг",
        "производство напитков"
    ],
    "name": "ОАО Волтайр-Пром",
    "phones": [
        "7-8443-240260"
    ],
    "presence": {},
    "website": "http://www.voltyre-prom.ru",
    "wishlist": {}
}
