{
    "address": "129075, Москва, Аргуновская дом 12-65",
    "business": {
        "age": "более 10 лет",
        "size": "1-15",
        "turnover": "менее 2",
        "type": "Производитель"
    },
    "contact": {
        "email": "alfa-tonus@mail.ru",
        "name": "Федотов Владимир Михайлович",
        "phones": [
            "89165241520"
        ],
        "position": "Директор"
    },
    "description": "ООО “Альфа-Поиск“ создано в апреле 1993 года, основной вид деятельности-разработка и производство  изделий медицинской техники и инструментария.Среди разработок пользующихся  наибольшим спросом можно отнести имеющий медицинский сертификат  массажёр вакуумный с постоянным или пульсирующим режимами “АЛЬФА-ТОНУС“,успешно используемый  в физиотерапии, косметологии,  спортивной медицине.",
    "email": "alfa-tonus@mail.ru",
    "keywords": [
        "производство массажёров вакуумных \"Альфа=Тонус\""
    ],
    "name": "ООО \"Альфа-Поиск\"",
    "phones": [
        "(495)615-88-97"
    ],
    "presence": {},
    "website": "http://www.alfa-poisk.narod.ru",
    "wishlist": {
        "СНГ": [
            "Абхазия",
            "Азербайджан",
            "Армения",
            "Беларусь",
            "Казахстан",
            "Киргизия",
            "Молдавия",
            "Таджикистан",
            "Туркменистан",
            "Узбекистан",
            "Украина"
        ]
    }
}
