{
    "address": "644120, Омская область, Омск, ул. А.А. Осипова, д. 81",
    "business": {
        "age": "6-10 лет",
        "languages": [
            "Английский",
            "Русский"
        ],
        "size": "16-100",
        "turnover": "2-15",
        "type": "Производитель, Поставщик услуг"
    },
    "contact": {
        "email": "a.sidorcheva@ortex.org",
        "name": "Штрайхер Гаврил Людвигович",
        "phones": [
            "8 (913) 625-37-76"
        ],
        "position": "Директор"
    },
    "description": "Российская компания, занимающаяся производством профиля ПВХ для оконных и дверных конструкций, ищет партнеров и дилеров в регионах РФ",
    "email": "a.sidorcheva@ortex.org",
    "keywords": [
        "профилm ПВХ"
    ],
    "name": "ООО \"Спутник\"",
    "phones": [
        "+7(913)625-37-76"
    ],
    "presence": {
        "Азия": [
            "Китай"
        ],
        "Европа": [
            "Австрия"
        ],
        "СНГ": [
            "Казахстан"
        ]
    },
    "website": "http://www.ortex.org",
    "wishlist": {
        "Азия": [
            "Афганистан",
            "Бангладеш",
            "Бахрейн",
            "Бруней-Даруссалам",
            "Бутан",
            "Вьетнам",
            "Грузия",
            "Израиль",
            "Индия",
            "Индонезия",
            "Иордания",
            "Ирак",
            "Иран",
            "Исламская Республика",
            "Йемен",
            "Камбоджа",
            "Катар",
            "Китай",
            "Кувейт",
            "Лаос",
            "Ливан",
            "Малайзия",
            "Мальдивы",
            "Монголия",
            "Мьянма",
            "Непал",
            "Объединенные Арабские Эмираты",
            "Оман",
            "Пакистан",
            "Саудовская Аравия",
            "Северная Корея",
            "Сингапур",
            "Таиланд",
            "Филиппины",
            "Шри-Ланка",
            "Южная Корея",
            "Япония"
        ],
        "Европа": [
            "Австрия",
            "Албания",
            "Андорра",
            "Бельгия",
            "Болгария",
            "Босния и Герцеговина",
            "Великобритания",
            "Венгрия",
            "Германия",
            "Греция",
            "Дания",
            "Европейские сообщества",
            "Ирландия",
            "Исландия",
            "Испания",
            "Италия",
            "Кипр",
            "Латвия",
            "Литва",
            "Лихтенштейн",
            "Люксембург",
            "Македония (Республика Македония)",
            "Мальта",
            "Монако",
            "Нидерланды",
            "Норвегия",
            "Польша",
            "Португалия",
            "Румыния",
            "Сан-Марино",
            "Сербия",
            "Словакия",
            "Словения",
            "Турция",
            "Финляндия",
            "Франция",
            "Хорватия",
            "Черногория",
            "Чехия (Чешская Республика)",
            "Швейцария",
            "Швеция",
            "Эстония"
        ],
        "СНГ": [
            "Абхазия",
            "Азербайджан",
            "Армения",
            "Беларусь",
            "Казахстан",
            "Киргизия",
            "Молдавия",
            "Таджикистан",
            "Туркменистан",
            "Узбекистан",
            "Украина"
        ],
        "Южная Америка": [
            "Аргентина",
            "Боливия",
            "Бразилия",
            "Перу",
            "Фолклендские острова (Мальвинские)"
        ]
    }
}
