{
    "address": "613982, Кировская область, Луза, ул. Дорожников, д.11",
    "business": {
        "age": "более 10 лет",
        "languages": [
            "Английский",
            "Немецкий"
        ],
        "size": "101-250",
        "type": "Производитель, Поставщик услуг, Оптовая компания"
    },
    "contact": {
        "email": "Slk243@bk.ru",
        "name": "Булдаков Виталий Анатольевич",
        "phones": [
            "7-922-9367080"
        ],
        "position": "Коммерческий директор"
    },
    "description": "\"СЛК\" открыта в 2001 году создано производство с циклом работ от лесозаготовки и до конечной обработки.База компании включает в себя: 60 едениц современной техники и 18 единиц профессионального оборудования. В том числе лесозаготовительные машины John Deerе, лесовозы Scania, КамАЗ, МАЗ, сушильные камеры Baschild, линия строжки Weinig, оборудование по производству пеллетов. Пеллеты прошли химический анализ в лаборатории SGS в Санкт - Петербурге и имеют все сертификаты европейского стандарта.",
    "email": "Slk243@bk.ru",
    "keywords": [
        "Доска пола",
        "Имитация Бруса",
        "Пиломатериал",
        "Евровагонка ",
        "Вагонка",
        "Обрезь",
        "Рейка",
        "Брусок",
        "Купить пиломатериал",
        "Продажа Пиломатериала в кирове",
        "Продажа пиломатериала в Москве",
        "Продажа пиломатериала в Краснодаре",
        "Сушка",
        "Строганный",
        "Погонаж",
        "Лесопиление",
        "Пилорама",
        "Экспорт ",
        "Азербайджан",
        "Вагонная отправка",
        "Сорт С",
        "Сорт А В",
        "Имитация",
        "Половая доска",
        "Доска для полов",
        "Доска для пола",
        "Доска",
        "Брус",
        "Брусок",
        "Стройка",
        "Дача",
        "Строительство",
        "Дома",
        "Срубы ",
        "Оциллиндрованное бревно",
        "Оциллиндровка в Кирове",
        "Оциллиндровка в Москве",
        "Распродажа доски",
        "Пиломатериал оптом ",
        "Низкая цена ",
        "Продажа доски в Москве",
        "Купить доску в Москве",
        "Купить доску в Краснодаре",
        "Купить доску в Самаре",
        "Оптовые продажи доски Россия",
        "Продажа доски за границу"
    ],
    "name": "ООО \"Северная лесная компания\"",
    "phones": [
        "7-922-9367080"
    ],
    "presence": {
        "СНГ": [
            "Азербайджан"
        ]
    },
    "website": "http://доска43.рф",
    "wishlist": {
        "Европа": [
            "Германия",
            "Ирландия",
            "Польша",
            "Сербия",
            "Финляндия",
            "Хорватия",
            "Чехия (Чешская Республика)",
            "Швейцария",
            "Швеция"
        ],
        "СНГ": [
            "Азербайджан",
            "Казахстан"
        ],
        "Южная Америка": [
            "Аргентина",
            "Бразилия"
        ]
    }
}
