{
    "address": "620041, Свердловская область, Екатеринбург, ул. Уральская, 3",
    "business": {
        "age": "более 10 лет",
        "languages": [
            "Английский",
            "Китайский"
        ],
        "size": "101-250",
        "turnover": "2-15",
        "type": "Производитель, Розничная сеть, Оптовая компания"
    },
    "contact": {
        "email": "salamatova@ringo.info",
        "name": "Саламатова Татьяна Сергеевна",
        "phones": [
            "+ 7 922 143 15 19"
        ],
        "position": "Руководитель отдела ВЭД"
    },
    "description": "«РИНГО» входит в десятку лучших ювелирных брендов России. За 22 года холдинг превратился в одного из лидеров российского ювелирного рынка, что подтверждается обширной клиентской базой и присутствием украшений ювелирной марки во всех крупных городах Российской Федерации.\nСегодня холдинг «РИНГО» объединяет в себе несколько площадок по производству ювелирных украшений, собственную дизайн- студию, торговый дом и сеть фирменных салонов.",
    "email": "info@ediamond.pro",
    "keywords": [
        "Ювелирные изделия",
        "Бриллианты",
        "Золото",
        "Драгоценные камни",
        "Дизайн",
        "Производство"
    ],
    "name": "ЗАО \"ПКФ \"ЭРМИ\" (ТМ РИНГО)",
    "phones": [
        "+7 343 380 76 76"
    ],
    "presence": {},
    "website": "http://www.ringo.info",
    "wishlist": {
        "Азия": [
            "Афганистан",
            "Бангладеш",
            "Бахрейн",
            "Бруней-Даруссалам",
            "Бутан",
            "Вьетнам",
            "Грузия",
            "Израиль",
            "Индия",
            "Индонезия",
            "Иордания",
            "Ирак",
            "Иран",
            "Исламская Республика",
            "Йемен",
            "Камбоджа",
            "Катар",
            "Китай",
            "Кувейт",
            "Лаос",
            "Ливан",
            "Малайзия",
            "Мальдивы",
            "Монголия",
            "Мьянма",
            "Непал",
            "Объединенные Арабские Эмираты",
            "Оман",
            "Пакистан",
            "Саудовская Аравия",
            "Северная Корея",
            "Сингапур",
            "Таиланд",
            "Филиппины",
            "Шри-Ланка",
            "Южная Корея",
            "Япония"
        ],
        "Центральная и Северная Америка": [
            "Антигуа и Барбуда",
            "Аруба",
            "Виргинские острова",
            "Британские",
            "Виргинские острова",
            "США",
            "Гватемала",
            "Гондурас",
            "Канада",
            "Коста-Рика",
            "Куба",
            "Мексика",
            "Никарагуа",
            "Панама",
            "Соединенные Штаты Америки"
        ]
    }
}
