{
    "address": "640002, Курганская область, Курган, ул.Гоголя, 42",
    "business": {
        "age": "1-2 года",
        "languages": [
            "Английский",
            "Русский"
        ],
        "size": "1-15",
        "turnover": "менее 2",
        "type": "Производитель"
    },
    "contact": {
        "email": "svdkgn@gmail.com",
        "name": "Суханов Дмитрий Борисович",
        "phones": [
            "7-922-5658999"
        ],
        "position": "директор"
    },
    "description": "Производство декоративных изделий из пластика, дерева, акрила. Оформление объемными буквами и словами различных мероприятий, авторский декор интерьера.",
    "email": "svdkgn@gmail.com",
    "keywords": [
        "Производство, декор, интерьер"
    ],
    "name": "ООО \"Буквилль\"",
    "phones": [
        "7-922-5658999"
    ],
    "presence": {},
    "website": "http://vk.com/bukvill",
    "wishlist": {
        "СНГ": [
            "Абхазия",
            "Азербайджан",
            "Армения",
            "Беларусь",
            "Казахстан",
            "Киргизия",
            "Молдавия",
            "Таджикистан",
            "Туркменистан",
            "Узбекистан",
            "Украина"
        ]
    }
}
