{
    "address": "414041, Астраханская область, Астрахань, улица КУЛИКОВА, 56, 2, 104",
    "business": {
        "age": "1-2 года",
        "size": "1-15"
    },
    "contact": {},
    "description": "Производство систем анализа влажности орошаемых полей «Смартагро»",
    "email": "ushanov.artyom@gmail.com",
    "keywords": [
        "анализ влажности орошаемых полей"
    ],
    "name": "ООО НПП «КИБЕРСИСТЕМС»",
    "phones": [
        "89608514583"
    ],
    "presence": {},
    "website": "http://www.ackpe.ru/cat/itemspage797.page",
    "wishlist": {
        "СНГ": [
            "Абхазия",
            "Азербайджан",
            "Армения",
            "Беларусь",
            "Казахстан",
            "Киргизия",
            "Молдавия",
            "Таджикистан",
            "Туркменистан",
            "Узбекистан",
            "Украина"
        ]
    }
}
