{
    "address": "603028, Нижегородская область, Нижний Новгород, Московское шоссе, 80",
    "business": {
        "age": "6-10 лет",
        "languages": [
            "Английский"
        ],
        "size": "1-15",
        "turnover": "менее 2",
        "type": "Консультант, Поставщик услуг, Посредник"
    },
    "contact": {
        "email": "khasanov@continent.net",
        "name": "Хасанов Ринат Рашитович",
        "phones": [
            "+7 (831) 279-15-81"
        ],
        "position": "Директор Нижегородского филиала"
    },
    "description": "«Континент» предоставляет комплексный таможенный сервис и логистические услуги. Профильные подразделения, входящие в ГК «Континент», готовы предоставить консалтинговую, юридическую, логистическую поддержку предприятиям и организациям: услуги таможенного брокера, таможенное оформление на любом посту РФ, экспедирование грузов, транспортная логистика, СВХ,  обеспечение грузоперевозок из-за рубежа, ВЭД-аутсорсинг и др.",
    "email": "nn@continent.net",
    "keywords": [
        "Таможенное оформление",
        "Экспортно-импортные операции",
        "Логистика, СВХ",
        "Сертификация",
        "Перевозка грузов",
        "Юридические услуги"
    ],
    "name": "ООО \"Таможенное агентство \"Континет\"",
    "phones": [
        "+7 (831) 279-15-81"
    ],
    "presence": {
        "Европа": [
            "Австрия",
            "Албания",
            "Андорра",
            "Бельгия",
            "Болгария",
            "Босния и Герцеговина",
            "Великобритания",
            "Венгрия",
            "Германия",
            "Греция",
            "Дания",
            "Европейские сообщества",
            "Ирландия",
            "Исландия",
            "Испания",
            "Италия",
            "Кипр",
            "Латвия",
            "Литва",
            "Лихтенштейн",
            "Люксембург",
            "Македония (Республика Македония)",
            "Мальта",
            "Монако",
            "Нидерланды",
            "Норвегия",
            "Польша",
            "Португалия",
            "Румыния",
            "Сан-Марино",
            "Сербия",
            "Словакия",
            "Словения",
            "Турция",
            "Финляндия",
            "Франция",
            "Хорватия",
            "Черногория",
            "Чехия (Чешская Республика)",
            "Швейцария",
            "Швеция",
            "Эстония"
        ],
        "СНГ": [
            "Абхазия",
            "Азербайджан",
            "Армения",
            "Беларусь",
            "Казахстан",
            "Киргизия",
            "Молдавия",
            "Таджикистан",
            "Туркменистан",
            "Узбекистан",
            "Украина"
        ]
    },
    "website": "http://www.continent.net",
    "wishlist": {
        "Азия": [
            "Вьетнам",
            "Индия",
            "Китай"
        ],
        "Европа": [
            "Австрия",
            "Албания",
            "Андорра",
            "Бельгия",
            "Болгария",
            "Босния и Герцеговина",
            "Великобритания",
            "Венгрия",
            "Германия",
            "Греция",
            "Дания",
            "Европейские сообщества",
            "Ирландия",
            "Исландия",
            "Испания",
            "Италия",
            "Кипр",
            "Латвия",
            "Литва",
            "Лихтенштейн",
            "Люксембург",
            "Македония (Республика Македония)",
            "Мальта",
            "Монако",
            "Нидерланды",
            "Норвегия",
            "Польша",
            "Португалия",
            "Румыния",
            "Сан-Марино",
            "Сербия",
            "Словакия",
            "Словения",
            "Турция",
            "Финляндия",
            "Франция",
            "Хорватия",
            "Черногория",
            "Чехия (Чешская Республика)",
            "Швейцария",
            "Швеция",
            "Эстония"
        ]
    }
}
