{
    "address": "640014, Курганская область, Курган, ул.Промышленная, 11",
    "business": {
        "age": "1-2 года",
        "languages": [
            "Английский",
            "Русский"
        ],
        "size": "1-15",
        "turnover": "менее 2",
        "type": "Производитель"
    },
    "contact": {
        "email": "exportdselement@gmail.com",
        "name": "Макарова Юлия Андреевна",
        "phones": [
            "7-912-8336951"
        ],
        "position": "заместитель директора по ВЭД"
    },
    "description": "Компания “ДорСтройЭлемент” за последние 2 года заняла прочную позицию на рынке Курганской области и соседних регионов УРФО. Мы производим и реализуем свою продукцию частным лицам, компаниям, занимающихся благоустройством, государственным учреждениям. Современное оборудование позволяет компании изготавливать высококачественную продукцию, ассортимент которой периодически расширяется. В нашем ассортименте традиционные формы такие как: брусчатка и шестигранник, четырех цветовых решений! Мы производим дорожные бордюры, садовые и прикромочные лотки. Для оптовых клиентов предусмотрены индивидуальные условия!",
    "email": "exportdselement@gmail.com",
    "keywords": [
        "Производство, дорожное строительство, плитка"
    ],
    "name": "ООО \"ДорСтройЭлемент\"",
    "phones": [
        "7-912-8336951"
    ],
    "presence": {},
    "website": "http://www.плитка45.рф",
    "wishlist": {
        "Азия": [
            "Афганистан",
            "Бангладеш",
            "Бахрейн",
            "Бруней-Даруссалам",
            "Бутан",
            "Вьетнам",
            "Грузия",
            "Израиль",
            "Индия",
            "Индонезия",
            "Иордания",
            "Ирак",
            "Иран",
            "Исламская Республика",
            "Йемен",
            "Камбоджа",
            "Катар",
            "Китай",
            "Кувейт",
            "Лаос",
            "Ливан",
            "Малайзия",
            "Мальдивы",
            "Монголия",
            "Мьянма",
            "Непал",
            "Объединенные Арабские Эмираты",
            "Оман",
            "Пакистан",
            "Саудовская Аравия",
            "Северная Корея",
            "Сингапур",
            "Таиланд",
            "Филиппины",
            "Шри-Ланка",
            "Южная Корея",
            "Япония"
        ],
        "СНГ": [
            "Абхазия",
            "Азербайджан",
            "Армения",
            "Беларусь",
            "Казахстан",
            "Киргизия",
            "Молдавия",
            "Таджикистан",
            "Туркменистан",
            "Узбекистан",
            "Украина"
        ]
    }
}
