{
    "address": "249910, Калужская область, г.Юхнов, ул.Генерала М.Д.Попкова,д2",
    "business": {
        "age": "1-2 года",
        "languages": [
            "Английский"
        ],
        "size": "1-15",
        "turnover": "менее 2",
        "type": "Производитель"
    },
    "contact": {
        "email": "politekseco@mail.ru",
        "name": "Трофименко Дмитрий Юрьевич",
        "phones": [
            "7-903-2037003",
            "8 (926) 271-59-49"
        ],
        "position": "коммерческий директор"
    },
    "description": "Динамично развивающаяся производственная фирма ООО «ПОЛИТЕКС-ЭКО» из России, ищет взаимовыгодные контакты среди коммерческих структур с целью реализации собственно - изготавливаемой продукции как для укрепления грунта на склонах и откосах рельефной местности, так и для декорирования ландшафта и фасадов.  Можем  изготавливать под заказ разные типы полимерных изделий (георешётку, подвесные вертикальные цветочницы, многоярусные цветники).",
    "email": "politekseco@mail.ru",
    "keywords": [
        "георешётка,анкера,цветник,клумба,бордюрная лента"
    ],
    "name": "ООО \"ПОЛИТЕКС-ЭКО\"",
    "phones": [
        "7-903-2037003",
        "8 (926) 271-59-49"
    ],
    "presence": {
        "СНГ": [
            "Казахстан"
        ]
    },
    "website": "http://www.politeks-eco.ru",
    "wishlist": {
        "Азия": [
            "Бангладеш",
            "Бахрейн",
            "Бруней-Даруссалам",
            "Грузия",
            "Израиль",
            "Объединенные Арабские Эмираты",
            "Саудовская Аравия"
        ],
        "Европа": [
            "Австрия",
            "Албания",
            "Андорра",
            "Бельгия",
            "Болгария",
            "Босния и Герцеговина",
            "Великобритания",
            "Венгрия",
            "Германия",
            "Греция",
            "Дания",
            "Европейские сообщества",
            "Ирландия",
            "Исландия",
            "Испания",
            "Италия",
            "Кипр",
            "Латвия",
            "Литва",
            "Лихтенштейн",
            "Люксембург",
            "Македония (Республика Македония)",
            "Мальта",
            "Монако",
            "Нидерланды",
            "Норвегия",
            "Польша",
            "Португалия",
            "Румыния",
            "Сан-Марино",
            "Сербия",
            "Словакия",
            "Словения",
            "Турция",
            "Финляндия",
            "Франция",
            "Хорватия",
            "Черногория",
            "Чехия (Чешская Республика)",
            "Швейцария",
            "Швеция",
            "Эстония"
        ],
        "СНГ": [
            "Абхазия",
            "Азербайджан",
            "Армения",
            "Беларусь",
            "Казахстан",
            "Киргизия",
            "Молдавия",
            "Таджикистан",
            "Туркменистан",
            "Узбекистан",
            "Украина"
        ]
    }
}
