{
    "address": "214031, Смоленская область, Смоленск, ул. Попова, д. 40/2",
    "business": {
        "age": "6-10 лет",
        "languages": [
            "Английский",
            "Испанский",
            "Немецкий",
            "Французский"
        ],
        "size": "16-100",
        "turnover": "менее 2",
        "type": "Производитель"
    },
    "contact": {
        "email": "sale@laserwar.ru",
        "name": "Котляр Андрей Павлович",
        "phones": [
            "+7-910-115-74-35"
        ],
        "position": "Руководитель коммерческого отдела"
    },
    "description": "Разработка и производство лазертаг-оборудования.",
    "email": "info@laserwar.ru",
    "keywords": [
        "разработка",
        "производство",
        "реализация",
        "лазертаг",
        "кибертаг",
        "лазервар"
    ],
    "name": "ООО \"ЛАЗЕРТАГ\"",
    "phones": [
        "8-800-555-95-90",
        "+7(4812)377-000",
        "+7(951)694-01-00"
    ],
    "presence": {
        "Австралия и Океания": [
            "Новая Зеландия"
        ],
        "Азия": [
            "Грузия",
            "Израиль",
            "Индонезия",
            "Шри-Ланка"
        ],
        "Европа": [
            "Болгария",
            "Великобритания",
            "Германия",
            "Дания",
            "Ирландия",
            "Испания",
            "Латвия",
            "Литва",
            "Мальта",
            "Нидерланды",
            "Польша",
            "Словакия",
            "Франция",
            "Швейцария",
            "Эстония"
        ],
        "СНГ": [
            "Азербайджан",
            "Беларусь",
            "Казахстан",
            "Узбекистан",
            "Украина"
        ],
        "Центральная и Северная Америка": [
            "Канада",
            "Соединенные Штаты Америки"
        ],
        "Южная Америка": [
            "Бразилия"
        ]
    },
    "website": "http://www.laserwar.ru",
    "wishlist": {
        "Австралия и Океания": [
            "Австралия",
            "Новая Зеландия",
            "Папуа-Новая Гвинея"
        ],
        "Азия": [
            "Афганистан",
            "Бангладеш",
            "Бахрейн",
            "Бруней-Даруссалам",
            "Бутан",
            "Вьетнам",
            "Грузия",
            "Израиль",
            "Индия",
            "Индонезия",
            "Иордания",
            "Ирак",
            "Иран",
            "Исламская Республика",
            "Йемен",
            "Камбоджа",
            "Катар",
            "Китай",
            "Кувейт",
            "Лаос",
            "Ливан",
            "Малайзия",
            "Мальдивы",
            "Монголия",
            "Мьянма",
            "Непал",
            "Объединенные Арабские Эмираты",
            "Оман",
            "Пакистан",
            "Саудовская Аравия",
            "Северная Корея",
            "Сингапур",
            "Таиланд",
            "Филиппины",
            "Шри-Ланка",
            "Южная Корея",
            "Япония"
        ],
        "Африка": [
            "Алжир",
            "Ботсвана",
            "Египет",
            "Ливийская Арабская Джамахирия",
            "Маврикий",
            "Марокко",
            "Сирийская Арабская Республика",
            "Чад",
            "Южный Судан"
        ],
        "Европа": [
            "Австрия",
            "Албания",
            "Андорра",
            "Бельгия",
            "Болгария",
            "Босния и Герцеговина",
            "Великобритания",
            "Венгрия",
            "Германия",
            "Греция",
            "Дания",
            "Европейские сообщества",
            "Ирландия",
            "Исландия",
            "Испания",
            "Италия",
            "Кипр",
            "Латвия",
            "Литва",
            "Лихтенштейн",
            "Люксембург",
            "Македония (Республика Македония)",
            "Мальта",
            "Монако",
            "Нидерланды",
            "Норвегия",
            "Польша",
            "Португалия",
            "Румыния",
            "Сан-Марино",
            "Сербия",
            "Словакия",
            "Словения",
            "Турция",
            "Финляндия",
            "Франция",
            "Хорватия",
            "Черногория",
            "Чехия (Чешская Республика)",
            "Швейцария",
            "Швеция",
            "Эстония"
        ],
        "СНГ": [
            "Абхазия",
            "Азербайджан",
            "Армения",
            "Беларусь",
            "Казахстан",
            "Киргизия",
            "Молдавия",
            "Таджикистан",
            "Туркменистан",
            "Узбекистан",
            "Украина"
        ],
        "Центральная и Северная Америка": [
            "Антигуа и Барбуда",
            "Аруба",
            "Виргинские острова",
            "Британские",
            "Виргинские острова",
            "США",
            "Гватемала",
            "Гондурас",
            "Канада",
            "Коста-Рика",
            "Куба",
            "Мексика",
            "Никарагуа",
            "Панама",
            "Соединенные Штаты Америки"
        ],
        "Южная Америка": [
            "Аргентина",
            "Боливия",
            "Бразилия",
            "Перу",
            "Фолклендские острова (Мальвинские)"
        ]
    }
}
