{
    "address": "614000, Пермский край, Пермь, Монастырская 57",
    "business": {
        "age": "3-5 лет",
        "languages": [
            "Английский",
            "Русский"
        ],
        "size": "101-250",
        "type": "Производитель"
    },
    "contact": {
        "email": "denant@mail.ru",
        "name": "Кувшинников Антон Николаевич",
        "phones": [
            "7-912-8821174"
        ],
        "position": "Директор по развитию экспорта"
    },
    "description": "Производство электрических мостовых кранов грузоподъемностью до 400т, Производство электрических козловых кранов грузоподъемностью до 600т. В том числе специальные литейные, грейферные, магнитные, взрывозащищенные, металлургические краны.",
    "email": "denant@mail.ru",
    "keywords": [
        "производство",
        "изготовление",
        "доставка",
        "монтаж",
        "обслуживание"
    ],
    "name": "ООО \"Пермский завод промоборудования\"",
    "phones": [
        "7-912-8821174"
    ],
    "presence": {},
    "website": "http://www.pzpo.ru",
    "wishlist": {
        "Азия": [
            "Афганистан",
            "Бангладеш",
            "Бахрейн",
            "Бруней-Даруссалам",
            "Бутан",
            "Вьетнам",
            "Грузия",
            "Израиль",
            "Индия",
            "Индонезия",
            "Иордания",
            "Ирак",
            "Иран",
            "Исламская Республика",
            "Йемен",
            "Камбоджа",
            "Катар",
            "Китай",
            "Кувейт",
            "Лаос",
            "Ливан",
            "Малайзия",
            "Мальдивы",
            "Монголия",
            "Мьянма",
            "Непал",
            "Объединенные Арабские Эмираты",
            "Оман",
            "Пакистан",
            "Саудовская Аравия",
            "Северная Корея",
            "Сингапур",
            "Таиланд",
            "Филиппины",
            "Шри-Ланка",
            "Южная Корея",
            "Япония"
        ],
        "Европа": [
            "Австрия",
            "Албания",
            "Андорра",
            "Бельгия",
            "Болгария",
            "Босния и Герцеговина",
            "Великобритания",
            "Венгрия",
            "Германия",
            "Греция",
            "Дания",
            "Европейские сообщества",
            "Ирландия",
            "Исландия",
            "Испания",
            "Италия",
            "Кипр",
            "Латвия",
            "Литва",
            "Лихтенштейн",
            "Люксембург",
            "Македония (Республика Македония)",
            "Мальта",
            "Монако",
            "Нидерланды",
            "Норвегия",
            "Польша",
            "Португалия",
            "Румыния",
            "Сан-Марино",
            "Сербия",
            "Словакия",
            "Словения",
            "Турция",
            "Финляндия",
            "Франция",
            "Хорватия",
            "Черногория",
            "Чехия (Чешская Республика)",
            "Швейцария",
            "Швеция",
            "Эстония"
        ]
    }
}
