{
    "address": "198095, Санкт-Петербург, Старо-Петергофский проспект. д. 24, корп.104",
    "business": {
        "age": "1-2 года",
        "size": "1-15"
    },
    "contact": {},
    "description": "Проектирование и серийное производство многофункциональных и специальных деревообрабатывающих станков и оборудования",
    "email": "stanki-orient@yandex.ru",
    "keywords": [
        "Например:",
        "производство",
        "консалтинг",
        "производство напитков"
    ],
    "name": "ООО \"СТАНКИ-ОРИЕНТ\"",
    "phones": [
        "7-921-9212230"
    ],
    "presence": {},
    "website": "http://www.stanki-orient.ru",
    "wishlist": {}
}
