{
    "address": "346500, Ростовская область, Шахты, Российская Федерация Ростовская область, г. Шахты ул. Ворошилова, 2",
    "business": {
        "age": "3-5 лет",
        "languages": [
            "Английский",
            "Испанский"
        ],
        "size": "более 1000",
        "turnover": "31-100",
        "type": "Производитель"
    },
    "contact": {
        "email": "A.Rakhimov@btcgroup.ru",
        "name": "Рахимов Алик Игоревич",
        "phones": [
            "7-985-9959237"
        ],
        "position": "Менеджер по экспорту"
    },
    "description": "Уникальный для России импортозамещающий комплекс производит высокотехнологичные ткани из синтетических волокон с различными свойствами, такими как гигроскопичность, воздухопроницаемость и антимоскитная защита. Производственная мощность завода «БТК Текстиль» составляет более 12 млн. погонных метров высокотехнологичной ткани в год.",
    "email": "A.Rakhimov@btcgroup.ru",
    "keywords": [
        "Ткани",
        "Высокотехнологичные ткани",
        "Текстиль",
        "Полиамидные ткани",
        "Полиэфирные ткани",
        "Смесовые ткани"
    ],
    "name": "ООО \"БТК Текстиль\"",
    "phones": [
        "7-985-9959237"
    ],
    "presence": {},
    "website": "http://www.btcgroup.ru",
    "wishlist": {
        "Австралия и Океания": [
            "Австралия",
            "Новая Зеландия",
            "Папуа-Новая Гвинея"
        ],
        "Африка": [
            "Алжир",
            "Ботсвана",
            "Египет",
            "Ливийская Арабская Джамахирия",
            "Маврикий",
            "Марокко",
            "Сирийская Арабская Республика",
            "Чад",
            "Южный Судан"
        ],
        "Европа": [
            "Австрия",
            "Албания",
            "Андорра",
            "Бельгия",
            "Болгария",
            "Босния и Герцеговина",
            "Великобритания",
            "Венгрия",
            "Германия",
            "Греция",
            "Дания",
            "Европейские сообщества",
            "Ирландия",
            "Исландия",
            "Испания",
            "Италия",
            "Кипр",
            "Латвия",
            "Литва",
            "Лихтенштейн",
            "Люксембург",
            "Македония (Республика Македония)",
            "Мальта",
            "Монако",
            "Нидерланды",
            "Норвегия",
            "Польша",
            "Португалия",
            "Румыния",
            "Сан-Марино",
            "Сербия",
            "Словакия",
            "Словения",
            "Турция",
            "Финляндия",
            "Франция",
            "Хорватия",
            "Черногория",
            "Чехия (Чешская Республика)",
            "Швейцария",
            "Швеция",
            "Эстония"
        ],
        "СНГ": [
            "Абхазия",
            "Азербайджан",
            "Армения",
            "Беларусь",
            "Казахстан",
            "Киргизия",
            "Молдавия",
            "Таджикистан",
            "Туркменистан",
            "Узбекистан",
            "Украина"
        ],
        "Центральная и Северная Америка": [
            "Антигуа и Барбуда",
            "Аруба",
            "Виргинские острова",
            "Британские",
            "Виргинские острова",
            "США",
            "Гватемала",
            "Гондурас",
            "Канада",
            "Коста-Рика",
            "Куба",
            "Мексика",
            "Никарагуа",
            "Панама",
            "Соединенные Штаты Америки"
        ],
        "Южная Америка": [
            "Аргентина",
            "Боливия",
            "Бразилия",
            "Перу",
            "Фолклендские острова (Мальвинские)"
        ]
    }
}
