{
    "address": "369000, Карачаево-Черкесская Республика, Черкесск, ул. Кавказская 153 В",
    "business": {
        "age": "1-2 года",
        "size": "1-15"
    },
    "contact": {},
    "description": "Компания Кавказпродукт (Key Products Retail Group)-  Крупный производитель фасованных круп премиум класса ТМ       «Амбарель»,соли брикетированной ТМ «Anisalt»,муки ТМ «Меленица».",
    "email": "ama@kprg.ru",
    "keywords": [
        "производство круп, производство соли, производство сахара, бакалея Дистрибьюция, соль в брикетах, масло подсолнечное, купить, соль поваренная пищевая, оптом и в розницу, горох, фасоль, лизунец, сахар, овсяные хлопья, рис, гречка, манка,  пшено, оптово-розничная база, крупа ячневая, гречневая, пшеничная, перловая, кукурузная, манная"
    ],
    "name": "ИП Харцызов А.М.",
    "phones": [
        "7-963-1705099"
    ],
    "presence": {},
    "website": "http://www.ambarel.ru/",
    "wishlist": {}
}
