{
    "address": "305040, Курская область, Курск, г.Курск, ул.Запольная 47",
    "business": {
        "age": "более 10 лет",
        "languages": [
            "Английский"
        ],
        "size": "более 1000",
        "turnover": "2-15",
        "type": "Производитель"
    },
    "contact": {
        "email": "marketing@spektrpribor.ru",
        "name": "Конарев Евгений Александрович",
        "phones": [
            "+7(910)-310-02-01"
        ],
        "position": "Директор по маркетингу"
    },
    "description": "ООО «Завод электробытовых изделий «Спектр-Прибор» было создано в 2007 году единственным учредителем - АО \"Авиаавтоматика\" им. В.В. Тарасова на базе производства товаров народного потребления, входит в оборонный холдинг . Производит и реализует более 50 видов электробытовых изделий и хозяйственных товаров.",
    "email": "marketing@spektrpribor.ru",
    "keywords": [
        "ООО",
        "завод",
        "электробытовые изделия",
        "зэби",
        "\"Спектр-Прибор\"",
        "спектр-прибор",
        "спектрприбор",
        "прибор",
        "эелектрокипятильник",
        "утюг",
        "соковыжималка",
        "электросушка",
        "электрошашлычница",
        "электровафельница",
        "электроорешница",
        "защелки",
        "электрощипцы",
        "производство",
        "вешалка",
        "электроплитка",
        "Курск"
    ],
    "name": "ООО \"Завод электробытовых изделий \"Спектр-Прибор\" г.Курск",
    "phones": [
        "(4712) 72-26-31"
    ],
    "presence": {
        "Азия": [
            "Афганистан"
        ],
        "СНГ": [
            "Абхазия",
            "Азербайджан",
            "Армения",
            "Беларусь",
            "Казахстан",
            "Киргизия",
            "Молдавия",
            "Таджикистан",
            "Туркменистан",
            "Узбекистан",
            "Украина"
        ]
    },
    "website": "http://www.spektr-pribor.ru/ http://www.спектр-прибор.рф/",
    "wishlist": {
        "Азия": [
            "Афганистан",
            "Бангладеш",
            "Бахрейн",
            "Бруней-Даруссалам",
            "Бутан",
            "Вьетнам",
            "Грузия",
            "Израиль",
            "Индия",
            "Индонезия",
            "Иордания",
            "Ирак",
            "Иран",
            "Исламская Республика",
            "Йемен",
            "Камбоджа",
            "Катар",
            "Китай",
            "Кувейт",
            "Лаос",
            "Ливан",
            "Малайзия",
            "Мальдивы",
            "Монголия",
            "Мьянма",
            "Непал",
            "Объединенные Арабские Эмираты",
            "Оман",
            "Пакистан",
            "Саудовская Аравия",
            "Северная Корея",
            "Сингапур",
            "Таиланд",
            "Филиппины",
            "Шри-Ланка",
            "Южная Корея",
            "Япония"
        ],
        "Африка": [
            "Алжир",
            "Ботсвана",
            "Египет",
            "Ливийская Арабская Джамахирия",
            "Маврикий",
            "Марокко",
            "Сирийская Арабская Республика",
            "Чад",
            "Южный Судан"
        ],
        "СНГ": [
            "Абхазия",
            "Азербайджан",
            "Армения",
            "Беларусь",
            "Казахстан",
            "Киргизия",
            "Молдавия",
            "Таджикистан",
            "Туркменистан",
            "Узбекистан",
            "Украина"
        ],
        "Центральная и Северная Америка": [
            "Куба"
        ]
    }
}
