{
    "address": "603053, Нижегородская область, Нижний Новгород, Васнецова, дом 20",
    "business": {
        "age": "1-2 года",
        "languages": [
            "Английский",
            "Итальянский"
        ],
        "size": "1-15",
        "turnover": "менее 2",
        "type": "Производитель"
    },
    "contact": {
        "email": "yakimov@elteco.su",
        "name": "Якимов Алексей Сергеевич",
        "phones": [
            "7-930-7000912"
        ],
        "position": "Генеральный директор"
    },
    "description": "«ЭЛТЕКО» занимается изготовлением низковольтного электрощитового оборудования до 1000 вольт. Наша компания обладает всеми возможностями для качественного и своевременного выполнения заказов. Компания имеет возможности для изготовления и сборки электрощитового оборудования не только по типовым схемам, но и согласно технического задания заказчика. На сегодняшний день мы уже имеем огромный опыт в профильной деятельности и зарекомендовали себя как ведущая организация в данной сфере изготовления НКУ",
    "email": "yakimov@elteco.su",
    "keywords": [
        "Электрощит",
        "авр",
        "вру",
        "щит управления",
        "асу тп",
        "НКУ"
    ],
    "name": "ООО ЭЛТЕКО",
    "phones": [
        "7-930-7000912"
    ],
    "presence": {},
    "website": "http://www.elteco.su",
    "wishlist": {
        "Европа": [
            "Австрия",
            "Албания",
            "Андорра",
            "Бельгия",
            "Болгария",
            "Босния и Герцеговина",
            "Великобритания",
            "Венгрия",
            "Германия",
            "Греция",
            "Дания",
            "Европейские сообщества",
            "Ирландия",
            "Исландия",
            "Испания",
            "Италия",
            "Кипр",
            "Латвия",
            "Литва",
            "Лихтенштейн",
            "Люксембург",
            "Македония (Республика Македония)",
            "Мальта",
            "Монако",
            "Нидерланды",
            "Норвегия",
            "Польша",
            "Португалия",
            "Румыния",
            "Сан-Марино",
            "Сербия",
            "Словакия",
            "Словения",
            "Турция",
            "Финляндия",
            "Франция",
            "Хорватия",
            "Черногория",
            "Чехия (Чешская Республика)",
            "Швейцария",
            "Швеция",
            "Эстония"
        ],
        "СНГ": [
            "Абхазия",
            "Азербайджан",
            "Армения",
            "Беларусь",
            "Казахстан",
            "Киргизия",
            "Молдавия",
            "Таджикистан",
            "Туркменистан",
            "Узбекистан",
            "Украина"
        ]
    }
}
