{
    "address": "426011, Удмуртская Республика, Ижевск, Родниковая, 70",
    "business": {
        "age": "3-5 лет",
        "languages": [
            "Английский"
        ],
        "size": "1-15",
        "turnover": "менее 2",
        "type": "Поставщик услуг, Посредник, Оптовая компания"
    },
    "contact": {
        "email": "specopt18@gmail.com",
        "name": "Ившин Денис Юрьевич",
        "phones": [
            "7-950-1646160"
        ],
        "position": "Директор"
    },
    "description": "поставка строительных материалов, поставка насосных  агрегатов  запчастей и комплектующих  к ним для предприятий нефтегазодобывающего комплекса, поставки продуктов питания",
    "email": "specopt18@gmail.com",
    "keywords": [
        "поставка",
        "производство"
    ],
    "name": "ООО \"СПЕЦОПТТОРГ\"",
    "phones": [
        "7-950-1646160"
    ],
    "presence": {},
    "website": "http://____",
    "wishlist": {
        "Австралия и Океания": [
            "Австралия",
            "Новая Зеландия",
            "Папуа-Новая Гвинея"
        ],
        "Азия": [
            "Афганистан",
            "Бангладеш",
            "Бахрейн",
            "Бруней-Даруссалам",
            "Бутан",
            "Вьетнам",
            "Грузия",
            "Израиль",
            "Индия",
            "Индонезия",
            "Иордания",
            "Ирак",
            "Иран",
            "Исламская Республика",
            "Йемен",
            "Камбоджа",
            "Катар",
            "Китай",
            "Кувейт",
            "Лаос",
            "Ливан",
            "Малайзия",
            "Мальдивы",
            "Монголия",
            "Мьянма",
            "Непал",
            "Объединенные Арабские Эмираты",
            "Оман",
            "Пакистан",
            "Саудовская Аравия",
            "Северная Корея",
            "Сингапур",
            "Таиланд",
            "Филиппины",
            "Шри-Ланка",
            "Южная Корея",
            "Япония"
        ],
        "Африка": [
            "Алжир",
            "Ботсвана",
            "Египет",
            "Ливийская Арабская Джамахирия",
            "Маврикий",
            "Марокко",
            "Сирийская Арабская Республика",
            "Чад",
            "Южный Судан"
        ],
        "Европа": [
            "Австрия",
            "Албания",
            "Андорра",
            "Бельгия",
            "Болгария",
            "Босния и Герцеговина",
            "Великобритания",
            "Венгрия",
            "Германия",
            "Греция",
            "Дания",
            "Европейские сообщества",
            "Ирландия",
            "Исландия",
            "Испания",
            "Италия",
            "Кипр",
            "Латвия",
            "Литва",
            "Лихтенштейн",
            "Люксембург",
            "Македония (Республика Македония)",
            "Мальта",
            "Монако",
            "Нидерланды",
            "Норвегия",
            "Польша",
            "Португалия",
            "Румыния",
            "Сан-Марино",
            "Сербия",
            "Словакия",
            "Словения",
            "Турция",
            "Финляндия",
            "Франция",
            "Хорватия",
            "Черногория",
            "Чехия (Чешская Республика)",
            "Швейцария",
            "Швеция",
            "Эстония"
        ],
        "СНГ": [
            "Абхазия",
            "Азербайджан",
            "Армения",
            "Беларусь",
            "Казахстан",
            "Киргизия",
            "Молдавия",
            "Таджикистан",
            "Туркменистан",
            "Узбекистан",
            "Украина"
        ],
        "Центральная и Северная Америка": [
            "Антигуа и Барбуда",
            "Аруба",
            "Виргинские острова",
            "Британские",
            "Виргинские острова",
            "США",
            "Гватемала",
            "Гондурас",
            "Канада",
            "Коста-Рика",
            "Куба",
            "Мексика",
            "Никарагуа",
            "Панама",
            "Соединенные Штаты Америки"
        ],
        "Южная Америка": [
            "Аргентина",
            "Боливия",
            "Бразилия",
            "Перу",
            "Фолклендские острова (Мальвинские)"
        ]
    }
}
