{
    "address": "433505, Ульяновская область, Димитровград, ул. Свирская, д. 1/1, офис 7",
    "business": {
        "age": "3-5 лет",
        "languages": [
            "Английский",
            "Русский"
        ],
        "size": "101-250",
        "turnover": "2-15",
        "type": "Производитель"
    },
    "contact": {
        "email": "tyupov@rieltprom.ru",
        "name": "Тюпов Виталий",
        "phones": [
            "+79647931331"
        ],
        "position": "Исполнительный директор"
    },
    "description": "ООО \"Ковротекс-Экспорт\" является официальным представителем по работе с зарубежными партнерами крупнейшего производителя технических сукон и пряжи специального назначения ООО \"ТексИнвест\". ООО \"ТексИнвест\" основано в 2013 году и находится в городе Димитровграде с комплексной инфраструктурой, очень хорошо доступно автомобильному и железнодорожному транспорту. Владеет производственными зданиями и технологическим обородуванием для выпуска текстильной продукции технического назначения.",
    "email": "tyupov@rieltprom.ru",
    "keywords": [
        "технические сукна",
        "техсукна",
        "нетканые материалы",
        "прессовые сукна",
        "фильтровальные материалы",
        "иглопробивные сукна",
        "фильтры",
        "шифер"
    ],
    "name": "ООО \"Ковротекс-Экспорт\"",
    "phones": [
        "+7(84235)51027"
    ],
    "presence": {
        "СНГ": [
            "Беларусь",
            "Казахстан",
            "Украина"
        ],
        "Центральная и Северная Америка": [
            "Куба"
        ]
    },
    "website": "http://www.teksinvest.com",
    "wishlist": {
        "Азия": [
            "Индия",
            "Ирак",
            "Иран",
            "Исламская Республика",
            "Пакистан"
        ]
    }
}
