{
    "address": "426011, Удмуртская Республика, Ижевск, ул. 10 лет Октября, 53",
    "business": {
        "age": "3-5 лет",
        "languages": [
            "Английский"
        ],
        "size": "1-15",
        "turnover": "менее 2",
        "type": "Производитель"
    },
    "contact": {
        "email": "elenaelc@yandex.ru",
        "name": "Ельцова Елена",
        "phones": [
            "+7 (3412) 48-75-00"
        ],
        "position": "Финансовый директор"
    },
    "description": "Компания занимается производством и реализацией запасных частей к буровым насосам",
    "email": "elenaelc@yandex.ru",
    "keywords": [
        "бурение",
        "насосы",
        "запасные части",
        "ЗИП"
    ],
    "name": "ООО \"Ойл фэктори\"",
    "phones": [
        "тел.: +7 (3412) 48-75-00"
    ],
    "presence": {
        "СНГ": [
            "Абхазия",
            "Азербайджан",
            "Армения",
            "Беларусь",
            "Казахстан",
            "Киргизия",
            "Молдавия",
            "Таджикистан",
            "Туркменистан",
            "Узбекистан",
            "Украина"
        ]
    },
    "website": "http://www.oilfactory.ru",
    "wishlist": {
        "СНГ": [
            "Абхазия",
            "Азербайджан",
            "Армения",
            "Беларусь",
            "Казахстан",
            "Киргизия",
            "Молдавия",
            "Таджикистан",
            "Туркменистан",
            "Узбекистан",
            "Украина"
        ]
    }
}
