{
    "address": "443022, Самарская область, Самара, 443022, г. Самара, ул. 22 партсъезда, 7а",
    "business": {
        "age": "более 10 лет",
        "languages": [
            "Английский"
        ],
        "size": "16-100",
        "type": "Производитель"
    },
    "contact": {
        "email": "maria_medvedeva@mail.ru",
        "name": "Медведева Мария",
        "phones": [
            "(846) 955-30-83"
        ],
        "position": "менеджер отдела маркетинга"
    },
    "description": "Производство металлорежущих станков, частей и принадлежностей для станков (координатно-расточные, координатно-шлифовальные, отделочно-расточные станки, высокоточные поворотные столы, приводные и электрошпиндели). Ремонт и модернизация высокоточного металлорежущего оборудования. Проектирование и изготовление нестандартного оборудования).",
    "email": "stan@samara.ru",
    "keywords": [
        "координатно-расточные станки , координатно-шлифовальные станки, отделочно-расточные станки, высокоточные поворотные столы, приводные и электрошпинделя"
    ],
    "name": "ЗАО \"Стан-Самара\"",
    "phones": [
        "8 (846) 955-30-83",
        "992-69-84"
    ],
    "presence": {
        "СНГ": [
            "Беларусь",
            "Украина"
        ]
    },
    "website": "http://www.stan-samara.ru",
    "wishlist": {
        "СНГ": [
            "Казахстан",
            "Узбекистан"
        ]
    }
}
